Warning: no access to tty (Bad file descriptor).
Thus no job control in this shell.

 + --------------------------------------------------------------------------
 +        Job name: costin-orig-62-1
 +          Job Id: 6391177.hopque01
 +          System: hopper
 +     Queued Time: Mon Aug 26 13:45:10 2013
 +      Start Time: Mon Aug 26 13:55:24 2013
 + Completion Time: Mon Aug 26 14:20:58 2013
 +            User: ciancu
 +        MOM Host: nid04943
 +           Queue: reg_short
 +  Req. Resources: mppnodect=62,mppnppn=24,mppwidth=1488,walltime=01:30:00
 +  Used Resources: cput=00:00:33,mem=11616kb,vmem=106672kb,walltime=00:25:33
 +     Acct String: mp215
 +   PBS_O_WORKDIR: /global/u2/c/ciancu/THOR/tests/comm-bench/SCRIPTS
 +     Submit Args: ./lala
 + --------------------------------------------------------------------------

