Warning: no access to tty (Bad file descriptor).
Thus no job control in this shell.

----------------------------------------------------------------
Jobs exit status code is 0
Job costin-orig-8-1/6321321.cvrsvc09-ib completed Mon Aug 26 14:40:41 PDT 2013
Submitted by ciancu/ciancu using mp215
Job Limits: neednodes=8:ppn=1,nodes=8:ppn=1,walltime=00:30:00
Job Resources used: cput=00:03:01,mem=156307212kb,vmem=157474292kb,walltime=00:01:42
Nodes used: c0546-ib c0623-ib c0632-ib c0921-ib c0956-ib c0957-ib c0964-ib c0966-ib 

Killing any leftover processes...

Job completed.
