Warning: no access to tty (Bad file descriptor).
Thus no job control in this shell.

----------------------------------------------------------------
Jobs exit status code is 255
Job costin-orig-62-2/6321331.cvrsvc09-ib completed Tue Aug 27 07:08:14 PDT 2013
Submitted by ciancu/ciancu using mp215
Job Limits: neednodes=62:ppn=2,nodes=62:ppn=2,walltime=00:30:00
Job Resources used: cput=01:02:18,mem=139604732kb,vmem=160910496kb,walltime=00:03:32
Nodes used: c0774-ib c0779-ib c0853-ib c0854-ib c0855-ib c0856-ib c0858-ib c0859-ib c0860-ib c0861-ib c0862-ib c0863-ib c0864-ib c0866-ib c0868-ib c0869-ib c0870-ib c0872-ib c0874-ib c0877-ib c0879-ib c1105-ib c1109-ib c1112-ib c1113-ib c1114-ib c1115-ib c1118-ib c1123-ib c1125-ib c1144-ib c1146-ib c1147-ib c1151-ib c1152-ib c1155-ib c1156-ib c1158-ib c1162-ib c1165-ib c1167-ib c1175-ib c1176-ib c1179-ib c1180-ib c1201-ib c1203-ib c1210-ib c1212-ib c1214-ib c1215-ib c1238-ib c1324-ib c1325-ib c1328-ib c1332-ib c1338-ib c1340-ib c1341-ib c1343-ib c1347-ib c1349-ib 

Killing any leftover processes...

Job completed.
