Warning: no access to tty (Bad file descriptor).
Thus no job control in this shell.

 + --------------------------------------------------------------------------
 +        Job name: costin-orig-8-1
 +          Job Id: 6391175.hopque01
 +          System: hopper
 +     Queued Time: Mon Aug 26 13:45:07 2013
 +      Start Time: Mon Aug 26 13:55:22 2013
 + Completion Time: Mon Aug 26 14:13:25 2013
 +            User: ciancu
 +        MOM Host: nid04219
 +           Queue: reg_short
 +  Req. Resources: mppnodect=8,mppnppn=24,mppwidth=192,walltime=01:30:00
 +  Used Resources: cput=00:00:27,mem=16784kb,vmem=126708kb,walltime=00:18:06
 +     Acct String: mp215
 +   PBS_O_WORKDIR: /global/u2/c/ciancu/THOR/tests/comm-bench/SCRIPTS
 +     Submit Args: ./lala
 + --------------------------------------------------------------------------

