Warning: no access to tty (Bad file descriptor).
Thus no job control in this shell.

 + --------------------------------------------------------------------------
 +        Job name: costin-orig-16-1
 +          Job Id: 6391176.hopque01
 +          System: hopper
 +     Queued Time: Mon Aug 26 13:45:09 2013
 +      Start Time: Mon Aug 26 13:55:22 2013
 + Completion Time: Mon Aug 26 14:13:34 2013
 +            User: ciancu
 +        MOM Host: nid04942
 +           Queue: reg_short
 +  Req. Resources: mppnodect=16,mppnppn=24,mppwidth=384,walltime=01:30:00
 +  Used Resources: cput=00:00:26,mem=14628kb,vmem=107468kb,walltime=00:18:14
 +     Acct String: mp215
 +   PBS_O_WORKDIR: /global/u2/c/ciancu/THOR/tests/comm-bench/SCRIPTS
 +     Submit Args: ./lala
 + --------------------------------------------------------------------------

