Warning: no access to tty (Bad file descriptor).
Thus no job control in this shell.

 + --------------------------------------------------------------------------
 +        Job name: costin-orig-64-1
 +          Job Id: 6391178.hopque01
 +          System: hopper
 +     Queued Time: Mon Aug 26 13:45:10 2013
 +      Start Time: Mon Aug 26 13:59:19 2013
 + Completion Time: Mon Aug 26 14:39:50 2013
 +            User: ciancu
 +        MOM Host: nid05431
 +           Queue: reg_short
 +  Req. Resources: mppnodect=64,mppnppn=24,mppwidth=1536,walltime=01:30:00
 +  Used Resources: cput=00:00:27,mem=15372kb,vmem=113996kb,walltime=00:40:33
 +     Acct String: mp215
 +   PBS_O_WORKDIR: /global/u2/c/ciancu/THOR/tests/comm-bench/SCRIPTS
 +     Submit Args: ./lala
 + --------------------------------------------------------------------------

