Warning: no access to tty (Bad file descriptor).
Thus no job control in this shell.

----------------------------------------------------------------
Jobs exit status code is 255
Job costin-orig-62-4/6321333.cvrsvc09-ib completed Tue Aug 27 10:45:02 PDT 2013
Submitted by ciancu/ciancu using mp215
Job Limits: neednodes=62:ppn=4,nodes=62:ppn=4,walltime=00:30:00
Job Resources used: cput=00:42:58,mem=607417496kb,vmem=646677740kb,walltime=00:01:31
Nodes used: c0409-ib c0418-ib c0420-ib c0425-ib c0426-ib c0427-ib c0428-ib c0471-ib c0474-ib c0475-ib c0526-ib c0577-ib c0678-ib c0721-ib c0727-ib c0729-ib c0739-ib c0744-ib c0745-ib c0746-ib c0747-ib c0748-ib c0749-ib c0801-ib c0802-ib c0803-ib c0805-ib c0834-ib c0835-ib c0836-ib c0837-ib c0838-ib c0839-ib c0840-ib c0841-ib c0842-ib c0843-ib c0844-ib c0845-ib c0846-ib c0847-ib c0848-ib c0849-ib c0865-ib c0873-ib c0876-ib c0952-ib c0960-ib c1138-ib c1140-ib c1311-ib c1320-ib c1321-ib c1333-ib c1334-ib c1335-ib c1344-ib c1345-ib c1352-ib c1353-ib c1354-ib c1358-ib 

Killing any leftover processes...

Job completed.
