Warning: no access to tty (Bad file descriptor).
Thus no job control in this shell.

----------------------------------------------------------------
Jobs exit status code is 255
Job costin-orig-64-8/6321347.cvrsvc09-ib completed Thu Aug 29 02:18:52 PDT 2013
Submitted by ciancu/ciancu using mp215
Job Limits: neednodes=64:ppn=8,nodes=64:ppn=8,walltime=00:30:00
Job Resources used: cput=01:00:24,mem=541432188kb,vmem=619246184kb,walltime=00:01:18
Nodes used: c0414-ib c0419-ib c0422-ib c0434-ib c0502-ib c0511-ib c0523-ib c0524-ib c0571-ib c0575-ib c0579-ib c0617-ib c0626-ib c0645-ib c0653-ib c0659-ib c0660-ib c0661-ib c0662-ib c0666-ib c0713-ib c0737-ib c0740-ib c0743-ib c0762-ib c0765-ib c0766-ib c0767-ib c0769-ib c0778-ib c0846-ib c0858-ib c0859-ib c0860-ib c0861-ib c0867-ib c0871-ib c1119-ib c1165-ib c1167-ib c1222-ib c1224-ib c1236-ib c1253-ib c1261-ib c1267-ib c1268-ib c1269-ib c1272-ib c1273-ib c1301-ib c1312-ib c1329-ib c1330-ib c1331-ib c1336-ib c1337-ib c1342-ib c1357-ib c1368-ib c1406-ib c1408-ib c1430-ib c1474-ib 

Killing any leftover processes...

Job completed.
