Warning: no access to tty (Bad file descriptor).
Thus no job control in this shell.

----------------------------------------------------------------
Jobs exit status code is 255
Job costin-orig-64-1/6321341.cvrsvc09-ib completed Wed Aug 28 06:44:06 PDT 2013
Submitted by ciancu/ciancu using mp215
Job Limits: neednodes=64:ppn=1,nodes=64:ppn=1,walltime=00:30:00
Job Resources used: cput=00:14:11,mem=707033060kb,vmem=715488932kb,walltime=00:01:23
Nodes used: c0415-ib c0417-ib c0420-ib c0439-ib c0447-ib c0463-ib c0467-ib c0510-ib c0535-ib c0568-ib c0607-ib c0702-ib c0718-ib c0719-ib c0723-ib c0760-ib c0774-ib c0805-ib c0834-ib c0844-ib c0845-ib c0955-ib c0971-ib c0975-ib c1005-ib c1008-ib c1010-ib c1020-ib c1034-ib c1040-ib c1041-ib c1046-ib c1049-ib c1051-ib c1053-ib c1057-ib c1074-ib c1109-ib c1112-ib c1113-ib c1114-ib c1115-ib c1118-ib c1123-ib c1125-ib c1128-ib c1130-ib c1132-ib c1135-ib c1160-ib c1165-ib c1167-ib c1175-ib c1234-ib c1248-ib c1252-ib c1276-ib c1322-ib c1323-ib c1428-ib c1436-ib c1467-ib c1476-ib c1480-ib 

Killing any leftover processes...

Job completed.
