UPC Runtime warning: Requested shared memory (1024 MB) > available (1019 MB) on node 0 (nid03837): using 1019 MB per thread instead
UPC Runtime warning: Requested shared memory (1024 MB) > available (1019 MB) on node 0 (nid03837): using 1019 MB per thread instead
UPC Runtime warning: Requested shared memory (1024 MB) > available (1019 MB) on node 0 (nid03837): using 1019 MB per thread instead
UPC Runtime warning: Requested shared memory (1024 MB) > available (1019 MB) on node 0 (nid03837): using 1019 MB per thread instead
UPC Runtime warning: Requested shared memory (1024 MB) > available (1019 MB) on node 0 (nid03837): using 1019 MB per thread instead
UPC Runtime warning: Requested shared memory (1024 MB) > available (1019 MB) on node 0 (nid03837): using 1019 MB per thread instead
UPC Runtime warning: Requested shared memory (1024 MB) > available (1019 MB) on node 0 (nid03837): using 1019 MB per thread instead
