Warning: no access to tty (Bad file descriptor).
Thus no job control in this shell.

----------------------------------------------------------------
Jobs exit status code is 0
Job costin-orig-8-2/6321322.cvrsvc09-ib completed Mon Aug 26 17:30:58 PDT 2013
Submitted by ciancu/ciancu using mp215
Job Limits: neednodes=8:ppn=2,nodes=8:ppn=2,walltime=00:30:00
Job Resources used: cput=00:05:11,mem=51176284kb,vmem=103836584kb,walltime=00:01:28
Nodes used: c1261-ib c1308-ib c1422-ib c1451-ib c1452-ib c1453-ib c1471-ib c1473-ib 

Killing any leftover processes...

Job completed.
