# line 1 "<Berkeley UPC 2.19.1>"
# 1 "hello.upc"
#pragma upc upc_code
# 1 "hello.upc"
extern const int MYTHREAD;
extern const int THREADS;
# 15 "hello.upc"
# 1 "hello.upc"
# 1 "/global/u2/n/nchaimov/edison/upc-runtime-thor/thor_pth/supc.h" 1
#pragma upc upc_code
# 1 "/global/u2/n/nchaimov/edison/upc-runtime-thor/thor_pth/supc.h"
# 1 "/global/homes/n/nchaimov/edison/upc-inst/opt/include/upcr_preinclude/upc.h" 1
#pragma upc upc_code
# 1 "/global/homes/n/nchaimov/edison/upc-inst/opt/include/upcr_preinclude/upc.h"

























 

 
# 1 "/global/homes/n/nchaimov/edison/upc-inst/opt/include/upcr_preinclude/upc_types.h" 1



 




typedef unsigned long upc_op_t;

# 20 "/global/homes/n/nchaimov/edison/upc-inst/opt/include/upcr_preinclude/upc_types.h"

typedef int upc_type_t;

# 45 "/global/homes/n/nchaimov/edison/upc-inst/opt/include/upcr_preinclude/upc_types.h"

typedef int upc_flag_t;

# 57 "/global/homes/n/nchaimov/edison/upc-inst/opt/include/upcr_preinclude/upc_types.h"

# 64 "/global/homes/n/nchaimov/edison/upc-inst/opt/include/upcr_preinclude/upc_types.h"

# 30 "/global/homes/n/nchaimov/edison/upc-inst/opt/include/upcr_preinclude/upc.h" 2
#pragma upc upc_code
# 30 "/global/homes/n/nchaimov/edison/upc-inst/opt/include/upcr_preinclude/upc.h"








 
# 1 "/global/homes/n/nchaimov/edison/upc-inst/opt/include/upcr_geninclude/stddef.h" 1






# 13 "/global/homes/n/nchaimov/edison/upc-inst/opt/include/upcr_geninclude/stddef.h"


# 1 "/usr/lib64/gcc/x86_64-suse-linux/4.3/include/stddef.h" 1 3


















 






 



 








 





 

 





 


 



 






 
# 96 "/usr/lib64/gcc/x86_64-suse-linux/4.3/include/stddef.h" 3


 









 
# 121 "/usr/lib64/gcc/x86_64-suse-linux/4.3/include/stddef.h" 3





 

 


 
# 152 "/usr/lib64/gcc/x86_64-suse-linux/4.3/include/stddef.h" 3
typedef long ptrdiff_t;
# 161 "/usr/lib64/gcc/x86_64-suse-linux/4.3/include/stddef.h" 3

 




 


 
# 214 "/usr/lib64/gcc/x86_64-suse-linux/4.3/include/stddef.h" 3
typedef unsigned long size_t;
# 238 "/usr/lib64/gcc/x86_64-suse-linux/4.3/include/stddef.h" 3





 


 
# 280 "/usr/lib64/gcc/x86_64-suse-linux/4.3/include/stddef.h" 3










 
# 308 "/usr/lib64/gcc/x86_64-suse-linux/4.3/include/stddef.h" 3


 
# 321 "/usr/lib64/gcc/x86_64-suse-linux/4.3/include/stddef.h" 3





typedef int wchar_t;
# 347 "/usr/lib64/gcc/x86_64-suse-linux/4.3/include/stddef.h" 3

# 359 "/usr/lib64/gcc/x86_64-suse-linux/4.3/include/stddef.h" 3


 
 
# 392 "/usr/lib64/gcc/x86_64-suse-linux/4.3/include/stddef.h" 3



 

# 410 "/usr/lib64/gcc/x86_64-suse-linux/4.3/include/stddef.h" 3



 




# 17 "/global/homes/n/nchaimov/edison/upc-inst/opt/include/upcr_geninclude/stddef.h" 2
# 1 "/usr/lib64/gcc/x86_64-suse-linux/4.3/include/stddef.h" 1 3


















 






 



 
# 18 "/global/homes/n/nchaimov/edison/upc-inst/opt/include/upcr_geninclude/stddef.h" 2




  


 


  

 









# 40 "/global/homes/n/nchaimov/edison/upc-inst/opt/include/upcr_preinclude/upc.h" 2
#pragma upc upc_code
# 40 "/global/homes/n/nchaimov/edison/upc-inst/opt/include/upcr_preinclude/upc.h"

# 1 "/global/homes/n/nchaimov/edison/upc-inst/opt/include/upcr_preinclude/upc_bits.h" 1





 

 


 






 
# 26 "/global/homes/n/nchaimov/edison/upc-inst/opt/include/upcr_preinclude/upc_bits.h"



# 42 "/global/homes/n/nchaimov/edison/upc-inst/opt/include/upcr_preinclude/upc.h" 2
#pragma upc upc_code
# 42 "/global/homes/n/nchaimov/edison/upc-inst/opt/include/upcr_preinclude/upc.h"




 
# 54 "/global/homes/n/nchaimov/edison/upc-inst/opt/include/upcr_preinclude/upc.h"











 
# 73 "/global/homes/n/nchaimov/edison/upc-inst/opt/include/upcr_preinclude/upc.h"

extern void upc_global_exit (int);




 
# 1 "/global/homes/n/nchaimov/edison/upc-inst/opt/include/upcr_geninclude/stdlib.h" 1




# 1 "/usr/include/stdlib.h" 1 3
















 



 



# 1 "/usr/include/features.h" 1 3
















 









































































 


 
# 118 "/usr/include/features.h" 3


 




 








 
# 141 "/usr/include/features.h" 3


 
# 150 "/usr/include/features.h" 3

 
# 172 "/usr/include/features.h" 3


 
# 182 "/usr/include/features.h" 3




 





 






 
# 214 "/usr/include/features.h" 3





























# 264 "/usr/include/features.h" 3





































# 311 "/usr/include/features.h" 3

 



 







 




 






 
# 343 "/usr/include/features.h" 3

 
# 1 "/usr/include/sys/cdefs.h" 1 3

















 




 






 




 









 
# 58 "/usr/include/sys/cdefs.h" 3

# 71 "/usr/include/sys/cdefs.h" 3


 




 




 




 
# 96 "/usr/include/sys/cdefs.h" 3






 
# 111 "/usr/include/sys/cdefs.h" 3


 
# 121 "/usr/include/sys/cdefs.h" 3


 







 



# 146 "/usr/include/sys/cdefs.h" 3

 

 
# 163 "/usr/include/sys/cdefs.h" 3










 



# 187 "/usr/include/sys/cdefs.h" 3






 




 






 








 








 
# 231 "/usr/include/sys/cdefs.h" 3

 











 









 
# 261 "/usr/include/sys/cdefs.h" 3


 







 
# 284 "/usr/include/sys/cdefs.h" 3

 







 
# 314 "/usr/include/sys/cdefs.h" 3


 








 




 






 
# 352 "/usr/include/sys/cdefs.h" 3

# 1 "/usr/include/bits/wordsize.h" 1 3
 

# 354 "/usr/include/sys/cdefs.h" 2 3

# 386 "/usr/include/sys/cdefs.h" 3

# 348 "/usr/include/features.h" 2 3



 







 










 
# 1 "/usr/include/gnu/stubs.h" 1 3

 

# 1 "/usr/include/bits/wordsize.h" 1 3
 

# 5 "/usr/include/gnu/stubs.h" 2 3

# 1 "/usr/include/gnu/stubs-64.h" 1 3



 





# 10 "/usr/include/gnu/stubs.h" 2 3
# 372 "/usr/include/features.h" 2 3


# 26 "/usr/include/stdlib.h" 2 3

 
# 1 "/global/homes/n/nchaimov/edison/upc-inst/opt/include/upcr_geninclude/stddef.h" 1






# 13 "/global/homes/n/nchaimov/edison/upc-inst/opt/include/upcr_geninclude/stddef.h"


# 1 "/usr/lib64/gcc/x86_64-suse-linux/4.3/include/stddef.h" 1 3


















 






 



 








 
# 50 "/usr/lib64/gcc/x86_64-suse-linux/4.3/include/stddef.h" 3



 


 



 






 
# 96 "/usr/lib64/gcc/x86_64-suse-linux/4.3/include/stddef.h" 3


 









 
# 121 "/usr/lib64/gcc/x86_64-suse-linux/4.3/include/stddef.h" 3





 

 


 
# 161 "/usr/lib64/gcc/x86_64-suse-linux/4.3/include/stddef.h" 3

 




 


 
# 238 "/usr/lib64/gcc/x86_64-suse-linux/4.3/include/stddef.h" 3





 


 
# 347 "/usr/lib64/gcc/x86_64-suse-linux/4.3/include/stddef.h" 3

# 359 "/usr/lib64/gcc/x86_64-suse-linux/4.3/include/stddef.h" 3


 
 
# 392 "/usr/lib64/gcc/x86_64-suse-linux/4.3/include/stddef.h" 3



 

# 410 "/usr/lib64/gcc/x86_64-suse-linux/4.3/include/stddef.h" 3



 




# 17 "/global/homes/n/nchaimov/edison/upc-inst/opt/include/upcr_geninclude/stddef.h" 2
# 1 "/usr/lib64/gcc/x86_64-suse-linux/4.3/include/stddef.h" 1 3


















 






 



 
# 18 "/global/homes/n/nchaimov/edison/upc-inst/opt/include/upcr_geninclude/stddef.h" 2




  


 


  

 









# 34 "/usr/include/stdlib.h" 2 3







 
# 1 "/usr/include/bits/waitflags.h" 1 3

















 






 



 





# 43 "/usr/include/stdlib.h" 2 3
# 1 "/usr/include/bits/waitstatus.h" 1 3

















 






 


 


 


 


 


 



 



 




 


 








# 1 "/usr/include/endian.h" 1 3
















 












 





 
# 1 "/usr/include/bits/endian.h" 1 3
 





# 38 "/usr/include/endian.h" 2 3


 




# 51 "/usr/include/endian.h" 3









 
# 1 "/usr/include/bits/byteswap.h" 1 3


















 








# 1 "/usr/include/bits/wordsize.h" 1 3
 

# 29 "/usr/include/bits/byteswap.h" 2 3

 



# 53 "/usr/include/bits/byteswap.h" 3


 




# 67 "/usr/include/bits/byteswap.h" 3

 
# 97 "/usr/include/bits/byteswap.h" 3



 
# 110 "/usr/include/bits/byteswap.h" 3

# 136 "/usr/include/bits/byteswap.h" 3

# 62 "/usr/include/endian.h" 2 3












# 95 "/usr/include/endian.h" 3

# 66 "/usr/include/bits/waitstatus.h" 2 3

union wait
  {
    int w_status;
    struct
      {

	unsigned int __w_termsig:7;  
	unsigned int __w_coredump:1;  
	unsigned int __w_retcode:8;  
	unsigned int:16;
# 84 "/usr/include/bits/waitstatus.h" 3
      } __wait_terminated;
    struct
      {

	unsigned int __w_stopval:8;  
	unsigned int __w_stopsig:8;  
	unsigned int:16;
# 97 "/usr/include/bits/waitstatus.h" 3
      } __wait_stopped;
  };







# 44 "/usr/include/stdlib.h" 2 3




 

# 57 "/usr/include/stdlib.h" 3




 





 
typedef union
  {
    union wait *__uptr;
    int *__iptr;
  } __WAIT_STATUS __attribute__ ((__transparent_union__));



# 83 "/usr/include/stdlib.h" 3

 
# 95 "/usr/include/stdlib.h" 3


 
typedef struct
  {
    int quot;			 
    int rem;			 
  } div_t;

 

typedef struct
  {
    long int quot;		 
    long int rem;		 
  } ldiv_t;






 
__extension__ typedef struct
  {
    long long int quot;		 
    long long int rem;		 
  } lldiv_t;





 




 




 

extern size_t __ctype_get_mb_cur_max (void) __attribute__ ((__nothrow__)) ;



 
extern double atof (__const char *__nptr)
     __attribute__ ((__nothrow__)) __attribute__ ((__pure__)) __attribute__ ((__nonnull__ (1))) ;
 
extern int atoi (__const char *__nptr)
     __attribute__ ((__nothrow__)) __attribute__ ((__pure__)) __attribute__ ((__nonnull__ (1))) ;
 
extern long int atol (__const char *__nptr)
     __attribute__ ((__nothrow__)) __attribute__ ((__pure__)) __attribute__ ((__nonnull__ (1))) ;




 
__extension__ extern long long int atoll (__const char *__nptr)
     __attribute__ ((__nothrow__)) __attribute__ ((__pure__)) __attribute__ ((__nonnull__ (1))) ;




 
extern double strtod (__const char *__restrict __nptr,
		      char **__restrict __endptr)
     __attribute__ ((__nothrow__)) __attribute__ ((__nonnull__ (1))) ;




 
extern float strtof (__const char *__restrict __nptr,
		     char **__restrict __endptr) __attribute__ ((__nothrow__)) __attribute__ ((__nonnull__ (1))) ;

extern long double strtold (__const char *__restrict __nptr,
			    char **__restrict __endptr)
     __attribute__ ((__nothrow__)) __attribute__ ((__nonnull__ (1))) ;




 
extern long int strtol (__const char *__restrict __nptr,
			char **__restrict __endptr, int __base)
     __attribute__ ((__nothrow__)) __attribute__ ((__nonnull__ (1))) ;
 
extern unsigned long int strtoul (__const char *__restrict __nptr,
				  char **__restrict __endptr, int __base)
     __attribute__ ((__nothrow__)) __attribute__ ((__nonnull__ (1))) ;



 
__extension__
extern long long int strtoq (__const char *__restrict __nptr,
			     char **__restrict __endptr, int __base)
     __attribute__ ((__nothrow__)) __attribute__ ((__nonnull__ (1))) ;
 
__extension__
extern unsigned long long int strtouq (__const char *__restrict __nptr,
				       char **__restrict __endptr, int __base)
     __attribute__ ((__nothrow__)) __attribute__ ((__nonnull__ (1))) ;




 
__extension__
extern long long int strtoll (__const char *__restrict __nptr,
			      char **__restrict __endptr, int __base)
     __attribute__ ((__nothrow__)) __attribute__ ((__nonnull__ (1))) ;
 
__extension__
extern unsigned long long int strtoull (__const char *__restrict __nptr,
					char **__restrict __endptr, int __base)
     __attribute__ ((__nothrow__)) __attribute__ ((__nonnull__ (1))) ;














 


 
# 1 "/usr/include/xlocale.h" 1 3


















 







 
typedef struct __locale_struct
{
   
  struct locale_data *__locales[13];  

   
  const unsigned short int *__ctype_b;
  const int *__ctype_tolower;
  const int *__ctype_toupper;

   
  const char *__names[13];
} *__locale_t;

 
typedef __locale_t locale_t;

# 237 "/usr/include/stdlib.h" 2 3


 
extern long int strtol_l (__const char *__restrict __nptr,
			  char **__restrict __endptr, int __base,
			  __locale_t __loc) __attribute__ ((__nothrow__)) __attribute__ ((__nonnull__ (1, 4))) ;

extern unsigned long int strtoul_l (__const char *__restrict __nptr,
				    char **__restrict __endptr,
				    int __base, __locale_t __loc)
     __attribute__ ((__nothrow__)) __attribute__ ((__nonnull__ (1, 4))) ;

__extension__
extern long long int strtoll_l (__const char *__restrict __nptr,
				char **__restrict __endptr, int __base,
				__locale_t __loc)
     __attribute__ ((__nothrow__)) __attribute__ ((__nonnull__ (1, 4))) ;

__extension__
extern unsigned long long int strtoull_l (__const char *__restrict __nptr,
					  char **__restrict __endptr,
					  int __base, __locale_t __loc)
     __attribute__ ((__nothrow__)) __attribute__ ((__nonnull__ (1, 4))) ;

extern double strtod_l (__const char *__restrict __nptr,
			char **__restrict __endptr, __locale_t __loc)
     __attribute__ ((__nothrow__)) __attribute__ ((__nonnull__ (1, 3))) ;

extern float strtof_l (__const char *__restrict __nptr,
		       char **__restrict __endptr, __locale_t __loc)
     __attribute__ ((__nothrow__)) __attribute__ ((__nonnull__ (1, 3))) ;

extern long double strtold_l (__const char *__restrict __nptr,
			      char **__restrict __endptr,
			      __locale_t __loc)
     __attribute__ ((__nothrow__)) __attribute__ ((__nonnull__ (1, 3))) ;



# 305 "/usr/include/stdlib.h" 3





 
extern char *l64a (long int __n) __attribute__ ((__nothrow__)) ;

 
extern long int a64l (__const char *__s)
     __attribute__ ((__nothrow__)) __attribute__ ((__pure__)) __attribute__ ((__nonnull__ (1))) ;



# 1 "/usr/include/sys/types.h" 1 3

















 



 








# 1 "/usr/include/bits/types.h" 1 3

















 



 




# 1 "/usr/include/bits/wordsize.h" 1 3
 

# 29 "/usr/include/bits/types.h" 2 3

 
typedef unsigned char __u_char;
typedef unsigned short int __u_short;
typedef unsigned int __u_int;
typedef unsigned long int __u_long;

 
typedef signed char __int8_t;
typedef unsigned char __uint8_t;
typedef signed short int __int16_t;
typedef unsigned short int __uint16_t;
typedef signed int __int32_t;
typedef unsigned int __uint32_t;

typedef signed long int __int64_t;
typedef unsigned long int __uint64_t;





 

typedef long int __quad_t;
typedef unsigned long int __u_quad_t;
# 68 "/usr/include/bits/types.h" 3





























 

# 126 "/usr/include/bits/types.h" 3
 
# 1 "/usr/include/bits/typesizes.h" 1 3

















 









 

# 61 "/usr/include/bits/typesizes.h" 3

 



# 132 "/usr/include/bits/types.h" 2 3


typedef unsigned long int __dev_t;	 
typedef unsigned int __uid_t;	 
typedef unsigned int __gid_t;	 
typedef unsigned long int __ino_t;	 
typedef unsigned long int __ino64_t;	 
typedef unsigned int __mode_t;	 
typedef unsigned long int __nlink_t;	 
typedef long int __off_t;	 
typedef long int __off64_t;	 
typedef int __pid_t;	 
typedef struct { int __val[2]; } __fsid_t;	 
typedef long int __clock_t;	 
typedef unsigned long int __rlim_t;	 
typedef unsigned long int __rlim64_t;	 
typedef unsigned int __id_t;		 
typedef long int __time_t;	 
typedef unsigned int __useconds_t;  
typedef long int __suseconds_t;  

typedef int __daddr_t;	 
typedef long int __swblk_t;	 
typedef int __key_t;	 

 
typedef int __clockid_t;

 
typedef void * __timer_t;

 
typedef long int __blksize_t;

 

 
typedef long int __blkcnt_t;
typedef long int __blkcnt64_t;

 
typedef unsigned long int __fsblkcnt_t;
typedef unsigned long int __fsblkcnt64_t;

 
typedef unsigned long int __fsfilcnt_t;
typedef unsigned long int __fsfilcnt64_t;

typedef long int __ssize_t;  


 
typedef __off64_t __loff_t;	 
typedef __quad_t *__qaddr_t;
typedef char *__caddr_t;

 
typedef long int __intptr_t;

 
typedef unsigned int __socklen_t;




# 32 "/usr/include/sys/types.h" 2 3



typedef __u_char u_char;
typedef __u_short u_short;
typedef __u_int u_int;
typedef __u_long u_long;
typedef __quad_t quad_t;
typedef __u_quad_t u_quad_t;
typedef __fsid_t fsid_t;




typedef __loff_t loff_t;



typedef __ino_t ino_t;
# 57 "/usr/include/sys/types.h" 3
typedef __ino64_t ino64_t;




typedef __dev_t dev_t;




typedef __gid_t gid_t;




typedef __mode_t mode_t;




typedef __nlink_t nlink_t;




typedef __uid_t uid_t;





typedef __off_t off_t;
# 95 "/usr/include/sys/types.h" 3
typedef __off64_t off64_t;




typedef __pid_t pid_t;




typedef __id_t id_t;




typedef __ssize_t ssize_t;





typedef __daddr_t daddr_t;
typedef __caddr_t caddr_t;





typedef __key_t key_t;



# 1 "/global/homes/n/nchaimov/edison/upc-inst/opt/include/upcr_geninclude/time.h" 1




# 1 "/usr/include/time.h" 1 3
















 



 



# 33 "/usr/include/time.h" 3

# 52 "/usr/include/time.h" 3







 
typedef __clock_t clock_t;














 
typedef __time_t time_t;














 
typedef __clockid_t clockid_t;










 
typedef __timer_t timer_t;





# 128 "/usr/include/time.h" 3


# 420 "/usr/include/time.h" 3

# 7 "/global/homes/n/nchaimov/edison/upc-inst/opt/include/upcr_geninclude/time.h" 2
# 1 "/usr/include/time.h" 1 3
















 



 













 
# 1 "/global/homes/n/nchaimov/edison/upc-inst/opt/include/upcr_geninclude/stddef.h" 1






# 13 "/global/homes/n/nchaimov/edison/upc-inst/opt/include/upcr_geninclude/stddef.h"


# 1 "/usr/lib64/gcc/x86_64-suse-linux/4.3/include/stddef.h" 1 3


















 






 



 








 
# 50 "/usr/lib64/gcc/x86_64-suse-linux/4.3/include/stddef.h" 3



 


 



 






 
# 96 "/usr/lib64/gcc/x86_64-suse-linux/4.3/include/stddef.h" 3


 









 
# 121 "/usr/lib64/gcc/x86_64-suse-linux/4.3/include/stddef.h" 3





 

 


 
# 161 "/usr/lib64/gcc/x86_64-suse-linux/4.3/include/stddef.h" 3

 




 


 
# 238 "/usr/lib64/gcc/x86_64-suse-linux/4.3/include/stddef.h" 3





 


 
# 347 "/usr/lib64/gcc/x86_64-suse-linux/4.3/include/stddef.h" 3

# 359 "/usr/lib64/gcc/x86_64-suse-linux/4.3/include/stddef.h" 3


 
 
# 392 "/usr/lib64/gcc/x86_64-suse-linux/4.3/include/stddef.h" 3



 

# 410 "/usr/lib64/gcc/x86_64-suse-linux/4.3/include/stddef.h" 3



 




# 17 "/global/homes/n/nchaimov/edison/upc-inst/opt/include/upcr_geninclude/stddef.h" 2
# 1 "/usr/lib64/gcc/x86_64-suse-linux/4.3/include/stddef.h" 1 3


















 






 



 
# 18 "/global/homes/n/nchaimov/edison/upc-inst/opt/include/upcr_geninclude/stddef.h" 2




  


 


  

 









# 39 "/usr/include/time.h" 2 3


 
# 1 "/usr/include/bits/time.h" 1 3

















 



 







 


 


# 43 "/usr/include/bits/time.h" 3


 

 

 

 


 






# 43 "/usr/include/time.h" 2 3

 








# 68 "/usr/include/time.h" 3

# 84 "/usr/include/time.h" 3

# 96 "/usr/include/time.h" 3

# 108 "/usr/include/time.h" 3











 
struct timespec
  {
    __time_t tv_sec;		 
    long int tv_nsec;		 
  };







 
struct tm
{
  int tm_sec;			 
  int tm_min;			 
  int tm_hour;			 
  int tm_mday;			 
  int tm_mon;			 
  int tm_year;			 
  int tm_wday;			 
  int tm_yday;			 
  int tm_isdst;			 


  long int tm_gmtoff;		 
  __const char *tm_zone;	 




};







 
struct itimerspec
  {
    struct timespec it_interval;
    struct timespec it_value;
  };

 
struct sigevent;



# 178 "/usr/include/time.h" 3




 
extern clock_t clock (void) __attribute__ ((__nothrow__));

 
extern time_t time (time_t *__timer) __attribute__ ((__nothrow__));

 
extern double difftime (time_t __time1, time_t __time0)
     __attribute__ ((__nothrow__)) __attribute__ ((__const__));

 
extern time_t mktime (struct tm *__tp) __attribute__ ((__nothrow__));




 
extern size_t strftime (char *__restrict __s, size_t __maxsize,
			__const char *__restrict __format,
			__const struct tm *__restrict __tp) __attribute__ ((__nothrow__));




 
extern char *strptime (__const char *__restrict __s,
		       __const char *__restrict __fmt, struct tm *__tp)
     __attribute__ ((__nothrow__));




 


extern size_t strftime_l (char *__restrict __s, size_t __maxsize,
			  __const char *__restrict __format,
			  __const struct tm *__restrict __tp,
			  __locale_t __loc) __attribute__ ((__nothrow__));



extern char *strptime_l (__const char *__restrict __s,
			 __const char *__restrict __fmt, struct tm *__tp,
			 __locale_t __loc) __attribute__ ((__nothrow__));





 
extern struct tm *gmtime (__const time_t *__timer) __attribute__ ((__nothrow__));


 
extern struct tm *localtime (__const time_t *__timer) __attribute__ ((__nothrow__));




 
extern struct tm *gmtime_r (__const time_t *__restrict __timer,
			    struct tm *__restrict __tp) __attribute__ ((__nothrow__));


 
extern struct tm *localtime_r (__const time_t *__restrict __timer,
			       struct tm *__restrict __tp) __attribute__ ((__nothrow__));




 
extern char *asctime (__const struct tm *__tp) __attribute__ ((__nothrow__));

 
extern char *ctime (__const time_t *__timer) __attribute__ ((__nothrow__));



 


 
extern char *asctime_r (__const struct tm *__restrict __tp,
			char *__restrict __buf) __attribute__ ((__nothrow__));

 
extern char *ctime_r (__const time_t *__restrict __timer,
		      char *__restrict __buf) __attribute__ ((__nothrow__));



 
extern char *__tzname[2];	 
extern int __daylight;		 
extern long int __timezone;	 



 
extern char *tzname[2];


 
extern void tzset (void) __attribute__ ((__nothrow__));



extern int daylight;
extern long int timezone;




 
extern int stime (__const time_t *__when) __attribute__ ((__nothrow__));




 






 

 
extern time_t timegm (struct tm *__tp) __attribute__ ((__nothrow__));

 
extern time_t timelocal (struct tm *__tp) __attribute__ ((__nothrow__));

 
extern int dysize (int __year) __attribute__ ((__nothrow__))  __attribute__ ((__const__));







 
extern int nanosleep (__const struct timespec *__requested_time,
		      struct timespec *__remaining);


 
extern int clock_getres (clockid_t __clock_id, struct timespec *__res) __attribute__ ((__nothrow__));

 
extern int clock_gettime (clockid_t __clock_id, struct timespec *__tp) __attribute__ ((__nothrow__));

 
extern int clock_settime (clockid_t __clock_id, __const struct timespec *__tp)
     __attribute__ ((__nothrow__));





 
extern int clock_nanosleep (clockid_t __clock_id, int __flags,
			    __const struct timespec *__req,
			    struct timespec *__rem);

 
extern int clock_getcpuclockid (pid_t __pid, clockid_t *__clock_id) __attribute__ ((__nothrow__));



 
extern int timer_create (clockid_t __clock_id,
			 struct sigevent *__restrict __evp,
			 timer_t *__restrict __timerid) __attribute__ ((__nothrow__));

 
extern int timer_delete (timer_t __timerid) __attribute__ ((__nothrow__));

 
extern int timer_settime (timer_t __timerid, int __flags,
			  __const struct itimerspec *__restrict __value,
			  struct itimerspec *__restrict __ovalue) __attribute__ ((__nothrow__));

 
extern int timer_gettime (timer_t __timerid, struct itimerspec *__value)
     __attribute__ ((__nothrow__));

 
extern int timer_getoverrun (timer_t __timerid) __attribute__ ((__nothrow__));














 
extern int getdate_err;







 
extern struct tm *getdate (__const char *__string);












 
extern int getdate_r (__const char *__restrict __string,
		      struct tm *__restrict __resbufp);






# 8 "/global/homes/n/nchaimov/edison/upc-inst/opt/include/upcr_geninclude/time.h" 2






# 22 "/global/homes/n/nchaimov/edison/upc-inst/opt/include/upcr_geninclude/time.h"



# 134 "/usr/include/sys/types.h" 2 3



typedef __useconds_t useconds_t;



typedef __suseconds_t suseconds_t;




# 1 "/global/homes/n/nchaimov/edison/upc-inst/opt/include/upcr_geninclude/stddef.h" 1






# 13 "/global/homes/n/nchaimov/edison/upc-inst/opt/include/upcr_geninclude/stddef.h"


# 1 "/usr/lib64/gcc/x86_64-suse-linux/4.3/include/stddef.h" 1 3


















 






 



 








 
# 50 "/usr/lib64/gcc/x86_64-suse-linux/4.3/include/stddef.h" 3



 


 



 






 
# 96 "/usr/lib64/gcc/x86_64-suse-linux/4.3/include/stddef.h" 3


 









 
# 121 "/usr/lib64/gcc/x86_64-suse-linux/4.3/include/stddef.h" 3





 

 


 
# 161 "/usr/lib64/gcc/x86_64-suse-linux/4.3/include/stddef.h" 3

 




 


 
# 238 "/usr/lib64/gcc/x86_64-suse-linux/4.3/include/stddef.h" 3





 


 
# 347 "/usr/lib64/gcc/x86_64-suse-linux/4.3/include/stddef.h" 3

# 359 "/usr/lib64/gcc/x86_64-suse-linux/4.3/include/stddef.h" 3


 
 
# 392 "/usr/lib64/gcc/x86_64-suse-linux/4.3/include/stddef.h" 3



 

# 410 "/usr/lib64/gcc/x86_64-suse-linux/4.3/include/stddef.h" 3



 




# 17 "/global/homes/n/nchaimov/edison/upc-inst/opt/include/upcr_geninclude/stddef.h" 2
# 1 "/usr/lib64/gcc/x86_64-suse-linux/4.3/include/stddef.h" 1 3


















 






 



 
# 18 "/global/homes/n/nchaimov/edison/upc-inst/opt/include/upcr_geninclude/stddef.h" 2




  


 


  

 









# 148 "/usr/include/sys/types.h" 2 3


 
typedef unsigned long int ulong;
typedef unsigned short int ushort;
typedef unsigned int uint;


 

# 186 "/usr/include/sys/types.h" 3

 







typedef int int8_t __attribute__ ((__mode__ (__QI__)));
typedef int int16_t __attribute__ ((__mode__ (__HI__)));
typedef int int32_t __attribute__ ((__mode__ (__SI__)));
typedef int int64_t __attribute__ ((__mode__ (__DI__)));


typedef unsigned int u_int8_t __attribute__ ((__mode__ (__QI__)));
typedef unsigned int u_int16_t __attribute__ ((__mode__ (__HI__)));
typedef unsigned int u_int32_t __attribute__ ((__mode__ (__SI__)));
typedef unsigned int u_int64_t __attribute__ ((__mode__ (__DI__)));

typedef int register_t __attribute__ ((__mode__ (__word__)));



 





 


 
# 1 "/usr/include/sys/select.h" 1 3

















 

 






 


 
# 1 "/usr/include/bits/select.h" 1 3
















 





# 1 "/usr/include/bits/wordsize.h" 1 3
 

# 24 "/usr/include/bits/select.h" 2 3










# 44 "/usr/include/bits/select.h" 3

# 58 "/usr/include/bits/select.h" 3

# 32 "/usr/include/sys/select.h" 2 3

 
# 1 "/usr/include/bits/sigset.h" 1 3


















 




typedef int __sig_atomic_t;

 


typedef struct
  {
    unsigned long int __val[(1024 / (8 * sizeof (unsigned long int)))];
  } __sigset_t;








 

# 35 "/usr/include/sys/select.h" 2 3



typedef __sigset_t sigset_t;


 
# 1 "/global/homes/n/nchaimov/edison/upc-inst/opt/include/upcr_geninclude/time.h" 1










# 24 "/global/homes/n/nchaimov/edison/upc-inst/opt/include/upcr_geninclude/time.h"

# 45 "/usr/include/sys/select.h" 2 3
# 1 "/usr/include/bits/time.h" 1 3

















 



 

# 60 "/usr/include/bits/time.h" 3








 
struct timeval
  {
    __time_t tv_sec;		 
    __suseconds_t tv_usec;	 
  };
# 47 "/usr/include/sys/select.h" 2 3







 
typedef long int __fd_mask;

 



 




 
typedef struct
  {
    
 

    __fd_mask fds_bits[1024 / (8 * (int) sizeof (__fd_mask))];





  } fd_set;

 



 
typedef __fd_mask fd_mask;

 




 















 
extern int select (int __nfds, fd_set *__restrict __readfds,
		   fd_set *__restrict __writefds,
		   fd_set *__restrict __exceptfds,
		   struct timeval *__restrict __timeout);







 
extern int pselect (int __nfds, fd_set *__restrict __readfds,
		    fd_set *__restrict __writefds,
		    fd_set *__restrict __exceptfds,
		    const struct timespec *__restrict __timeout,
		    const __sigset_t *__restrict __sigmask);




# 221 "/usr/include/sys/types.h" 2 3

 
# 1 "/usr/include/sys/sysmacros.h" 1 3


















 








 

__extension__
extern unsigned int gnu_dev_major (unsigned long long int __dev)
     __attribute__ ((__nothrow__));
__extension__
extern unsigned int gnu_dev_minor (unsigned long long int __dev)
     __attribute__ ((__nothrow__));
__extension__
extern unsigned long long int gnu_dev_makedev (unsigned int __major,
					       unsigned int __minor)
     __attribute__ ((__nothrow__));

# 62 "/usr/include/sys/sysmacros.h" 3


 





# 224 "/usr/include/sys/types.h" 2 3




typedef __blksize_t blksize_t;



 


typedef __blkcnt_t blkcnt_t;	  



typedef __fsblkcnt_t fsblkcnt_t;  



typedef __fsfilcnt_t fsfilcnt_t;  
# 260 "/usr/include/sys/types.h" 3


typedef __blkcnt64_t blkcnt64_t;      
typedef __fsblkcnt64_t fsblkcnt64_t;  
typedef __fsfilcnt64_t fsfilcnt64_t;  



 
# 1 "/usr/include/bits/pthreadtypes.h" 1 3

















 




# 1 "/usr/include/bits/wordsize.h" 1 3
 

# 24 "/usr/include/bits/pthreadtypes.h" 2 3

# 46 "/usr/include/bits/pthreadtypes.h" 3



 
typedef unsigned long int pthread_t;


typedef union
{
  char __size[56];
  long int __align;
} pthread_attr_t;



typedef struct __pthread_internal_list
{
  struct __pthread_internal_list *__prev;
  struct __pthread_internal_list *__next;
} __pthread_list_t;
# 72 "/usr/include/bits/pthreadtypes.h" 3



 
typedef union
{
  struct __pthread_mutex_s
  {
    int __lock;
    unsigned int __count;
    int __owner;

    unsigned int __nusers;

    
 
    int __kind;

    int __spins;
    __pthread_list_t __list;
# 101 "/usr/include/bits/pthreadtypes.h" 3
  } __data;
  char __size[40];
  long int __align;
} pthread_mutex_t;

typedef union
{
  char __size[4];
  int __align;
} pthread_mutexattr_t;



 
typedef union
{
  struct
  {
    int __lock;
    unsigned int __futex;
    __extension__ unsigned long long int __total_seq;
    __extension__ unsigned long long int __wakeup_seq;
    __extension__ unsigned long long int __woken_seq;
    void *__mutex;
    unsigned int __nwaiters;
    unsigned int __broadcast_seq;
  } __data;
  char __size[48];
  __extension__ long long int __align;
} pthread_cond_t;

typedef union
{
  char __size[4];
  int __align;
} pthread_condattr_t;


 
typedef unsigned int pthread_key_t;


 
typedef int pthread_once_t;




 
typedef union
{

  struct
  {
    int __lock;
    unsigned int __nr_readers;
    unsigned int __readers_wakeup;
    unsigned int __writer_wakeup;
    unsigned int __nr_readers_queued;
    unsigned int __nr_writers_queued;
    int __writer;
    int __shared;
    unsigned long int __pad1;
    unsigned long int __pad2;
    
 
    unsigned int __flags;
  } __data;
# 187 "/usr/include/bits/pthreadtypes.h" 3
  char __size[56];
  long int __align;
} pthread_rwlock_t;

typedef union
{
  char __size[8];
  long int __align;
} pthread_rwlockattr_t;




 
typedef volatile int pthread_spinlock_t;



 
typedef union
{
  char __size[32];
  long int __align;
} pthread_barrier_t;

typedef union
{
  char __size[4];
  int __align;
} pthread_barrierattr_t;








# 271 "/usr/include/sys/types.h" 2 3




# 321 "/usr/include/stdlib.h" 2 3




 
 
extern long int random (void) __attribute__ ((__nothrow__));

 
extern void srandom (unsigned int __seed) __attribute__ ((__nothrow__));




 
extern char *initstate (unsigned int __seed, char *__statebuf,
			size_t __statelen) __attribute__ ((__nothrow__)) __attribute__ ((__nonnull__ (2)));


 
extern char *setstate (char *__statebuf) __attribute__ ((__nothrow__)) __attribute__ ((__nonnull__ (1)));





 

struct random_data
  {
    int32_t *fptr;		 
    int32_t *rptr;		 
    int32_t *state;		 
    int rand_type;		 
    int rand_deg;		 
    int rand_sep;		 
    int32_t *end_ptr;		 
  };

extern int random_r (struct random_data *__restrict __buf,
		     int32_t *__restrict __result) __attribute__ ((__nothrow__)) __attribute__ ((__nonnull__ (1, 2)));

extern int srandom_r (unsigned int __seed, struct random_data *__buf)
     __attribute__ ((__nothrow__)) __attribute__ ((__nonnull__ (2)));

extern int initstate_r (unsigned int __seed, char *__restrict __statebuf,
			size_t __statelen,
			struct random_data *__restrict __buf)
     __attribute__ ((__nothrow__)) __attribute__ ((__nonnull__ (2, 4)));

extern int setstate_r (char *__restrict __statebuf,
		       struct random_data *__restrict __buf)
     __attribute__ ((__nothrow__)) __attribute__ ((__nonnull__ (1, 2)));





 
extern int rand (void) __attribute__ ((__nothrow__));
 
extern void srand (unsigned int __seed) __attribute__ ((__nothrow__));



 
extern int rand_r (unsigned int *__seed) __attribute__ ((__nothrow__));




 

 
extern double drand48 (void) __attribute__ ((__nothrow__));
extern double erand48 (unsigned short int __xsubi[3]) __attribute__ ((__nothrow__)) __attribute__ ((__nonnull__ (1)));

 
extern long int lrand48 (void) __attribute__ ((__nothrow__));
extern long int nrand48 (unsigned short int __xsubi[3])
     __attribute__ ((__nothrow__)) __attribute__ ((__nonnull__ (1)));

 
extern long int mrand48 (void) __attribute__ ((__nothrow__));
extern long int jrand48 (unsigned short int __xsubi[3])
     __attribute__ ((__nothrow__)) __attribute__ ((__nonnull__ (1)));

 
extern void srand48 (long int __seedval) __attribute__ ((__nothrow__));
extern unsigned short int *seed48 (unsigned short int __seed16v[3])
     __attribute__ ((__nothrow__)) __attribute__ ((__nonnull__ (1)));
extern void lcong48 (unsigned short int __param[7]) __attribute__ ((__nothrow__)) __attribute__ ((__nonnull__ (1)));




 
struct drand48_data
  {
    unsigned short int __x[3];	 
    unsigned short int __old_x[3];  
    unsigned short int __c;	 
    unsigned short int __init;	 
    unsigned long long int __a;	 
  };

 
extern int drand48_r (struct drand48_data *__restrict __buffer,
		      double *__restrict __result) __attribute__ ((__nothrow__)) __attribute__ ((__nonnull__ (1, 2)));
extern int erand48_r (unsigned short int __xsubi[3],
		      struct drand48_data *__restrict __buffer,
		      double *__restrict __result) __attribute__ ((__nothrow__)) __attribute__ ((__nonnull__ (1, 2)));

 
extern int lrand48_r (struct drand48_data *__restrict __buffer,
		      long int *__restrict __result)
     __attribute__ ((__nothrow__)) __attribute__ ((__nonnull__ (1, 2)));
extern int nrand48_r (unsigned short int __xsubi[3],
		      struct drand48_data *__restrict __buffer,
		      long int *__restrict __result)
     __attribute__ ((__nothrow__)) __attribute__ ((__nonnull__ (1, 2)));

 
extern int mrand48_r (struct drand48_data *__restrict __buffer,
		      long int *__restrict __result)
     __attribute__ ((__nothrow__)) __attribute__ ((__nonnull__ (1, 2)));
extern int jrand48_r (unsigned short int __xsubi[3],
		      struct drand48_data *__restrict __buffer,
		      long int *__restrict __result)
     __attribute__ ((__nothrow__)) __attribute__ ((__nonnull__ (1, 2)));

 
extern int srand48_r (long int __seedval, struct drand48_data *__buffer)
     __attribute__ ((__nothrow__)) __attribute__ ((__nonnull__ (2)));

extern int seed48_r (unsigned short int __seed16v[3],
		     struct drand48_data *__buffer) __attribute__ ((__nothrow__)) __attribute__ ((__nonnull__ (1, 2)));

extern int lcong48_r (unsigned short int __param[7],
		      struct drand48_data *__buffer)
     __attribute__ ((__nothrow__)) __attribute__ ((__nonnull__ (1, 2)));








 
extern void *malloc (size_t __size) __attribute__ ((__nothrow__)) __attribute__ ((__malloc__)) ;
 
extern void *calloc (size_t __nmemb, size_t __size)
     __attribute__ ((__nothrow__)) __attribute__ ((__malloc__)) ;






 


 
extern void *realloc (void *__ptr, size_t __size)
     __attribute__ ((__nothrow__)) __attribute__ ((__warn_unused_result__));
 
extern void free (void *__ptr) __attribute__ ((__nothrow__));



 
extern void cfree (void *__ptr) __attribute__ ((__nothrow__));


# 1 "/global/homes/n/nchaimov/edison/upc-inst/opt/include/upcr_geninclude/alloca.h" 1









# 1 "/usr/include/alloca.h" 1 3
















 






# 1 "/global/homes/n/nchaimov/edison/upc-inst/opt/include/upcr_geninclude/stddef.h" 1






# 13 "/global/homes/n/nchaimov/edison/upc-inst/opt/include/upcr_geninclude/stddef.h"


# 1 "/usr/lib64/gcc/x86_64-suse-linux/4.3/include/stddef.h" 1 3


















 






 



 








 
# 50 "/usr/lib64/gcc/x86_64-suse-linux/4.3/include/stddef.h" 3



 


 



 






 
# 96 "/usr/lib64/gcc/x86_64-suse-linux/4.3/include/stddef.h" 3


 









 
# 121 "/usr/lib64/gcc/x86_64-suse-linux/4.3/include/stddef.h" 3





 

 


 
# 161 "/usr/lib64/gcc/x86_64-suse-linux/4.3/include/stddef.h" 3

 




 


 
# 238 "/usr/lib64/gcc/x86_64-suse-linux/4.3/include/stddef.h" 3





 


 
# 347 "/usr/lib64/gcc/x86_64-suse-linux/4.3/include/stddef.h" 3

# 359 "/usr/lib64/gcc/x86_64-suse-linux/4.3/include/stddef.h" 3


 
 
# 392 "/usr/lib64/gcc/x86_64-suse-linux/4.3/include/stddef.h" 3



 

# 410 "/usr/lib64/gcc/x86_64-suse-linux/4.3/include/stddef.h" 3



 




# 17 "/global/homes/n/nchaimov/edison/upc-inst/opt/include/upcr_geninclude/stddef.h" 2
# 1 "/usr/lib64/gcc/x86_64-suse-linux/4.3/include/stddef.h" 1 3


















 






 



 
# 18 "/global/homes/n/nchaimov/edison/upc-inst/opt/include/upcr_geninclude/stddef.h" 2




  


 


  

 









# 26 "/usr/include/alloca.h" 2 3



 


 
extern void *alloca (size_t __size) __attribute__ ((__nothrow__));







# 12 "/global/homes/n/nchaimov/edison/upc-inst/opt/include/upcr_geninclude/alloca.h" 2













       





        extern void *bupc_mangled_alloca(size_t);
# 63 "/global/homes/n/nchaimov/edison/upc-inst/opt/include/upcr_geninclude/alloca.h"



# 498 "/usr/include/stdlib.h" 2 3



 
extern void *valloc (size_t __size) __attribute__ ((__nothrow__)) __attribute__ ((__malloc__)) ;



 
extern int posix_memalign (void **__memptr, size_t __alignment, size_t __size)
     __attribute__ ((__nothrow__)) __attribute__ ((__nonnull__ (1))) ;



 
extern void abort (void) __attribute__ ((__nothrow__)) __attribute__ ((__noreturn__));


 
extern int atexit (void (*__func) (void)) __attribute__ ((__nothrow__)) __attribute__ ((__nonnull__ (1)));




 




extern int at_quick_exit (void (*__func) (void)) __attribute__ ((__nothrow__)) __attribute__ ((__nonnull__ (1)));






 
extern int on_exit (void (*__func) (int __status, void *__arg), void *__arg)
     __attribute__ ((__nothrow__)) __attribute__ ((__nonnull__ (1)));





 
extern void exit (int __status) __attribute__ ((__nothrow__)) __attribute__ ((__noreturn__));






 
extern void quick_exit (int __status) __attribute__ ((__nothrow__)) __attribute__ ((__noreturn__));






 
extern void _Exit (int __status) __attribute__ ((__nothrow__)) __attribute__ ((__noreturn__));





 
extern char *getenv (__const char *__name) __attribute__ ((__nothrow__)) __attribute__ ((__nonnull__ (1))) ;



 
extern char *__secure_getenv (__const char *__name)
     __attribute__ ((__nothrow__)) __attribute__ ((__nonnull__ (1))) ;


 

 
extern int putenv (char *__string) __attribute__ ((__nothrow__)) __attribute__ ((__nonnull__ (1)));




 
extern int setenv (__const char *__name, __const char *__value, int __replace)
     __attribute__ ((__nothrow__)) __attribute__ ((__nonnull__ (2)));

 
extern int unsetenv (__const char *__name) __attribute__ ((__nothrow__));





 
extern int clearenv (void) __attribute__ ((__nothrow__));







 
extern char *mktemp (char *__template) __attribute__ ((__nothrow__)) __attribute__ ((__nonnull__ (1))) ;








 

extern int mkstemp (char *__template) __attribute__ ((__nonnull__ (1))) ;
# 625 "/usr/include/stdlib.h" 3
extern int mkstemp64 (char *__template) __attribute__ ((__nonnull__ (1))) ;









 

extern int mkstemps (char *__template, int __suffixlen) __attribute__ ((__nonnull__ (1))) ;
# 647 "/usr/include/stdlib.h" 3
extern int mkstemps64 (char *__template, int __suffixlen)
     __attribute__ ((__nonnull__ (1))) ;








 
extern char *mkdtemp (char *__template) __attribute__ ((__nothrow__)) __attribute__ ((__nonnull__ (1))) ;








 

extern int mkostemp (char *__template, int __flags) __attribute__ ((__nonnull__ (1))) ;
# 679 "/usr/include/stdlib.h" 3
extern int mkostemp64 (char *__template, int __flags) __attribute__ ((__nonnull__ (1))) ;







 

extern int mkostemps (char *__template, int __suffixlen, int __flags)
     __attribute__ ((__nonnull__ (1))) ;
# 701 "/usr/include/stdlib.h" 3
extern int mkostemps64 (char *__template, int __suffixlen, int __flags)
     __attribute__ ((__nonnull__ (1))) ;








 
extern int system (__const char *__command) ;





 
extern char *canonicalize_file_name (__const char *__name)
     __attribute__ ((__nothrow__)) __attribute__ ((__nonnull__ (1))) ;







 
extern char *realpath (__const char *__restrict __name,
		       char *__restrict __resolved) __attribute__ ((__nothrow__)) ;



 


typedef int (*__compar_fn_t) (__const void *, __const void *);


typedef __compar_fn_t comparison_fn_t;



typedef int (*__compar_d_fn_t) (__const void *, __const void *, void *);




 
extern void *bsearch (__const void *__key, __const void *__base,
		      size_t __nmemb, size_t __size, __compar_fn_t __compar)
     __attribute__ ((__nonnull__ (1, 2, 5))) ;


 
extern void qsort (void *__base, size_t __nmemb, size_t __size,
		   __compar_fn_t __compar) __attribute__ ((__nonnull__ (1, 4)));

extern void qsort_r (void *__base, size_t __nmemb, size_t __size,
		     __compar_d_fn_t __compar, void *__arg)
  __attribute__ ((__nonnull__ (1, 4)));



 
extern int abs (int __x) __attribute__ ((__nothrow__)) __attribute__ ((__const__)) ;
extern long int labs (long int __x) __attribute__ ((__nothrow__)) __attribute__ ((__const__)) ;



__extension__ extern long long int llabs (long long int __x)
     __attribute__ ((__nothrow__)) __attribute__ ((__const__)) ;





 
 
extern div_t div (int __numer, int __denom)
     __attribute__ ((__nothrow__)) __attribute__ ((__const__)) ;
extern ldiv_t ldiv (long int __numer, long int __denom)
     __attribute__ ((__nothrow__)) __attribute__ ((__const__)) ;




__extension__ extern lldiv_t lldiv (long long int __numer,
				    long long int __denom)
     __attribute__ ((__nothrow__)) __attribute__ ((__const__)) ;






 



 
extern char *ecvt (double __value, int __ndigit, int *__restrict __decpt,
		   int *__restrict __sign) __attribute__ ((__nothrow__)) __attribute__ ((__nonnull__ (3, 4))) ;



 
extern char *fcvt (double __value, int __ndigit, int *__restrict __decpt,
		   int *__restrict __sign) __attribute__ ((__nothrow__)) __attribute__ ((__nonnull__ (3, 4))) ;



 
extern char *gcvt (double __value, int __ndigit, char *__buf)
     __attribute__ ((__nothrow__)) __attribute__ ((__nonnull__ (3))) ;



 
extern char *qecvt (long double __value, int __ndigit,
		    int *__restrict __decpt, int *__restrict __sign)
     __attribute__ ((__nothrow__)) __attribute__ ((__nonnull__ (3, 4))) ;
extern char *qfcvt (long double __value, int __ndigit,
		    int *__restrict __decpt, int *__restrict __sign)
     __attribute__ ((__nothrow__)) __attribute__ ((__nonnull__ (3, 4))) ;
extern char *qgcvt (long double __value, int __ndigit, char *__buf)
     __attribute__ ((__nothrow__)) __attribute__ ((__nonnull__ (3))) ;



 
extern int ecvt_r (double __value, int __ndigit, int *__restrict __decpt,
		   int *__restrict __sign, char *__restrict __buf,
		   size_t __len) __attribute__ ((__nothrow__)) __attribute__ ((__nonnull__ (3, 4, 5)));
extern int fcvt_r (double __value, int __ndigit, int *__restrict __decpt,
		   int *__restrict __sign, char *__restrict __buf,
		   size_t __len) __attribute__ ((__nothrow__)) __attribute__ ((__nonnull__ (3, 4, 5)));

extern int qecvt_r (long double __value, int __ndigit,
		    int *__restrict __decpt, int *__restrict __sign,
		    char *__restrict __buf, size_t __len)
     __attribute__ ((__nothrow__)) __attribute__ ((__nonnull__ (3, 4, 5)));
extern int qfcvt_r (long double __value, int __ndigit,
		    int *__restrict __decpt, int *__restrict __sign,
		    char *__restrict __buf, size_t __len)
     __attribute__ ((__nothrow__)) __attribute__ ((__nonnull__ (3, 4, 5)));






 
extern int mblen (__const char *__s, size_t __n) __attribute__ ((__nothrow__)) ;

 
extern int mbtowc (wchar_t *__restrict __pwc,
		   __const char *__restrict __s, size_t __n) __attribute__ ((__nothrow__)) ;

 
extern int wctomb (char *__s, wchar_t __wchar) __attribute__ ((__nothrow__)) ;


 
extern size_t mbstowcs (wchar_t *__restrict  __pwcs,
			__const char *__restrict __s, size_t __n) __attribute__ ((__nothrow__));
 
extern size_t wcstombs (char *__restrict __s,
			__const wchar_t *__restrict __pwcs, size_t __n)
     __attribute__ ((__nothrow__));







 
extern int rpmatch (__const char *__response) __attribute__ ((__nothrow__)) __attribute__ ((__nonnull__ (1))) ;









 
extern int getsubopt (char **__restrict __optionp,
		      char *__const *__restrict __tokens,
		      char **__restrict __valuep)
     __attribute__ ((__nothrow__)) __attribute__ ((__nonnull__ (1, 2, 3))) ;




 
extern void setkey (__const char *__key) __attribute__ ((__nothrow__)) __attribute__ ((__nonnull__ (1)));



 


 
extern int posix_openpt (int __oflag) ;




 

 
extern int grantpt (int __fd) __attribute__ ((__nothrow__));


 
extern int unlockpt (int __fd) __attribute__ ((__nothrow__));



 
extern char *ptsname (int __fd) __attribute__ ((__nothrow__)) ;





 
extern int ptsname_r (int __fd, char *__buf, size_t __buflen)
     __attribute__ ((__nothrow__)) __attribute__ ((__nonnull__ (2)));

 
extern int getpt (void);





 
extern int getloadavg (double __loadavg[], int __nelem)
     __attribute__ ((__nothrow__)) __attribute__ ((__nonnull__ (1)));



 
# 954 "/usr/include/stdlib.h" 3






# 7 "/global/homes/n/nchaimov/edison/upc-inst/opt/include/upcr_geninclude/stdlib.h" 2







 






  extern int upcri_rand(void);
  extern void upcri_srand(unsigned int _seed);




# 81 "/global/homes/n/nchaimov/edison/upc-inst/opt/include/upcr_preinclude/upc.h" 2
#pragma upc upc_code
# 81 "/global/homes/n/nchaimov/edison/upc-inst/opt/include/upcr_preinclude/upc.h"


extern size_t upc_threadof (shared void *);
extern size_t upc_phaseof (shared void *);
extern size_t upc_addrfield (shared void *);

extern shared void *upc_global_alloc (size_t, size_t);
extern shared void *upc_all_alloc (size_t, size_t);
extern shared void *upc_local_alloc (size_t, size_t);  
extern shared void *upc_alloc(size_t);
extern void upc_free (shared void *);
extern void upc_all_free (shared void *);

typedef shared void upc_lock_t;

extern void upc_lock_init (upc_lock_t *);
extern upc_lock_t *upc_global_lock_alloc (void);
extern upc_lock_t *upc_all_lock_alloc (void);
extern void upc_lock_free(upc_lock_t *);
extern void upc_all_lock_free(upc_lock_t *);
extern void upc_lock (upc_lock_t *);
extern int upc_lock_attempt (upc_lock_t *);
extern void upc_unlock (upc_lock_t *);

extern void upc_memcpy(shared void *, shared const void *, size_t);
extern void upc_memget(void *, shared const void *, size_t);
extern void upc_memput(shared void *, const void *, size_t);
extern void upc_memset(shared void *, int, size_t);

extern shared void *upc_resetphase(shared void *);
extern size_t upc_affinitysize(size_t, size_t, size_t);

# 1 "/global/homes/n/nchaimov/edison/upc-inst/opt/include/upcr_preinclude/bupc_extensions.h" 1
#pragma upc upc_code
# 1 "/global/homes/n/nchaimov/edison/upc-inst/opt/include/upcr_preinclude/bupc_extensions.h"







# 1 "/global/homes/n/nchaimov/edison/upc-inst/opt/include/upcr_preinclude/upc.h" 1
#pragma upc upc_code
# 1 "/global/homes/n/nchaimov/edison/upc-inst/opt/include/upcr_preinclude/upc.h"

























 

 


# 9 "/global/homes/n/nchaimov/edison/upc-inst/opt/include/upcr_preinclude/bupc_extensions.h" 2
#pragma upc upc_code
# 9 "/global/homes/n/nchaimov/edison/upc-inst/opt/include/upcr_preinclude/bupc_extensions.h"



 

# 23 "/global/homes/n/nchaimov/edison/upc-inst/opt/include/upcr_preinclude/bupc_extensions.h"





 
# 37 "/global/homes/n/nchaimov/edison/upc-inst/opt/include/upcr_preinclude/bupc_extensions.h"
  extern int _bupc_dump_shared(shared const void *_ptr, char *_buf, int _maxlen);


 














 
# 73 "/global/homes/n/nchaimov/edison/upc-inst/opt/include/upcr_preinclude/bupc_extensions.h"
  extern void * _bupc_cast(shared const void *_ptr);

  extern int _bupc_castable(shared const void *_ptr);

  shared void * _bupc_inverse_cast(void *_ptr);


extern int _bupc_thread_castable(unsigned int _thr);







 
# 97 "/global/homes/n/nchaimov/edison/upc-inst/opt/include/upcr_preinclude/bupc_extensions.h"
  shared void * _bupc_local_to_shared(void *_ptr, int _thread, int _phase);















 
# 122 "/global/homes/n/nchaimov/edison/upc-inst/opt/include/upcr_preinclude/bupc_extensions.h"
  shared void * _bupc_ptradd(shared void *_p, size_t _blockelems, size_t _elemsz, ptrdiff_t _elemincr);












 
char *bupc_getenv(const char *_name);









 
# 160 "/global/homes/n/nchaimov/edison/upc-inst/opt/include/upcr_preinclude/bupc_extensions.h"























 



extern void bupc_trace_setmask(const char *newmask);
extern void bupc_stats_setmask(const char *newmask);
extern const char *bupc_trace_getmask(void);
extern const char *bupc_stats_getmask(void);
extern int bupc_trace_gettracelocal(void);
extern void bupc_trace_settracelocal(int val);


 
# 1 "/global/homes/n/nchaimov/edison/upc-inst/opt/include/upcr_geninclude/inttypes.h" 1



 
# 1 "/global/homes/n/nchaimov/edison/upc-inst/opt/include/upcr_geninclude/stdint.h" 1



 
# 1 "/global/homes/n/nchaimov/edison/upc-inst/opt/include/upcr_config.h" 1
 
 












 




 

# 29 "/global/homes/n/nchaimov/edison/upc-inst/opt/include/upcr_config.h"


 
 


 
 
 


 
 

 
 

 
 

 
 

 
 

 
 

 


 
 
 
 
 
 
 
 

 
 

 
 

 
 
 
 

 


 


 


 
# 97 "/global/homes/n/nchaimov/edison/upc-inst/opt/include/upcr_config.h"

 


 
 

 


 
 

 
 

 
 

 
 

 
 

 
 

 





 


 

 


 


 


 


 


 


 


 


 


 


 


 


 


 


 


 


 


 


 
 

 


 


 


 


 


 


 


 


 


 


 


 


 


 


 


 


 


 


 


 


 


 


 
 

 


 


 

 

 

 

 

 


 


 


 


 


 


 


 


 


 


 


 
 


 


 
 

 
 

 
 

 

# 6 "/global/homes/n/nchaimov/edison/upc-inst/opt/include/upcr_geninclude/stdint.h" 2
# 1 "/global/homes/n/nchaimov/edison/upc-inst/opt/include/portable_inttypes.h" 1
 
 
 














 







  

 
# 1 "/global/homes/n/nchaimov/edison/upc-inst/opt/include/upcr_geninclude/inttypes.h" 1
# 31 "/global/homes/n/nchaimov/edison/upc-inst/opt/include/portable_inttypes.h" 2
# 207 "/global/homes/n/nchaimov/edison/upc-inst/opt/include/portable_inttypes.h"

# 7 "/global/homes/n/nchaimov/edison/upc-inst/opt/include/upcr_geninclude/stdint.h" 2


# 1 "/usr/include/stdint.h" 1 3
















 



 




# 1 "/usr/include/bits/wchar.h" 1 3

















 







# 28 "/usr/include/stdint.h" 2 3
# 1 "/usr/include/bits/wordsize.h" 1 3
 

# 29 "/usr/include/stdint.h" 2 3

 

 

 
# 47 "/usr/include/stdint.h" 3

 
typedef unsigned char		uint8_t;
typedef unsigned short int	uint16_t;

typedef unsigned int		uint32_t;



typedef unsigned long int	uint64_t;






 

 
typedef signed char		int_least8_t;
typedef short int		int_least16_t;
typedef int			int_least32_t;

typedef long int		int_least64_t;





 
typedef unsigned char		uint_least8_t;
typedef unsigned short int	uint_least16_t;
typedef unsigned int		uint_least32_t;

typedef unsigned long int	uint_least64_t;






 

 
typedef signed char		int_fast8_t;

typedef long int		int_fast16_t;
typedef long int		int_fast32_t;
typedef long int		int_fast64_t;
# 102 "/usr/include/stdint.h" 3

 
typedef unsigned char		uint_fast8_t;

typedef unsigned long int	uint_fast16_t;
typedef unsigned long int	uint_fast32_t;
typedef unsigned long int	uint_fast64_t;
# 115 "/usr/include/stdint.h" 3


 


typedef long int		intptr_t;


typedef unsigned long int	uintptr_t;
# 131 "/usr/include/stdint.h" 3


 

typedef long int		intmax_t;
typedef unsigned long int	uintmax_t;
# 143 "/usr/include/stdint.h" 3



 


# 156 "/usr/include/stdint.h" 3

 

 




 





 






 




 





 






 
# 205 "/usr/include/stdint.h" 3
 
# 215 "/usr/include/stdint.h" 3

 
# 226 "/usr/include/stdint.h" 3


 
# 238 "/usr/include/stdint.h" 3


 

 


 



 

 
# 259 "/usr/include/stdint.h" 3

 



 






 

 




 







 


 
# 298 "/usr/include/stdint.h" 3

 
# 308 "/usr/include/stdint.h" 3

 
# 317 "/usr/include/stdint.h" 3



# 11 "/global/homes/n/nchaimov/edison/upc-inst/opt/include/upcr_geninclude/stdint.h" 2





# 1 "/usr/include/inttypes.h" 1 3
















 



 





 
# 1 "/global/homes/n/nchaimov/edison/upc-inst/opt/include/upcr_geninclude/stdint.h" 1
# 270 "/global/homes/n/nchaimov/edison/upc-inst/opt/include/upcr_geninclude/stdint.h"
  





 







# 29 "/usr/include/inttypes.h" 2 3

 




typedef int __gwchar_t;
# 43 "/usr/include/inttypes.h" 3



 


# 56 "/usr/include/inttypes.h" 3

 

 































 















 















 















 
















 
# 163 "/usr/include/inttypes.h" 3


 
# 172 "/usr/include/inttypes.h" 3


 

 















 















 















 















 
















 






 













 
typedef struct
  {
    long int quot;		 
    long int rem;		 
  } imaxdiv_t;

# 295 "/usr/include/inttypes.h" 3


 
extern intmax_t imaxabs (intmax_t __n) __attribute__ ((__nothrow__)) __attribute__ ((__const__));

 
extern imaxdiv_t imaxdiv (intmax_t __numer, intmax_t __denom)
      __attribute__ ((__nothrow__)) __attribute__ ((__const__));

 
extern intmax_t strtoimax (__const char *__restrict __nptr,
			   char **__restrict __endptr, int __base) __attribute__ ((__nothrow__));

 
extern uintmax_t strtoumax (__const char *__restrict __nptr,
			    char ** __restrict __endptr, int __base) __attribute__ ((__nothrow__));

 
extern intmax_t wcstoimax (__const __gwchar_t *__restrict __nptr,
			   __gwchar_t **__restrict __endptr, int __base)
     __attribute__ ((__nothrow__));

 
extern uintmax_t wcstoumax (__const __gwchar_t *__restrict __nptr,
			    __gwchar_t ** __restrict __endptr, int __base)
     __attribute__ ((__nothrow__));

# 441 "/usr/include/inttypes.h" 3



# 18 "/global/homes/n/nchaimov/edison/upc-inst/opt/include/upcr_geninclude/stdint.h" 2







 
# 1 "/global/homes/n/nchaimov/edison/upc-inst/opt/include/upcr_geninclude/limits.h" 1
 




 
# 15 "/global/homes/n/nchaimov/edison/upc-inst/opt/include/upcr_geninclude/limits.h"




# 34 "/global/homes/n/nchaimov/edison/upc-inst/opt/include/upcr_geninclude/limits.h"









     



     



     



     



  




 


       



       
# 84 "/global/homes/n/nchaimov/edison/upc-inst/opt/include/upcr_geninclude/limits.h"


     









     



     



     
# 123 "/global/homes/n/nchaimov/edison/upc-inst/opt/include/upcr_geninclude/limits.h"
  


     



     



     
# 153 "/global/homes/n/nchaimov/edison/upc-inst/opt/include/upcr_geninclude/limits.h"
  
# 169 "/global/homes/n/nchaimov/edison/upc-inst/opt/include/upcr_geninclude/limits.h"
     



     



     
# 196 "/global/homes/n/nchaimov/edison/upc-inst/opt/include/upcr_geninclude/limits.h"
  
# 212 "/global/homes/n/nchaimov/edison/upc-inst/opt/include/upcr_geninclude/limits.h"
     



     



     
# 239 "/global/homes/n/nchaimov/edison/upc-inst/opt/include/upcr_geninclude/limits.h"


  
# 27 "/global/homes/n/nchaimov/edison/upc-inst/opt/include/upcr_geninclude/stdint.h" 2

 
# 47 "/global/homes/n/nchaimov/edison/upc-inst/opt/include/upcr_geninclude/stdint.h"

 








 
# 66 "/global/homes/n/nchaimov/edison/upc-inst/opt/include/upcr_geninclude/stdint.h"

# 75 "/global/homes/n/nchaimov/edison/upc-inst/opt/include/upcr_geninclude/stdint.h"

# 84 "/global/homes/n/nchaimov/edison/upc-inst/opt/include/upcr_geninclude/stdint.h"

# 93 "/global/homes/n/nchaimov/edison/upc-inst/opt/include/upcr_geninclude/stdint.h"

 






 
# 114 "/global/homes/n/nchaimov/edison/upc-inst/opt/include/upcr_geninclude/stdint.h"

# 127 "/global/homes/n/nchaimov/edison/upc-inst/opt/include/upcr_geninclude/stdint.h"

# 140 "/global/homes/n/nchaimov/edison/upc-inst/opt/include/upcr_geninclude/stdint.h"

# 153 "/global/homes/n/nchaimov/edison/upc-inst/opt/include/upcr_geninclude/stdint.h"

# 166 "/global/homes/n/nchaimov/edison/upc-inst/opt/include/upcr_geninclude/stdint.h"

# 179 "/global/homes/n/nchaimov/edison/upc-inst/opt/include/upcr_geninclude/stdint.h"





# 199 "/global/homes/n/nchaimov/edison/upc-inst/opt/include/upcr_geninclude/stdint.h"




# 215 "/global/homes/n/nchaimov/edison/upc-inst/opt/include/upcr_geninclude/stdint.h"



# 227 "/global/homes/n/nchaimov/edison/upc-inst/opt/include/upcr_geninclude/stdint.h"

# 239 "/global/homes/n/nchaimov/edison/upc-inst/opt/include/upcr_geninclude/stdint.h"


 
# 250 "/global/homes/n/nchaimov/edison/upc-inst/opt/include/upcr_geninclude/stdint.h"




# 262 "/global/homes/n/nchaimov/edison/upc-inst/opt/include/upcr_geninclude/stdint.h"






# 6 "/global/homes/n/nchaimov/edison/upc-inst/opt/include/upcr_geninclude/inttypes.h" 2












 



# 200 "/global/homes/n/nchaimov/edison/upc-inst/opt/include/upcr_preinclude/bupc_extensions.h" 2
#pragma upc upc_code
# 200 "/global/homes/n/nchaimov/edison/upc-inst/opt/include/upcr_preinclude/bupc_extensions.h"
typedef uint64_t bupc_tick_t;  


extern bupc_tick_t bupc_ticks_now(void);  
extern uint64_t bupc_ticks_to_us(bupc_tick_t ticks);  
extern uint64_t bupc_ticks_to_ns(bupc_tick_t ticks);  

 
extern double bupc_tick_granularityus(void);
extern double bupc_tick_overheadus(void);


 
 


























































 




unsigned int bupc_thread_distance(int threadX, int threadY);


 


 
struct bupc_sem_S;
typedef shared struct bupc_sem_S bupc_sem_t;






 

bupc_sem_t *bupc_sem_alloc(int _flags);
void bupc_sem_free(bupc_sem_t *_s);










 
void bupc_sem_post(bupc_sem_t *_s);
void bupc_sem_postN(bupc_sem_t *_s, size_t _n);  

void bupc_sem_wait(bupc_sem_t *_s);
void bupc_sem_waitN(bupc_sem_t *_s, size_t _n);  

int bupc_sem_try(bupc_sem_t *_s);
int bupc_sem_tryN(bupc_sem_t *_s, size_t _n);  













 
void bupc_memput_signal(shared void *_dst, const void *_src, size_t _nbytes, bupc_sem_t *_s, size_t _n);
void bupc_memput_signal_async(shared void *_dst, const void *_src, size_t _nbytes, bupc_sem_t *_s, size_t _n);

# 358 "/global/homes/n/nchaimov/edison/upc-inst/opt/include/upcr_preinclude/bupc_extensions.h"

 



 

  struct _upcri_eop;
  typedef struct _upcri_eop *bupc_handle_t;


  bupc_handle_t bupc_memcpy_async(shared void *_dst, shared const void *_src, size_t _n);
  bupc_handle_t bupc_memget_async(       void *_dst, shared const void *_src, size_t _n);
  bupc_handle_t bupc_memput_async(shared void *_dst,        const void *_src, size_t _n);
  bupc_handle_t bupc_memset_async(shared void *_dst, int _c, size_t _n);

  void bupc_waitsync(bupc_handle_t h);
  int bupc_trysync(bupc_handle_t h);

  void bupc_waitsync_all (bupc_handle_t *_ph, size_t _numhandles);
  int  bupc_trysync_all  (bupc_handle_t *_ph, size_t _numhandles);
  void bupc_waitsync_some(bupc_handle_t *_ph, size_t _numhandles);
  int  bupc_trysync_some (bupc_handle_t *_ph, size_t _numhandles);

   
  void bupc_memcpy_asynci(shared void *_dst, shared const void *_src, size_t _n);
  void bupc_memget_asynci(       void *_dst, shared const void *_src, size_t _n);
  void bupc_memput_asynci(shared void *_dst,        const void *_src, size_t _n);
  void bupc_memset_asynci(shared void *_dst, int _c, size_t _n);

  void bupc_waitsynci(void);
  int bupc_trysynci(void);

  void          bupc_begin_accessregion(void);
  bupc_handle_t bupc_end_accessregion(void);

# 443 "/global/homes/n/nchaimov/edison/upc-inst/opt/include/upcr_preinclude/bupc_extensions.h"

 
# 458 "/global/homes/n/nchaimov/edison/upc-inst/opt/include/upcr_preinclude/bupc_extensions.h"


  typedef struct bupc_pmemvec_S_trans {
    void *addr;
    size_t len;
  } bupc_pmemvec_t;

  typedef struct bupc_smemvec_S_trans {
    shared void *addr;
    size_t len;
  } bupc_smemvec_t;

  void bupc_memcpy_vlist(size_t _dstcount, bupc_smemvec_t const _dstlist[], 
                         size_t _srccount, bupc_smemvec_t const _srclist[]);
  void bupc_memput_vlist(size_t _dstcount, bupc_smemvec_t const _dstlist[], 
                         size_t _srccount, bupc_pmemvec_t const _srclist[]);
  void bupc_memget_vlist(size_t _dstcount, bupc_pmemvec_t const _dstlist[], 
                         size_t _srccount, bupc_smemvec_t const _srclist[]);

  bupc_handle_t bupc_memcpy_vlist_async(size_t _dstcount, bupc_smemvec_t const _dstlist[], 
                                        size_t _srccount, bupc_smemvec_t const _srclist[]);
  bupc_handle_t bupc_memput_vlist_async(size_t _dstcount, bupc_smemvec_t const _dstlist[], 
                                        size_t _srccount, bupc_pmemvec_t const _srclist[]);
  bupc_handle_t bupc_memget_vlist_async(size_t _dstcount, bupc_pmemvec_t const _dstlist[], 
                                        size_t _srccount, bupc_smemvec_t const _srclist[]);



  void bupc_memcpy_ilist(size_t _dstcount, shared       void * const _dstlist[], size_t _dstlen,
                         size_t _srccount, shared const void * const _srclist[], size_t _srclen);
  void bupc_memput_ilist(size_t _dstcount, shared       void * const _dstlist[], size_t _dstlen,
                         size_t _srccount,        const void * const _srclist[], size_t _srclen);
  void bupc_memget_ilist(size_t _dstcount,              void * const _dstlist[], size_t _dstlen, 
                         size_t _srccount, shared const void * const _srclist[], size_t _srclen);

  bupc_handle_t bupc_memcpy_ilist_async(size_t _dstcount, shared       void * const _dstlist[], 
                                        size_t _dstlen,
                                        size_t _srccount, shared const void * const _srclist[], 
                                        size_t _srclen);
  bupc_handle_t bupc_memput_ilist_async(size_t _dstcount, shared       void * const _dstlist[], 
                                        size_t _dstlen,
                                        size_t _srccount,        const void * const _srclist[], 
                                        size_t _srclen);
  bupc_handle_t bupc_memget_ilist_async(size_t _dstcount,              void * const _dstlist[], 
                                        size_t _dstlen, 
                                        size_t _srccount, shared const void * const _srclist[], 
                                        size_t _srclen);

 

  void bupc_memcpy_fstrided(shared void *_dstaddr,  size_t _dstchunklen, 
                            size_t _dstchunkstride, size_t _dstchunkcount,
                            shared void *_srcaddr,  size_t _srcchunklen, 
                            size_t _srcchunkstride, size_t _srcchunkcount);
  void bupc_memput_fstrided(shared void *_dstaddr,  size_t _dstchunklen, 
                            size_t _dstchunkstride, size_t _dstchunkcount,
                                   void *_srcaddr,  size_t _srcchunklen, 
                            size_t _srcchunkstride, size_t _srcchunkcount);
  void bupc_memget_fstrided(       void *_dstaddr,  size_t _dstchunklen, 
                            size_t _dstchunkstride, size_t _dstchunkcount,
                            shared void *_srcaddr,  size_t _srcchunklen, 
                            size_t _srcchunkstride, size_t _srcchunkcount);

  bupc_handle_t bupc_memcpy_fstrided_async(shared void *_dstaddr,  size_t _dstchunklen, 
                                          size_t _dstchunkstride, size_t _dstchunkcount,
                                          shared void *_srcaddr,  size_t _srcchunklen, 
                                          size_t _srcchunkstride, size_t _srcchunkcount);
  bupc_handle_t bupc_memput_fstrided_async(shared void *_dstaddr,  size_t _dstchunklen, 
                                          size_t _dstchunkstride, size_t _dstchunkcount,
                                                 void *_srcaddr,  size_t _srcchunklen, 
                                          size_t _srcchunkstride, size_t _srcchunkcount);
  bupc_handle_t bupc_memget_fstrided_async(       void *_dstaddr,  size_t _dstchunklen, 
                                          size_t _dstchunkstride, size_t _dstchunkcount,
                                          shared void *_srcaddr,  size_t _srcchunklen, 
                                          size_t _srcchunkstride, size_t _srcchunkcount);



  void bupc_memcpy_strided(shared       void *_dstaddr, const size_t _dststrides[], 
                           shared const void *_srcaddr, const size_t _srcstrides[], 
                           const size_t _count[], size_t _stridelevels);
  void bupc_memput_strided(shared       void *_dstaddr, const size_t _dststrides[], 
                                  const void *_srcaddr, const size_t _srcstrides[], 
                           const size_t _count[], size_t _stridelevels);
  void bupc_memget_strided(             void *_dstaddr, const size_t _dststrides[], 
                           shared const void *_srcaddr, const size_t _srcstrides[], 
                           const size_t _count[], size_t _stridelevels);

  bupc_handle_t bupc_memcpy_strided_async(shared       void *_dstaddr, const size_t _dststrides[], 
                                          shared const void *_srcaddr, const size_t _srcstrides[], 
                                          const size_t _count[], size_t _stridelevels);
  bupc_handle_t bupc_memput_strided_async(shared       void *_dstaddr, const size_t _dststrides[], 
                                                 const void *_srcaddr, const size_t _srcstrides[], 
                                          const size_t _count[], size_t _stridelevels);
  bupc_handle_t bupc_memget_strided_async(             void *_dstaddr, const size_t _dststrides[], 
                                          shared const void *_srcaddr, const size_t _srcstrides[], 
                                                 const size_t _count[], size_t _stridelevels);



 



 



 
 
# 1 "/global/homes/n/nchaimov/edison/upc-inst/opt/include/upcr_preinclude/bupc_atomics.h" 1
#pragma upc upc_code
# 1 "/global/homes/n/nchaimov/edison/upc-inst/opt/include/upcr_preinclude/bupc_atomics.h"







 







 
 

# 501 "/global/homes/n/nchaimov/edison/upc-inst/opt/include/upcr_preinclude/bupc_atomics.h"
  void bupc_atomicU64_set_private(void *_ptr, uint64_t _val);
  void bupc_atomicU64_set_relaxed(shared void *_sptr, uint64_t _val);
  void bupc_atomicU64_set_strict(shared void *_sptr, uint64_t _val);
  void bupc_atomicI64_set_private(void *_ptr, int64_t _val);
  void bupc_atomicI64_set_relaxed(shared void *_sptr, int64_t _val);
  void bupc_atomicI64_set_strict(shared void *_sptr, int64_t _val);
  void bupc_atomicU32_set_private(void *_ptr, uint32_t _val);
  void bupc_atomicU32_set_relaxed(shared void *_sptr, uint32_t _val);
  void bupc_atomicU32_set_strict(shared void *_sptr, uint32_t _val);
  void bupc_atomicI32_set_private(void *_ptr, int32_t _val);
  void bupc_atomicI32_set_relaxed(shared void *_sptr, int32_t _val);
  void bupc_atomicI32_set_strict(shared void *_sptr, int32_t _val);
  uint64_t bupc_atomicU64_read_private(void *_ptr);
  uint64_t bupc_atomicU64_read_relaxed(shared void *_sptr);
  uint64_t bupc_atomicU64_read_strict(shared void *_sptr);
  int64_t bupc_atomicI64_read_private(void *_ptr);
  int64_t bupc_atomicI64_read_relaxed(shared void *_sptr);
  int64_t bupc_atomicI64_read_strict(shared void *_sptr);
  uint32_t bupc_atomicU32_read_private(void *_ptr);
  uint32_t bupc_atomicU32_read_relaxed(shared void *_sptr);
  uint32_t bupc_atomicU32_read_strict(shared void *_sptr);
  int32_t bupc_atomicI32_read_private(void *_ptr);
  int32_t bupc_atomicI32_read_relaxed(shared void *_sptr);
  int32_t bupc_atomicI32_read_strict(shared void *_sptr);
  uint64_t bupc_atomicU64_fetchnot_private(void *_ptr);
  uint64_t bupc_atomicU64_fetchnot_relaxed(shared void *_sptr);
  uint64_t bupc_atomicU64_fetchnot_strict(shared void *_sptr);
  int64_t bupc_atomicI64_fetchnot_private(void *_ptr);
  int64_t bupc_atomicI64_fetchnot_relaxed(shared void *_sptr);
  int64_t bupc_atomicI64_fetchnot_strict(shared void *_sptr);
  uint32_t bupc_atomicU32_fetchnot_private(void *_ptr);
  uint32_t bupc_atomicU32_fetchnot_relaxed(shared void *_sptr);
  uint32_t bupc_atomicU32_fetchnot_strict(shared void *_sptr);
  int32_t bupc_atomicI32_fetchnot_private(void *_ptr);
  int32_t bupc_atomicI32_fetchnot_relaxed(shared void *_sptr);
  int32_t bupc_atomicI32_fetchnot_strict(shared void *_sptr);
  uint64_t bupc_atomicU64_fetchadd_private(void *_ptr, uint64_t _op1);
  uint64_t bupc_atomicU64_fetchadd_relaxed(shared void *_sptr, uint64_t _op1);
  uint64_t bupc_atomicU64_fetchadd_strict(shared void *_sptr, uint64_t _op1);
  int64_t bupc_atomicI64_fetchadd_private(void *_ptr, int64_t _op1);
  int64_t bupc_atomicI64_fetchadd_relaxed(shared void *_sptr, int64_t _op1);
  int64_t bupc_atomicI64_fetchadd_strict(shared void *_sptr, int64_t _op1);
  uint32_t bupc_atomicU32_fetchadd_private(void *_ptr, uint32_t _op1);
  uint32_t bupc_atomicU32_fetchadd_relaxed(shared void *_sptr, uint32_t _op1);
  uint32_t bupc_atomicU32_fetchadd_strict(shared void *_sptr, uint32_t _op1);
  int32_t bupc_atomicI32_fetchadd_private(void *_ptr, int32_t _op1);
  int32_t bupc_atomicI32_fetchadd_relaxed(shared void *_sptr, int32_t _op1);
  int32_t bupc_atomicI32_fetchadd_strict(shared void *_sptr, int32_t _op1);
  uint64_t bupc_atomicU64_fetchand_private(void *_ptr, uint64_t _op1);
  uint64_t bupc_atomicU64_fetchand_relaxed(shared void *_sptr, uint64_t _op1);
  uint64_t bupc_atomicU64_fetchand_strict(shared void *_sptr, uint64_t _op1);
  int64_t bupc_atomicI64_fetchand_private(void *_ptr, int64_t _op1);
  int64_t bupc_atomicI64_fetchand_relaxed(shared void *_sptr, int64_t _op1);
  int64_t bupc_atomicI64_fetchand_strict(shared void *_sptr, int64_t _op1);
  uint32_t bupc_atomicU32_fetchand_private(void *_ptr, uint32_t _op1);
  uint32_t bupc_atomicU32_fetchand_relaxed(shared void *_sptr, uint32_t _op1);
  uint32_t bupc_atomicU32_fetchand_strict(shared void *_sptr, uint32_t _op1);
  int32_t bupc_atomicI32_fetchand_private(void *_ptr, int32_t _op1);
  int32_t bupc_atomicI32_fetchand_relaxed(shared void *_sptr, int32_t _op1);
  int32_t bupc_atomicI32_fetchand_strict(shared void *_sptr, int32_t _op1);
  uint64_t bupc_atomicU64_fetchor_private(void *_ptr, uint64_t _op1);
  uint64_t bupc_atomicU64_fetchor_relaxed(shared void *_sptr, uint64_t _op1);
  uint64_t bupc_atomicU64_fetchor_strict(shared void *_sptr, uint64_t _op1);
  int64_t bupc_atomicI64_fetchor_private(void *_ptr, int64_t _op1);
  int64_t bupc_atomicI64_fetchor_relaxed(shared void *_sptr, int64_t _op1);
  int64_t bupc_atomicI64_fetchor_strict(shared void *_sptr, int64_t _op1);
  uint32_t bupc_atomicU32_fetchor_private(void *_ptr, uint32_t _op1);
  uint32_t bupc_atomicU32_fetchor_relaxed(shared void *_sptr, uint32_t _op1);
  uint32_t bupc_atomicU32_fetchor_strict(shared void *_sptr, uint32_t _op1);
  int32_t bupc_atomicI32_fetchor_private(void *_ptr, int32_t _op1);
  int32_t bupc_atomicI32_fetchor_relaxed(shared void *_sptr, int32_t _op1);
  int32_t bupc_atomicI32_fetchor_strict(shared void *_sptr, int32_t _op1);
  uint64_t bupc_atomicU64_fetchxor_private(void *_ptr, uint64_t _op1);
  uint64_t bupc_atomicU64_fetchxor_relaxed(shared void *_sptr, uint64_t _op1);
  uint64_t bupc_atomicU64_fetchxor_strict(shared void *_sptr, uint64_t _op1);
  int64_t bupc_atomicI64_fetchxor_private(void *_ptr, int64_t _op1);
  int64_t bupc_atomicI64_fetchxor_relaxed(shared void *_sptr, int64_t _op1);
  int64_t bupc_atomicI64_fetchxor_strict(shared void *_sptr, int64_t _op1);
  uint32_t bupc_atomicU32_fetchxor_private(void *_ptr, uint32_t _op1);
  uint32_t bupc_atomicU32_fetchxor_relaxed(shared void *_sptr, uint32_t _op1);
  uint32_t bupc_atomicU32_fetchxor_strict(shared void *_sptr, uint32_t _op1);
  int32_t bupc_atomicI32_fetchxor_private(void *_ptr, int32_t _op1);
  int32_t bupc_atomicI32_fetchxor_relaxed(shared void *_sptr, int32_t _op1);
  int32_t bupc_atomicI32_fetchxor_strict(shared void *_sptr, int32_t _op1);
  uint64_t bupc_atomicU64_swap_private(void *_ptr, uint64_t _op1);
  uint64_t bupc_atomicU64_swap_relaxed(shared void *_sptr, uint64_t _op1);
  uint64_t bupc_atomicU64_swap_strict(shared void *_sptr, uint64_t _op1);
  int64_t bupc_atomicI64_swap_private(void *_ptr, int64_t _op1);
  int64_t bupc_atomicI64_swap_relaxed(shared void *_sptr, int64_t _op1);
  int64_t bupc_atomicI64_swap_strict(shared void *_sptr, int64_t _op1);
  uint32_t bupc_atomicU32_swap_private(void *_ptr, uint32_t _op1);
  uint32_t bupc_atomicU32_swap_relaxed(shared void *_sptr, uint32_t _op1);
  uint32_t bupc_atomicU32_swap_strict(shared void *_sptr, uint32_t _op1);
  int32_t bupc_atomicI32_swap_private(void *_ptr, int32_t _op1);
  int32_t bupc_atomicI32_swap_relaxed(shared void *_sptr, int32_t _op1);
  int32_t bupc_atomicI32_swap_strict(shared void *_sptr, int32_t _op1);
  uint64_t bupc_atomicU64_cswap_private(void *_ptr, uint64_t _op1, uint64_t _op2);
  uint64_t bupc_atomicU64_cswap_relaxed(shared void *_sptr, uint64_t _op1, uint64_t _op2);
  uint64_t bupc_atomicU64_cswap_strict(shared void *_sptr, uint64_t _op1, uint64_t _op2);
  int64_t bupc_atomicI64_cswap_private(void *_ptr, int64_t _op1, int64_t _op2);
  int64_t bupc_atomicI64_cswap_relaxed(shared void *_sptr, int64_t _op1, int64_t _op2);
  int64_t bupc_atomicI64_cswap_strict(shared void *_sptr, int64_t _op1, int64_t _op2);
  uint32_t bupc_atomicU32_cswap_private(void *_ptr, uint32_t _op1, uint32_t _op2);
  uint32_t bupc_atomicU32_cswap_relaxed(shared void *_sptr, uint32_t _op1, uint32_t _op2);
  uint32_t bupc_atomicU32_cswap_strict(shared void *_sptr, uint32_t _op1, uint32_t _op2);
  int32_t bupc_atomicI32_cswap_private(void *_ptr, int32_t _op1, int32_t _op2);
  int32_t bupc_atomicI32_cswap_relaxed(shared void *_sptr, int32_t _op1, int32_t _op2);
  int32_t bupc_atomicI32_cswap_strict(shared void *_sptr, int32_t _op1, int32_t _op2);
  uint64_t bupc_atomicU64_mswap_private(void *_ptr, uint64_t _op1, uint64_t _op2);
  uint64_t bupc_atomicU64_mswap_relaxed(shared void *_sptr, uint64_t _op1, uint64_t _op2);
  uint64_t bupc_atomicU64_mswap_strict(shared void *_sptr, uint64_t _op1, uint64_t _op2);
  int64_t bupc_atomicI64_mswap_private(void *_ptr, int64_t _op1, int64_t _op2);
  int64_t bupc_atomicI64_mswap_relaxed(shared void *_sptr, int64_t _op1, int64_t _op2);
  int64_t bupc_atomicI64_mswap_strict(shared void *_sptr, int64_t _op1, int64_t _op2);
  uint32_t bupc_atomicU32_mswap_private(void *_ptr, uint32_t _op1, uint32_t _op2);
  uint32_t bupc_atomicU32_mswap_relaxed(shared void *_sptr, uint32_t _op1, uint32_t _op2);
  uint32_t bupc_atomicU32_mswap_strict(shared void *_sptr, uint32_t _op1, uint32_t _op2);
  int32_t bupc_atomicI32_mswap_private(void *_ptr, int32_t _op1, int32_t _op2);
  int32_t bupc_atomicI32_mswap_relaxed(shared void *_sptr, int32_t _op1, int32_t _op2);
  int32_t bupc_atomicI32_mswap_strict(shared void *_sptr, int32_t _op1, int32_t _op2);


 
# 808 "/global/homes/n/nchaimov/edison/upc-inst/opt/include/upcr_preinclude/bupc_atomics.h"

 
# 994 "/global/homes/n/nchaimov/edison/upc-inst/opt/include/upcr_preinclude/bupc_atomics.h"

 
# 1238 "/global/homes/n/nchaimov/edison/upc-inst/opt/include/upcr_preinclude/bupc_atomics.h"

# 569 "/global/homes/n/nchaimov/edison/upc-inst/opt/include/upcr_preinclude/bupc_extensions.h" 2
#pragma upc upc_code
# 569 "/global/homes/n/nchaimov/edison/upc-inst/opt/include/upcr_preinclude/bupc_extensions.h"

 
 
# 669 "/global/homes/n/nchaimov/edison/upc-inst/opt/include/upcr_preinclude/bupc_extensions.h"

 



# 115 "/global/homes/n/nchaimov/edison/upc-inst/opt/include/upcr_preinclude/upc.h" 2
#pragma upc upc_code
# 115 "/global/homes/n/nchaimov/edison/upc-inst/opt/include/upcr_preinclude/upc.h"


# 4 "/global/u2/n/nchaimov/edison/upc-runtime-thor/thor_pth/supc.h" 2
#pragma upc upc_code
# 4 "/global/u2/n/nchaimov/edison/upc-runtime-thor/thor_pth/supc.h"



extern void client_request_completion(bupc_handle_t);






















void default_server_init(void);
void init_server(int * params, int count, int node_count);

bupc_handle_t sbupc_memget_async(void * restrict dst, shared const void * restrict src, size_t n);
bupc_handle_t sbupc_memput_async(shared const void * restrict dst, const void *src, size_t n);
void sbupc_waitsync(bupc_handle_t h);
void sbupc_waitsync_all (bupc_handle_t *ph, size_t _n);

void supc_memget(void *, shared const void *, size_t);
void supc_memput(shared void *, const void *, size_t);

void update_server_param(int index, int value);


# 2 "hello.upc" 2
#pragma upc upc_code
# 2 "hello.upc"
# 1 "/global/homes/n/nchaimov/edison/upc-inst/opt/include/upcr_geninclude/stdio.h" 1








 





# 1 "/usr/include/stdio.h" 1 3

















 



 









# 1 "/global/homes/n/nchaimov/edison/upc-inst/opt/include/upcr_geninclude/stddef.h" 1






# 13 "/global/homes/n/nchaimov/edison/upc-inst/opt/include/upcr_geninclude/stddef.h"


# 1 "/usr/lib64/gcc/x86_64-suse-linux/4.3/include/stddef.h" 1 3


















 






 



 








 
# 50 "/usr/lib64/gcc/x86_64-suse-linux/4.3/include/stddef.h" 3



 


 



 






 
# 96 "/usr/lib64/gcc/x86_64-suse-linux/4.3/include/stddef.h" 3


 









 
# 121 "/usr/lib64/gcc/x86_64-suse-linux/4.3/include/stddef.h" 3





 

 


 
# 161 "/usr/lib64/gcc/x86_64-suse-linux/4.3/include/stddef.h" 3

 




 


 
# 238 "/usr/lib64/gcc/x86_64-suse-linux/4.3/include/stddef.h" 3





 


 
# 347 "/usr/lib64/gcc/x86_64-suse-linux/4.3/include/stddef.h" 3

# 359 "/usr/lib64/gcc/x86_64-suse-linux/4.3/include/stddef.h" 3


 
 
# 392 "/usr/lib64/gcc/x86_64-suse-linux/4.3/include/stddef.h" 3



 

# 410 "/usr/lib64/gcc/x86_64-suse-linux/4.3/include/stddef.h" 3



 




# 17 "/global/homes/n/nchaimov/edison/upc-inst/opt/include/upcr_geninclude/stddef.h" 2
# 1 "/usr/lib64/gcc/x86_64-suse-linux/4.3/include/stddef.h" 1 3


















 






 



 
# 18 "/global/homes/n/nchaimov/edison/upc-inst/opt/include/upcr_geninclude/stddef.h" 2




  


 


  

 









# 35 "/usr/include/stdio.h" 2 3









 
struct _IO_FILE;


 
typedef struct _IO_FILE FILE;














 
typedef struct _IO_FILE __FILE;









# 1 "/usr/include/libio.h" 1 3


























 




# 1 "/usr/include/_G_config.h" 1 3

 




 

# 1 "/global/homes/n/nchaimov/edison/upc-inst/opt/include/upcr_geninclude/stddef.h" 1






# 13 "/global/homes/n/nchaimov/edison/upc-inst/opt/include/upcr_geninclude/stddef.h"


# 1 "/usr/lib64/gcc/x86_64-suse-linux/4.3/include/stddef.h" 1 3


















 






 



 








 
# 50 "/usr/lib64/gcc/x86_64-suse-linux/4.3/include/stddef.h" 3



 


 



 






 
# 96 "/usr/lib64/gcc/x86_64-suse-linux/4.3/include/stddef.h" 3


 









 
# 121 "/usr/lib64/gcc/x86_64-suse-linux/4.3/include/stddef.h" 3





 

 


 
# 161 "/usr/lib64/gcc/x86_64-suse-linux/4.3/include/stddef.h" 3

 




 


 
# 238 "/usr/lib64/gcc/x86_64-suse-linux/4.3/include/stddef.h" 3





 


 
# 347 "/usr/lib64/gcc/x86_64-suse-linux/4.3/include/stddef.h" 3

# 359 "/usr/lib64/gcc/x86_64-suse-linux/4.3/include/stddef.h" 3


 
 
# 392 "/usr/lib64/gcc/x86_64-suse-linux/4.3/include/stddef.h" 3



 

# 410 "/usr/lib64/gcc/x86_64-suse-linux/4.3/include/stddef.h" 3



 




# 17 "/global/homes/n/nchaimov/edison/upc-inst/opt/include/upcr_geninclude/stddef.h" 2
# 1 "/usr/lib64/gcc/x86_64-suse-linux/4.3/include/stddef.h" 1 3


















 






 



 
# 18 "/global/homes/n/nchaimov/edison/upc-inst/opt/include/upcr_geninclude/stddef.h" 2




  


 


  

 









# 16 "/usr/include/_G_config.h" 2 3
# 1 "/usr/include/wchar.h" 1 3
















 




 








# 79 "/usr/include/wchar.h" 3



 
typedef struct
{
  int __count;
  union
  {

    unsigned int __wch;



    char __wchb[4];
  } __value;		 
} __mbstate_t;





 
# 893 "/usr/include/wchar.h" 3




 
# 21 "/usr/include/_G_config.h" 2 3

typedef struct
{
  __off_t __pos;
  __mbstate_t __state;
} _G_fpos_t;
typedef struct
{
  __off64_t __pos;
  __mbstate_t __state;
} _G_fpos64_t;
# 52 "/usr/include/_G_config.h" 3

typedef int _G_int16_t __attribute__ ((__mode__ (__HI__)));
typedef int _G_int32_t __attribute__ ((__mode__ (__SI__)));
typedef unsigned int _G_uint16_t __attribute__ ((__mode__ (__HI__)));
typedef unsigned int _G_uint32_t __attribute__ ((__mode__ (__SI__)));




 






# 74 "/usr/include/_G_config.h" 3








 




 













# 33 "/usr/include/libio.h" 2 3
 
# 49 "/usr/include/libio.h" 3


 
# 1 "/global/homes/n/nchaimov/edison/upc-inst/opt/include/upcr_geninclude/stdarg.h" 1








# 15 "/global/homes/n/nchaimov/edison/upc-inst/opt/include/upcr_geninclude/stdarg.h"


# 1 "/usr/lib64/gcc/x86_64-suse-linux/4.3/include/stdarg.h" 1 3

















 






 



 

# 38 "/usr/lib64/gcc/x86_64-suse-linux/4.3/include/stdarg.h" 3

 



typedef __builtin_va_list __gnuc_va_list;



 
# 131 "/usr/lib64/gcc/x86_64-suse-linux/4.3/include/stdarg.h" 3

# 19 "/global/homes/n/nchaimov/edison/upc-inst/opt/include/upcr_geninclude/stdarg.h" 2
# 1 "/usr/lib64/gcc/x86_64-suse-linux/4.3/include/stdarg.h" 1 3

















 






 



 

# 38 "/usr/lib64/gcc/x86_64-suse-linux/4.3/include/stdarg.h" 3

 







 


# 57 "/usr/lib64/gcc/x86_64-suse-linux/4.3/include/stdarg.h" 3

 




 









# 91 "/usr/lib64/gcc/x86_64-suse-linux/4.3/include/stdarg.h" 3




 

 

 

 

 

typedef __gnuc_va_list va_list;
# 125 "/usr/lib64/gcc/x86_64-suse-linux/4.3/include/stdarg.h" 3







# 20 "/global/homes/n/nchaimov/edison/upc-inst/opt/include/upcr_geninclude/stdarg.h" 2



# 39 "/global/homes/n/nchaimov/edison/upc-inst/opt/include/upcr_geninclude/stdarg.h"
     
# 52 "/global/homes/n/nchaimov/edison/upc-inst/opt/include/upcr_geninclude/stdarg.h"
    struct bupc_mangled_va_list;
    extern void bupc_mangled_va_start(struct bupc_mangled_va_list *, const char *);
    extern void bupc_mangled_va_arg(struct bupc_mangled_va_list *, const char *, void *);
    extern void bupc_mangled_va_end(struct bupc_mangled_va_list *);
    extern void bupc_mangled_va_copy(struct bupc_mangled_va_list *, struct bupc_mangled_va_list *);





# 54 "/usr/include/libio.h" 2 3






# 73 "/usr/include/libio.h" 3

 




# 88 "/usr/include/libio.h" 3

# 104 "/usr/include/libio.h" 3

# 113 "/usr/include/libio.h" 3





 

# 139 "/usr/include/libio.h" 3

# 149 "/usr/include/libio.h" 3

 
# 168 "/usr/include/libio.h" 3


struct _IO_jump_t;  struct _IO_FILE;

 
# 180 "/usr/include/libio.h" 3
typedef void _IO_lock_t;



 

struct _IO_marker {
  struct _IO_marker *_next;
  struct _IO_FILE *_sbuf;
  
 
   
  int _pos;
# 203 "/usr/include/libio.h" 3
};

 
enum __codecvt_result
{
  __codecvt_ok,
  __codecvt_partial,
  __codecvt_error,
  __codecvt_noconv
};

# 270 "/usr/include/libio.h" 3

struct _IO_FILE {
  int _flags;		 


   
   
  char* _IO_read_ptr;	 
  char* _IO_read_end;	 
  char* _IO_read_base;	 
  char* _IO_write_base;	 
  char* _IO_write_ptr;	 
  char* _IO_write_end;	 
  char* _IO_buf_base;	 
  char* _IO_buf_end;	 
   
  char *_IO_save_base;  
  char *_IO_backup_base;   
  char *_IO_save_end;  

  struct _IO_marker *_markers;

  struct _IO_FILE *_chain;

  int _fileno;



  int _flags2;

  __off_t _old_offset;  


   
  unsigned short _cur_column;
  signed char _vtable_offset;
  char _shortbuf[1];

   

  _IO_lock_t *_lock;
# 319 "/usr/include/libio.h" 3
  __off64_t _offset;
# 328 "/usr/include/libio.h" 3
  void *__pad1;
  void *__pad2;
  void *__pad3;
  void *__pad4;
  size_t __pad5;

  int _mode;
   
  char _unused2[15 * sizeof (int) - 4 * sizeof (void *) - sizeof (size_t)];

};


typedef struct _IO_FILE _IO_FILE;


struct _IO_FILE_plus;

extern struct _IO_FILE_plus _IO_2_1_stdin_;
extern struct _IO_FILE_plus _IO_2_1_stdout_;
extern struct _IO_FILE_plus _IO_2_1_stderr_;
# 358 "/usr/include/libio.h" 3


 


 
typedef __ssize_t __io_read_fn (void *__cookie, char *__buf, size_t __nbytes);






 
typedef __ssize_t __io_write_fn (void *__cookie, __const char *__buf,
				 size_t __n);






 
typedef int __io_seek_fn (void *__cookie, __off64_t *__pos, int __w);

 
typedef int __io_close_fn (void *__cookie);



 
typedef __io_read_fn cookie_read_function_t;
typedef __io_write_fn cookie_write_function_t;
typedef __io_seek_fn cookie_seek_function_t;
typedef __io_close_fn cookie_close_function_t;

 
typedef struct
{
  __io_read_fn *read;		 
  __io_write_fn *write;		 
  __io_seek_fn *seek;		 
  __io_close_fn *close;		 
} _IO_cookie_io_functions_t;
typedef _IO_cookie_io_functions_t cookie_io_functions_t;

struct _IO_cookie_file;

 
extern void _IO_cookie_init (struct _IO_cookie_file *__cfile, int __read_write,
			     void *__cookie, _IO_cookie_io_functions_t __fns);







extern int __underflow (_IO_FILE *);
extern int __uflow (_IO_FILE *);
extern int __overflow (_IO_FILE *, int);












# 442 "/usr/include/libio.h" 3

# 456 "/usr/include/libio.h" 3




extern int _IO_getc (_IO_FILE *__fp);
extern int _IO_putc (int __c, _IO_FILE *__fp);
extern int _IO_feof (_IO_FILE *__fp) __attribute__ ((__nothrow__));
extern int _IO_ferror (_IO_FILE *__fp) __attribute__ ((__nothrow__));

extern int _IO_peekc_locked (_IO_FILE *__fp);

 



extern void _IO_flockfile (_IO_FILE *) __attribute__ ((__nothrow__));
extern void _IO_funlockfile (_IO_FILE *) __attribute__ ((__nothrow__));
extern int _IO_ftrylockfile (_IO_FILE *) __attribute__ ((__nothrow__));

# 489 "/usr/include/libio.h" 3

extern int _IO_vfscanf (_IO_FILE * , const char * ,
			__gnuc_va_list, int *);
extern int _IO_vfprintf (_IO_FILE *, const char *,
			 __gnuc_va_list);
extern __ssize_t _IO_padn (_IO_FILE *, int, __ssize_t);
extern size_t _IO_sgetn (_IO_FILE *, void *, size_t);

extern __off64_t _IO_seekoff (_IO_FILE *, __off64_t, int, int);
extern __off64_t _IO_seekpos (_IO_FILE *, __off64_t, int);

extern void _IO_free_backup_area (_IO_FILE *) __attribute__ ((__nothrow__));

# 546 "/usr/include/libio.h" 3









# 76 "/usr/include/stdio.h" 2 3

# 87 "/usr/include/stdio.h" 3

 


typedef _G_fpos_t fpos_t;





typedef _G_fpos64_t fpos64_t;


 





 






 






 






 












 
# 1 "/usr/include/bits/stdio_lim.h" 1 3
















 










# 35 "/usr/include/bits/stdio_lim.h" 3






# 142 "/usr/include/stdio.h" 2 3


 
extern struct _IO_FILE *stdin;		 
extern struct _IO_FILE *stdout;		 
extern struct _IO_FILE *stderr;		 

 






 
extern int remove (__const char *__filename) __attribute__ ((__nothrow__));
 
extern int rename (__const char *__old, __const char *__new) __attribute__ ((__nothrow__));



 
extern int renameat (int __oldfd, __const char *__old, int __newfd,
		     __const char *__new) __attribute__ ((__nothrow__));






 

extern FILE *tmpfile (void) ;
# 182 "/usr/include/stdio.h" 3


extern FILE *tmpfile64 (void) ;


 
extern char *tmpnam (char *__s) __attribute__ ((__nothrow__)) ;




 
extern char *tmpnam_r (char *__s) __attribute__ ((__nothrow__)) ;










 
extern char *tempnam (__const char *__dir, __const char *__pfx)
     __attribute__ ((__nothrow__)) __attribute__ ((__malloc__)) ;







 
extern int fclose (FILE *__stream);



 
extern int fflush (FILE *__stream);








 
extern int fflush_unlocked (FILE *__stream);








 
extern int fcloseall (void);








 
extern FILE *fopen (__const char * __filename,
		    __const char * __modes) ;



 
extern FILE *freopen (__const char * __filename,
		      __const char * __modes,
		      FILE * __stream) ;
# 274 "/usr/include/stdio.h" 3


extern FILE *fopen64 (__const char * __filename,
		      __const char * __modes) ;
extern FILE *freopen64 (__const char * __filename,
			__const char * __modes,
			FILE * __stream) ;



 
extern FILE *fdopen (int __fd, __const char *__modes) __attribute__ ((__nothrow__)) ;




 
extern FILE *fopencookie (void * __magic_cookie,
			  __const char * __modes,
			  _IO_cookie_io_functions_t __io_funcs) __attribute__ ((__nothrow__)) ;



 
extern FILE *fmemopen (void *__s, size_t __len, __const char *__modes)
  __attribute__ ((__nothrow__)) ;



 
extern FILE *open_memstream (char **__bufloc, size_t *__sizeloc) __attribute__ ((__nothrow__)) ;





 
extern void setbuf (FILE * __stream, char * __buf) __attribute__ ((__nothrow__));


 
extern int setvbuf (FILE * __stream, char * __buf,
		    int __modes, size_t __n) __attribute__ ((__nothrow__));




 
extern void setbuffer (FILE * __stream, char * __buf,
		       size_t __size) __attribute__ ((__nothrow__));

 
extern void setlinebuf (FILE *__stream) __attribute__ ((__nothrow__));







 
extern int fprintf (FILE * __stream,
		    __const char * __format, ...);



 
extern int printf (__const char * __format, ...);
 
extern int sprintf (char * __s,
		    __const char * __format, ...) __attribute__ ((__nothrow__));




 
extern int vfprintf (FILE * __s, __const char * __format,
		     __gnuc_va_list __arg);



 
extern int vprintf (__const char * __format, __gnuc_va_list __arg);
 
extern int vsprintf (char * __s, __const char * __format,
		     __gnuc_va_list __arg) __attribute__ ((__nothrow__));




 
extern int snprintf (char * __s, size_t __maxlen,
		     __const char * __format, ...)
     __attribute__ ((__nothrow__)) __attribute__ ((__format__ (__printf__, 3, 4)));

extern int vsnprintf (char * __s, size_t __maxlen,
		      __const char * __format, __gnuc_va_list __arg)
     __attribute__ ((__nothrow__)) __attribute__ ((__format__ (__printf__, 3, 0)));





 
extern int vasprintf (char ** __ptr, __const char * __f,
		      __gnuc_va_list __arg)
     __attribute__ ((__nothrow__)) __attribute__ ((__format__ (__printf__, 2, 0))) ;
extern int __asprintf (char ** __ptr,
		       __const char * __fmt, ...)
     __attribute__ ((__nothrow__)) __attribute__ ((__format__ (__printf__, 2, 3))) ;
extern int asprintf (char ** __ptr,
		     __const char * __fmt, ...)
     __attribute__ ((__nothrow__)) __attribute__ ((__format__ (__printf__, 2, 3))) ;








 
extern int vdprintf (int __fd, __const char * __fmt,
		     __gnuc_va_list __arg)
     __attribute__ ((__format__ (__printf__, 2, 0)));
extern int dprintf (int __fd, __const char * __fmt, ...)
     __attribute__ ((__format__ (__printf__, 2, 3)));







 
extern int fscanf (FILE * __stream,
		   __const char * __format, ...) ;



 
extern int scanf (__const char * __format, ...) ;
 
extern int sscanf (__const char * __s,
		   __const char * __format, ...) __attribute__ ((__nothrow__));

# 446 "/usr/include/stdio.h" 3








 
extern int vfscanf (FILE * __s, __const char * __format,
		    __gnuc_va_list __arg)
     __attribute__ ((__format__ (__scanf__, 2, 0))) ;




 
extern int vscanf (__const char * __format, __gnuc_va_list __arg)
     __attribute__ ((__format__ (__scanf__, 1, 0))) ;

 
extern int vsscanf (__const char * __s,
		    __const char * __format, __gnuc_va_list __arg)
     __attribute__ ((__nothrow__)) __attribute__ ((__format__ (__scanf__, 2, 0)));

# 505 "/usr/include/stdio.h" 3









 
extern int fgetc (FILE *__stream);
extern int getc (FILE *__stream);




 
extern int getchar (void);



 






 
extern int getc_unlocked (FILE *__stream);
extern int getchar_unlocked (void);








 
extern int fgetc_unlocked (FILE *__stream);










 
extern int fputc (int __c, FILE *__stream);
extern int putc (int __c, FILE *__stream);




 
extern int putchar (int __c);



 








 
extern int fputc_unlocked (int __c, FILE *__stream);






 
extern int putc_unlocked (int __c, FILE *__stream);
extern int putchar_unlocked (int __c);





 
extern int getw (FILE *__stream);

 
extern int putw (int __w, FILE *__stream);







 
extern char *fgets (char * __s, int __n, FILE * __stream)
     ;





 
extern char *gets (char *__s) ;








 
extern char *fgets_unlocked (char * __s, int __n,
			     FILE * __stream) ;













 
extern __ssize_t __getdelim (char ** __lineptr,
			       size_t * __n, int __delimiter,
			       FILE * __stream) ;
extern __ssize_t getdelim (char ** __lineptr,
			     size_t * __n, int __delimiter,
			     FILE * __stream) ;






 
extern __ssize_t getline (char ** __lineptr,
			    size_t * __n,
			    FILE * __stream) ;







 
extern int fputs (__const char * __s, FILE * __stream);




 
extern int puts (__const char *__s);





 
extern int ungetc (int __c, FILE *__stream);





 
extern size_t fread (void * __ptr, size_t __size,
		     size_t __n, FILE * __stream) ;



 
extern size_t fwrite (__const void * __ptr, size_t __size,
		      size_t __n, FILE * __s) ;








 
extern int fputs_unlocked (__const char * __s,
			   FILE * __stream);








 
extern size_t fread_unlocked (void * __ptr, size_t __size,
			      size_t __n, FILE * __stream) ;
extern size_t fwrite_unlocked (__const void * __ptr, size_t __size,
			       size_t __n, FILE * __stream) ;







 
extern int fseek (FILE *__stream, long int __off, int __whence);



 
extern long int ftell (FILE *__stream) ;



 
extern void rewind (FILE *__stream);





 






 
extern int fseeko (FILE *__stream, __off_t __off, int __whence);



 
extern __off_t ftello (FILE *__stream) ;
# 766 "/usr/include/stdio.h" 3






 
extern int fgetpos (FILE * __stream, fpos_t * __pos);



 
extern int fsetpos (FILE *__stream, __const fpos_t *__pos);
# 790 "/usr/include/stdio.h" 3



extern int fseeko64 (FILE *__stream, __off64_t __off, int __whence);
extern __off64_t ftello64 (FILE *__stream) ;
extern int fgetpos64 (FILE * __stream, fpos64_t * __pos);
extern int fsetpos64 (FILE *__stream, __const fpos64_t *__pos);



 
extern void clearerr (FILE *__stream) __attribute__ ((__nothrow__));
 
extern int feof (FILE *__stream) __attribute__ ((__nothrow__)) ;
 
extern int ferror (FILE *__stream) __attribute__ ((__nothrow__)) ;



 
extern void clearerr_unlocked (FILE *__stream) __attribute__ ((__nothrow__));
extern int feof_unlocked (FILE *__stream) __attribute__ ((__nothrow__)) ;
extern int ferror_unlocked (FILE *__stream) __attribute__ ((__nothrow__)) ;







 
extern void perror (__const char *__s);





 
# 1 "/usr/include/bits/sys_errlist.h" 1 3

















 





 


extern int sys_nerr;
extern __const char *__const sys_errlist[];


extern int _sys_nerr;
extern __const char *__const _sys_errlist[];
# 829 "/usr/include/stdio.h" 2 3



 
extern int fileno (FILE *__stream) __attribute__ ((__nothrow__)) ;



 
extern int fileno_unlocked (FILE *__stream) __attribute__ ((__nothrow__)) ;








 
extern FILE *popen (__const char *__command, __const char *__modes) ;




 
extern int pclose (FILE *__stream);




 
extern char *ctermid (char *__s) __attribute__ ((__nothrow__));




 
extern char *cuserid (char *__s);




struct obstack;			 

 
extern int obstack_printf (struct obstack * __obstack,
			   __const char * __format, ...)
     __attribute__ ((__nothrow__)) __attribute__ ((__format__ (__printf__, 2, 3)));
extern int obstack_vprintf (struct obstack * __obstack,
			    __const char * __format,
			    __gnuc_va_list __args)
     __attribute__ ((__nothrow__)) __attribute__ ((__format__ (__printf__, 2, 0)));




 

 
extern void flockfile (FILE *__stream) __attribute__ ((__nothrow__));


 
extern int ftrylockfile (FILE *__stream) __attribute__ ((__nothrow__)) ;

 
extern void funlockfile (FILE *__stream) __attribute__ ((__nothrow__));


# 905 "/usr/include/stdio.h" 3


 
# 917 "/usr/include/stdio.h" 3





# 17 "/global/homes/n/nchaimov/edison/upc-inst/opt/include/upcr_geninclude/stdio.h" 2














# 3 "hello.upc" 2
#pragma upc upc_code
# 3 "hello.upc"
int main() {
   shared int *p;  

  thor_default_server_init();

  upc_barrier;
 
  upc_barrier;
  
  upc_barrier;

  p = (shared int*) upc_alloc(256);
  p[3] = 5;	
  printf("OIIIIII PASSED BARRIER 3 %d\n", MYTHREAD);
  return 0;
}
