UPC Runtime error: Client issued more requests than queue slots, should call waitsync : 8192 8192 

NOTICE: Before reporting bugs, run with GASNET_BACKTRACE=1 in the environment to generate a backtrace. 
UPC Runtime error: Client issued more requests than queue slots, should call waitsync : 8192 8192 

NOTICE: Before reporting bugs, run with GASNET_BACKTRACE=1 in the environment to generate a backtrace. 
UPC Runtime error: Client issued more requests than queue slots, should call waitsync : 8192 8192 

NOTICE: Before reporting bugs, run with GASNET_BACKTRACE=1 in the environment to generate a backtrace. 
UPC Runtime error: Client issued more requests than queue slots, should call waitsync : 8192 8192 

NOTICE: Before reporting bugs, run with GASNET_BACKTRACE=1 in the environment to generate a backtrace. 
UPC Runtime error: Client issued more requests than queue slots, should call waitsync : 8192 8192 

NOTICE: Before reporting bugs, run with GASNET_BACKTRACE=1 in the environment to generate a backtrace. 
*** Caught a fatal signal: SIGBUS(7) on node 3/16
NOTICE: Before reporting bugs, run with GASNET_BACKTRACE=1 in the environment to generate a backtrace. 
*** Caught a fatal signal: SIGBUS(7) on node 11/16
NOTICE: Before reporting bugs, run with GASNET_BACKTRACE=1 in the environment to generate a backtrace. 
*** Caught a fatal signal: SIGBUS(7) on node 7/16
NOTICE: Before reporting bugs, run with GASNET_BACKTRACE=1 in the environment to generate a backtrace. 
_pmiu_daemon(SIGCHLD): [NID 00628] [c3-0c0s13n0] [Tue Jul 29 23:07:40 2014] PE RANK 13 exit signal Alarm clock
_pmiu_daemon(SIGCHLD): [NID 04165] [c5-2c2s1n1] [Tue Jul 29 23:07:40 2014] PE RANK 6 exit signal Alarm clock
_pmiu_daemon(SIGCHLD): [NID 04166] [c5-2c2s1n2] [Tue Jul 29 23:07:40 2014] PE RANK 3 exit signal Bus error
_pmiu_daemon(SIGCHLD): [NID 04164] [c5-2c2s1n0] [Tue Jul 29 23:07:40 2014] PE RANK 9 exit signal Alarm clock
[NID 00628] 2014-07-29 23:07:41 Apid 6484602: initiated application termination
[NID 04165] 2014-07-29 23:07:41 Apid 6484602: Error detected during page fault processing.  Process terminated via bus error.
[NID 04164] 2014-07-29 23:07:41 Apid 6484602: Error detected during page fault processing.  Process terminated via bus error.
[NID 04166] 2014-07-29 23:07:41 Apid 6484602: Error detected during page fault processing.  Process terminated via bus error.
UPC Runtime error: Client issued more requests than queue slots, should call waitsync : 8192 8192 

NOTICE: Before reporting bugs, run with GASNET_BACKTRACE=1 in the environment to generate a backtrace. 
UPC Runtime error: Client issued more requests than queue slots, should call waitsync : 8192 8192 

NOTICE: Before reporting bugs, run with GASNET_BACKTRACE=1 in the environment to generate a backtrace. 
UPC Runtime error: Client issued more requests than queue slots, should call waitsync : 8192 8192 

NOTICE: Before reporting bugs, run with GASNET_BACKTRACE=1 in the environment to generate a backtrace. 
UPC Runtime error: Client issued more requests than queue slots, should call waitsync : 8192 8192 

UPC Runtime error: Client issued more requests than queue slots, should call waitsync : 8192 8192 

NOTICE: Before reporting bugs, run with GASNET_BACKTRACE=1 in the environment to generate a backtrace. 
NOTICE: Before reporting bugs, run with GASNET_BACKTRACE=1 in the environment to generate a backtrace. 
*** Caught a fatal signal: SIGBUS(7) on node 3/16
NOTICE: Before reporting bugs, run with GASNET_BACKTRACE=1 in the environment to generate a backtrace. 
*** Caught a fatal signal: SIGBUS(7) on node 11/16
NOTICE: Before reporting bugs, run with GASNET_BACKTRACE=1 in the environment to generate a backtrace. 
*** Caught a fatal signal: SIGBUS(7) on node 15/16
*** Caught a fatal signal: SIGBUS(7) on node 13/16
NOTICE: Before reporting bugs, run with GASNET_BACKTRACE=1 in the environment to generate a backtrace. 
_pmiu_daemon(SIGCHLD): [NID 04166] [c5-2c2s1n2] [Tue Jul 29 23:09:49 2014] PE RANK 2 exit signal Alarm clock
_pmiu_daemon(SIGCHLD): [NID 04164] [c5-2c2s1n0] [Tue Jul 29 23:09:49 2014] PE RANK 10 exit signal Alarm clock
_pmiu_daemon(SIGCHLD): [NID 04165] [c5-2c2s1n1] [Tue Jul 29 23:09:49 2014] PE RANK 7 exit signal Alarm clock
_pmiu_daemon(SIGCHLD): [NID 00628] [c3-0c0s13n0] [Tue Jul 29 23:09:49 2014] PE RANK 12 exit signal Alarm clock
[NID 04166] 2014-07-29 23:09:49 Apid 6484661: initiated application termination
[NID 04164] 2014-07-29 23:09:49 Apid 6484661: Error detected during page fault processing.  Process terminated via bus error.
[NID 00628] 2014-07-29 23:09:49 Apid 6484661: Error detected during page fault processing.  Process terminated via bus error.
[NID 04166] 2014-07-29 23:09:49 Apid 6484661: Error detected during page fault processing.  Process terminated via bus error.
UPC Runtime error: Client issued more requests than queue slots, should call waitsync : 8192 8192 

UPC Runtime error: Client issued more requests than queue slots, should call waitsync : 8192 8192 

NOTICE: Before reporting bugs, run with GASNET_BACKTRACE=1 in the environment to generate a backtrace. 
NOTICE: Before reporting bugs, run with GASNET_BACKTRACE=1 in the environment to generate a backtrace. 
UPC Runtime error: Client issued more requests than queue slots, should call waitsync : 8192 8192 

NOTICE: Before reporting bugs, run with GASNET_BACKTRACE=1 in the environment to generate a backtrace. 
UPC Runtime error: Client issued more requests than queue slots, should call waitsync : 8192 8192 

NOTICE: Before reporting bugs, run with GASNET_BACKTRACE=1 in the environment to generate a backtrace. 
*** Caught a fatal signal: SIGBUS(7) on node 9/16
NOTICE: Before reporting bugs, run with GASNET_BACKTRACE=1 in the environment to generate a backtrace. 
*** Caught a fatal signal: SIGBUS(7) on node 7/16
NOTICE: Before reporting bugs, run with GASNET_BACKTRACE=1 in the environment to generate a backtrace. 
*** Caught a fatal signal: SIGBUS(7) on node 15/16
NOTICE: Before reporting bugs, run with GASNET_BACKTRACE=1 in the environment to generate a backtrace. 
*** Caught a fatal signal: SIGBUS(7) on node 13/16
NOTICE: Before reporting bugs, run with GASNET_BACKTRACE=1 in the environment to generate a backtrace. 
_pmiu_daemon(SIGCHLD): [NID 04166] [c5-2c2s1n2] [Tue Jul 29 23:13:51 2014] PE RANK 1 exit signal Alarm clock
_pmiu_daemon(SIGCHLD): [NID 04164] [c5-2c2s1n0] [Tue Jul 29 23:13:51 2014] PE RANK 8 exit signal Alarm clock
_pmiu_daemon(SIGCHLD): [NID 04165] [c5-2c2s1n1] [Tue Jul 29 23:13:51 2014] PE RANK 7 exit signal Bus error
_pmiu_daemon(SIGCHLD): [NID 00628] [c3-0c0s13n0] [Tue Jul 29 23:13:51 2014] PE RANK 15 exit signal Bus error
[NID 04166] 2014-07-29 23:13:51 Apid 6484769: initiated application termination
[NID 00628] 2014-07-29 23:13:51 Apid 6484769: Error detected during page fault processing.  Process terminated via bus error.
[NID 04164] 2014-07-29 23:13:52 Apid 6484769: Error detected during page fault processing.  Process terminated via bus error.
[NID 04165] 2014-07-29 23:13:52 Apid 6484769: Error detected during page fault processing.  Process terminated via bus error.
UPC Runtime error: Client issued more requests than queue slots, should call waitsync : 8192 8192 

NOTICE: Before reporting bugs, run with GASNET_BACKTRACE=1 in the environment to generate a backtrace. 
*** Caught a fatal signal: SIGBUS(7) on node 3/16
NOTICE: Before reporting bugs, run with GASNET_BACKTRACE=1 in the environment to generate a backtrace. 
*** Caught a fatal signal: SIGBUS(7) on node 11/16
NOTICE: Before reporting bugs, run with GASNET_BACKTRACE=1 in the environment to generate a backtrace. 
*** Caught a fatal signal: SIGBUS(7) on node 9/16
NOTICE: Before reporting bugs, run with GASNET_BACKTRACE=1 in the environment to generate a backtrace. 
*** Caught a fatal signal: SIGBUS(7) on node 5/16
*** Caught a fatal signal: SIGBUS(7) on node 7/16
NOTICE: Before reporting bugs, run with GASNET_BACKTRACE=1 in the environment to generate a backtrace. 
NOTICE: Before reporting bugs, run with GASNET_BACKTRACE=1 in the environment to generate a backtrace. 
*** Caught a fatal signal: SIGBUS(7) on node 13/16
NOTICE: Before reporting bugs, run with GASNET_BACKTRACE=1 in the environment to generate a backtrace. 
*** Caught a fatal signal: SIGBUS(7) on node 15/16
NOTICE: Before reporting bugs, run with GASNET_BACKTRACE=1 in the environment to generate a backtrace. 
_pmiu_daemon(SIGCHLD): [NID 04164] [c5-2c2s1n0] [Tue Jul 29 23:15:58 2014] PE RANK 8 exit signal Alarm clock
[NID 04164] 2014-07-29 23:15:58 Apid 6484830: initiated application termination
[NID 04165] 2014-07-29 23:15:58 Apid 6484830: Error detected during page fault processing.  Process terminated via bus error.
[NID 00628] 2014-07-29 23:15:58 Apid 6484830: Error detected during page fault processing.  Process terminated via bus error.
[NID 04164] 2014-07-29 23:15:58 Apid 6484830: Error detected during page fault processing.  Process terminated via bus error.
[NID 04166] 2014-07-29 23:15:58 Apid 6484830: Error detected during page fault processing.  Process terminated via bus error.
UPC Runtime error: Client issued more requests than queue slots, should call waitsync : 8192 8192 

NOTICE: Before reporting bugs, run with GASNET_BACKTRACE=1 in the environment to generate a backtrace. 
*** Caught a fatal signal: SIGBUS(7) on node 1/16
*** Caught a fatal signal: SIGBUS(7) on node 3/16
NOTICE: Before reporting bugs, run with GASNET_BACKTRACE=1 in the environment to generate a backtrace. 
NOTICE: Before reporting bugs, run with GASNET_BACKTRACE=1 in the environment to generate a backtrace. 
*** Caught a fatal signal: SIGBUS(7) on node 9/16
NOTICE: Before reporting bugs, run with GASNET_BACKTRACE=1 in the environment to generate a backtrace. 
*** Caught a fatal signal: SIGBUS(7) on node 11/16
NOTICE: Before reporting bugs, run with GASNET_BACKTRACE=1 in the environment to generate a backtrace. 
*** Caught a fatal signal: SIGBUS(7) on node 5/16
NOTICE: Before reporting bugs, run with GASNET_BACKTRACE=1 in the environment to generate a backtrace. 
*** Caught a fatal signal: SIGBUS(7) on node 7/16
NOTICE: Before reporting bugs, run with GASNET_BACKTRACE=1 in the environment to generate a backtrace. 
*** Caught a fatal signal: SIGBUS(7) on node 13/16
NOTICE: Before reporting bugs, run with GASNET_BACKTRACE=1 in the environment to generate a backtrace. 
_pmiu_daemon(SIGCHLD): [NID 00628] [c3-0c0s13n0] [Tue Jul 29 23:18:11 2014] PE RANK 15 exit signal Alarm clock
_pmiu_daemon(SIGCHLD): [NID 04164] [c5-2c2s1n0] [Tue Jul 29 23:18:11 2014] PE RANK 8 exit signal Alarm clock
_pmiu_daemon(SIGCHLD): [NID 04166] [c5-2c2s1n2] [Tue Jul 29 23:18:11 2014] PE RANK 3 exit signal Bus error
[NID 04164] 2014-07-29 23:18:11 Apid 6484886: initiated application termination
_pmiu_daemon(SIGCHLD): [NID 04165] [c5-2c2s1n1] [Tue Jul 29 23:18:11 2014] PE RANK 6 exit signal Alarm clock
[NID 04164] 2014-07-29 23:18:11 Apid 6484886: Error detected during page fault processing.  Process terminated via bus error.
[NID 04165] 2014-07-29 23:18:11 Apid 6484886: Error detected during page fault processing.  Process terminated via bus error.
[NID 00628] 2014-07-29 23:18:11 Apid 6484886: Error detected during page fault processing.  Process terminated via bus error.
[NID 04166] 2014-07-29 23:18:11 Apid 6484886: Error detected during page fault processing.  Process terminated via bus error.
UPC Runtime error: Client issued more requests than queue slots, should call waitsync : 8192 8192 

NOTICE: Before reporting bugs, run with GASNET_BACKTRACE=1 in the environment to generate a backtrace. 
UPC Runtime error: Client issued more requests than queue slots, should call waitsync : 8192 8192 

NOTICE: Before reporting bugs, run with GASNET_BACKTRACE=1 in the environment to generate a backtrace. 
UPC Runtime error: Client issued more requests than queue slots, should call waitsync : 8192 8192 

NOTICE: Before reporting bugs, run with GASNET_BACKTRACE=1 in the environment to generate a backtrace. 
UPC Runtime error: Client issued more requests than queue slots, should call waitsync : 8192 8192 

UPC Runtime error: Client issued more requests than queue slots, should call waitsync : 8192 8192 

NOTICE: Before reporting bugs, run with GASNET_BACKTRACE=1 in the environment to generate a backtrace. 
NOTICE: Before reporting bugs, run with GASNET_BACKTRACE=1 in the environment to generate a backtrace. 
*** Caught a fatal signal: SIGBUS(7) on node 5/24
*** Caught a fatal signal: SIGBUS(7) on node 4/24
NOTICE: Before reporting bugs, run with GASNET_BACKTRACE=1 in the environment to generate a backtrace. 
NOTICE: Before reporting bugs, run with GASNET_BACKTRACE=1 in the environment to generate a backtrace. 
*** Caught a fatal signal: SIGBUS(7) on node 13/24
*** Caught a fatal signal: SIGBUS(7) on node 14/24
NOTICE: Before reporting bugs, run with GASNET_BACKTRACE=1 in the environment to generate a backtrace. 
NOTICE: Before reporting bugs, run with GASNET_BACKTRACE=1 in the environment to generate a backtrace. 
*** Caught a fatal signal: SIGBUS(7) on node 7/24
*** Caught a fatal signal: SIGBUS(7) on node 8/24
NOTICE: Before reporting bugs, run with GASNET_BACKTRACE=1 in the environment to generate a backtrace. 
NOTICE: Before reporting bugs, run with GASNET_BACKTRACE=1 in the environment to generate a backtrace. 
*** Caught a fatal signal: SIGBUS(7) on node 22/24
*** Caught a fatal signal: SIGBUS(7) on node 19/24
*** Caught a fatal signal: SIGBUS(7) on node 20/24
NOTICE: Before reporting bugs, run with GASNET_BACKTRACE=1 in the environment to generate a backtrace. 
NOTICE: Before reporting bugs, run with GASNET_BACKTRACE=1 in the environment to generate a backtrace. 
_pmiu_daemon(SIGCHLD): [NID 04166] [c5-2c2s1n2] [Tue Jul 29 23:24:35 2014] PE RANK 1 exit signal Alarm clock
_pmiu_daemon(SIGCHLD): [NID 04164] [c5-2c2s1n0] [Tue Jul 29 23:24:35 2014] PE RANK 12 exit signal Alarm clock
_pmiu_daemon(SIGCHLD): [NID 04165] [c5-2c2s1n1] [Tue Jul 29 23:24:35 2014] PE RANK 6 exit signal Alarm clock
_pmiu_daemon(SIGCHLD): [NID 00628] [c3-0c0s13n0] [Tue Jul 29 23:24:35 2014] PE RANK 22 exit signal Bus error
[NID 04166] 2014-07-29 23:24:35 Apid 6485039: initiated application termination
[NID 04164] 2014-07-29 23:24:35 Apid 6485039: Error detected during page fault processing.  Process terminated via bus error.
[NID 04165] 2014-07-29 23:24:35 Apid 6485039: Error detected during page fault processing.  Process terminated via bus error.
[NID 00628] 2014-07-29 23:24:35 Apid 6485039: Error detected during page fault processing.  Process terminated via bus error.
[NID 04166] 2014-07-29 23:24:35 Apid 6485039: Error detected during page fault processing.  Process terminated via bus error.
UPC Runtime error: Client issued more requests than queue slots, should call waitsync : 8192 8192 

NOTICE: Before reporting bugs, run with GASNET_BACKTRACE=1 in the environment to generate a backtrace. 
UPC Runtime error: Client issued more requests than queue slots, should call waitsync : 8192 8192 

UPC Runtime error: Client issued more requests than queue slots, should call waitsync : 8192 8192 

NOTICE: Before reporting bugs, run with GASNET_BACKTRACE=1 in the environment to generate a backtrace. 
NOTICE: Before reporting bugs, run with GASNET_BACKTRACE=1 in the environment to generate a backtrace. 
*** Caught a fatal signal: SIGBUS(7) on node 15/24
NOTICE: Before reporting bugs, run with GASNET_BACKTRACE=1 in the environment to generate a backtrace. 
*** Caught a fatal signal: SIGBUS(7) on node 13/24
*** Caught a fatal signal: SIGBUS(7) on node 14/24
NOTICE: Before reporting bugs, run with GASNET_BACKTRACE=1 in the environment to generate a backtrace. 
NOTICE: Before reporting bugs, run with GASNET_BACKTRACE=1 in the environment to generate a backtrace. 
*** Caught a fatal signal: SIGBUS(7) on node 16/24
*** Caught a fatal signal: SIGBUS(7) on node 17/24
NOTICE: Before reporting bugs, run with GASNET_BACKTRACE=1 in the environment to generate a backtrace. 
NOTICE: Before reporting bugs, run with GASNET_BACKTRACE=1 in the environment to generate a backtrace. 
*** Caught a fatal signal: SIGBUS(7) on node 11/24
*** Caught a fatal signal: SIGBUS(7) on node 10/24
NOTICE: Before reporting bugs, run with GASNET_BACKTRACE=1 in the environment to generate a backtrace. 
NOTICE: Before reporting bugs, run with GASNET_BACKTRACE=1 in the environment to generate a backtrace. 
_pmiu_daemon(SIGCHLD): [NID 04166] [c5-2c2s1n2] [Tue Jul 29 23:24:58 2014] PE RANK 1 exit signal Alarm clock
_pmiu_daemon(SIGCHLD): [NID 04165] [c5-2c2s1n1] [Tue Jul 29 23:24:58 2014] PE RANK 7 exit signal Alarm clock
_pmiu_daemon(SIGCHLD): [NID 04164] [c5-2c2s1n0] [Tue Jul 29 23:24:58 2014] PE RANK 12 exit signal Alarm clock
[NID 04166] 2014-07-29 23:24:58 Apid 6485047: initiated application termination
[NID 04164] 2014-07-29 23:24:58 Apid 6485047: Error detected during page fault processing.  Process terminated via bus error.
[NID 04165] 2014-07-29 23:24:58 Apid 6485047: Error detected during page fault processing.  Process terminated via bus error.
UPC Runtime error: Client issued more requests than queue slots, should call waitsync : 8192 8192 

NOTICE: Before reporting bugs, run with GASNET_BACKTRACE=1 in the environment to generate a backtrace. 
UPC Runtime error: Client issued more requests than queue slots, should call waitsync : 8192 8192 

NOTICE: Before reporting bugs, run with GASNET_BACKTRACE=1 in the environment to generate a backtrace. 
*** Caught a fatal signal: SIGBUS(7) on node 3/24
NOTICE: Before reporting bugs, run with GASNET_BACKTRACE=1 in the environment to generate a backtrace. 
*** Caught a fatal signal: SIGBUS(7) on node 17/24
*** Caught a fatal signal: SIGBUS(7) on node 16/24
NOTICE: Before reporting bugs, run with GASNET_BACKTRACE=1 in the environment to generate a backtrace. 
NOTICE: Before reporting bugs, run with GASNET_BACKTRACE=1 in the environment to generate a backtrace. 
*** Caught a fatal signal: SIGBUS(7) on node 10/24
*** Caught a fatal signal: SIGBUS(7) on node 11/24
NOTICE: Before reporting bugs, run with GASNET_BACKTRACE=1 in the environment to generate a backtrace. 
NOTICE: Before reporting bugs, run with GASNET_BACKTRACE=1 in the environment to generate a backtrace. 
*** Caught a fatal signal: SIGBUS(7) on node 1/24
*** Caught a fatal signal: SIGBUS(7) on node 2/24
NOTICE: Before reporting bugs, run with GASNET_BACKTRACE=1 in the environment to generate a backtrace. 
NOTICE: Before reporting bugs, run with GASNET_BACKTRACE=1 in the environment to generate a backtrace. 
*** Caught a fatal signal: SIGBUS(7) on node 4/24
*** Caught a fatal signal: SIGBUS(7) on node 5/24
NOTICE: Before reporting bugs, run with GASNET_BACKTRACE=1 in the environment to generate a backtrace. 
NOTICE: Before reporting bugs, run with GASNET_BACKTRACE=1 in the environment to generate a backtrace. 
_pmiu_daemon(SIGCHLD): [NID 00628] [c3-0c0s13n0] [Tue Jul 29 23:27:09 2014] PE RANK 22 exit signal Alarm clock
_pmiu_daemon(SIGCHLD): [NID 04166] [c5-2c2s1n2] [Tue Jul 29 23:27:09 2014] PE RANK 1 exit signal Bus error
_pmiu_daemon(SIGCHLD): [NID 04165] [c5-2c2s1n1] [Tue Jul 29 23:27:09 2014] PE RANK 7 exit signal Alarm clock
[NID 04166] 2014-07-29 23:27:09 Apid 6485107: initiated application termination
_pmiu_daemon(SIGCHLD): [NID 04164] [c5-2c2s1n0] [Tue Jul 29 23:27:09 2014] PE RANK 15 exit signal Alarm clock
[NID 04165] 2014-07-29 23:27:09 Apid 6485107: Error detected during page fault processing.  Process terminated via bus error.
[NID 04164] 2014-07-29 23:27:09 Apid 6485107: Error detected during page fault processing.  Process terminated via bus error.
[NID 04166] 2014-07-29 23:27:09 Apid 6485107: Error detected during page fault processing.  Process terminated via bus error.
UPC Runtime error: Client issued more requests than queue slots, should call waitsync : 8192 8192 

NOTICE: Before reporting bugs, run with GASNET_BACKTRACE=1 in the environment to generate a backtrace. 
UPC Runtime error: Client issued more requests than queue slots, should call waitsync : 8192 8192 

UPC Runtime error: Client issued more requests than queue slots, should call waitsync : 8192 8192 

NOTICE: Before reporting bugs, run with GASNET_BACKTRACE=1 in the environment to generate a backtrace. 
NOTICE: Before reporting bugs, run with GASNET_BACKTRACE=1 in the environment to generate a backtrace. 
UPC Runtime error: Client issued more requests than queue slots, should call waitsync : 8192 8192 

UPC Runtime error: Client issued more requests than queue slots, should call waitsync : 8192 8192 

NOTICE: Before reporting bugs, run with GASNET_BACKTRACE=1 in the environment to generate a backtrace. 
NOTICE: Before reporting bugs, run with GASNET_BACKTRACE=1 in the environment to generate a backtrace. 
*** Caught a fatal signal: SIGBUS(7) on node 15/24
NOTICE: Before reporting bugs, run with GASNET_BACKTRACE=1 in the environment to generate a backtrace. 
*** Caught a fatal signal: SIGBUS(7) on node 14/24
*** Caught a fatal signal: SIGBUS(7) on node 13/24
NOTICE: Before reporting bugs, run with GASNET_BACKTRACE=1 in the environment to generate a backtrace. 
NOTICE: Before reporting bugs, run with GASNET_BACKTRACE=1 in the environment to generate a backtrace. 
*** Caught a fatal signal: SIGBUS(7) on node 16/24
*** Caught a fatal signal: SIGBUS(7) on node 17/24
NOTICE: Before reporting bugs, run with GASNET_BACKTRACE=1 in the environment to generate a backtrace. 
NOTICE: Before reporting bugs, run with GASNET_BACKTRACE=1 in the environment to generate a backtrace. 
*** Caught a fatal signal: SIGBUS(7) on node 22/24
*** Caught a fatal signal: SIGBUS(7) on node 23/24
NOTICE: Before reporting bugs, run with GASNET_BACKTRACE=1 in the environment to generate a backtrace. 
NOTICE: Before reporting bugs, run with GASNET_BACKTRACE=1 in the environment to generate a backtrace. 
_pmiu_daemon(SIGCHLD): [NID 04166] [c5-2c2s1n2] [Tue Jul 29 23:27:32 2014] PE RANK 1 exit signal Alarm clock
_pmiu_daemon(SIGCHLD): [NID 00628] [c3-0c0s13n0] [Tue Jul 29 23:27:32 2014] PE RANK 19 exit signal Alarm clock
_pmiu_daemon(SIGCHLD): [NID 04165] [c5-2c2s1n1] [Tue Jul 29 23:27:32 2014] PE RANK 10 exit signal Alarm clock
_pmiu_daemon(SIGCHLD): [NID 04164] [c5-2c2s1n0] [Tue Jul 29 23:27:32 2014] PE RANK 12 exit signal Alarm clock
[NID 04166] 2014-07-29 23:27:32 Apid 6485121: initiated application termination
[NID 04164] 2014-07-29 23:27:32 Apid 6485121: Error detected during page fault processing.  Process terminated via bus error.
[NID 00628] 2014-07-29 23:27:32 Apid 6485121: Error detected during page fault processing.  Process terminated via bus error.
UPC Runtime error: Client issued more requests than queue slots, should call waitsync : 8192 8192 

NOTICE: Before reporting bugs, run with GASNET_BACKTRACE=1 in the environment to generate a backtrace. 
UPC Runtime error: Client issued more requests than queue slots, should call waitsync : 8192 8192 

UPC Runtime error: Client issued more requests than queue slots, should call waitsync : 8192 8192 

NOTICE: Before reporting bugs, run with GASNET_BACKTRACE=1 in the environment to generate a backtrace. 
NOTICE: Before reporting bugs, run with GASNET_BACKTRACE=1 in the environment to generate a backtrace. 
UPC Runtime error: Client issued more requests than queue slots, should call waitsync : 8192 8192 

UPC Runtime error: Client issued more requests than queue slots, should call waitsync : 8192 8192 

NOTICE: Before reporting bugs, run with GASNET_BACKTRACE=1 in the environment to generate a backtrace. 
NOTICE: Before reporting bugs, run with GASNET_BACKTRACE=1 in the environment to generate a backtrace. 
*** Caught a fatal signal: SIGBUS(7) on node 3/24
NOTICE: Before reporting bugs, run with GASNET_BACKTRACE=1 in the environment to generate a backtrace. 
*** Caught a fatal signal: SIGBUS(7) on node 13/24
*** Caught a fatal signal: SIGBUS(7) on node 14/24
NOTICE: Before reporting bugs, run with GASNET_BACKTRACE=1 in the environment to generate a backtrace. 
NOTICE: Before reporting bugs, run with GASNET_BACKTRACE=1 in the environment to generate a backtrace. 
*** Caught a fatal signal: SIGBUS(7) on node 1/24
*** Caught a fatal signal: SIGBUS(7) on node 2/24
NOTICE: Before reporting bugs, run with GASNET_BACKTRACE=1 in the environment to generate a backtrace. 
NOTICE: Before reporting bugs, run with GASNET_BACKTRACE=1 in the environment to generate a backtrace. 
*** Caught a fatal signal: SIGBUS(7) on node 5/24
*** Caught a fatal signal: SIGBUS(7) on node 4/24
NOTICE: Before reporting bugs, run with GASNET_BACKTRACE=1 in the environment to generate a backtrace. 
NOTICE: Before reporting bugs, run with GASNET_BACKTRACE=1 in the environment to generate a backtrace. 
*** Caught a fatal signal: SIGBUS(7) on node 22/24
NOTICE: Before reporting bugs, run with GASNET_BACKTRACE=1 in the environment to generate a backtrace. 
*** Caught a fatal signal: SIGBUS(7) on node 23/24
NOTICE: Before reporting bugs, run with GASNET_BACKTRACE=1 in the environment to generate a backtrace. 
_pmiu_daemon(SIGCHLD): [NID 04165] [c5-2c2s1n1] [Tue Jul 29 23:29:44 2014] PE RANK 8 exit signal Alarm clock
_pmiu_daemon(SIGCHLD): [NID 04164] [c5-2c2s1n0] [Tue Jul 29 23:29:44 2014] PE RANK 13 exit signal Bus error
_pmiu_daemon(SIGCHLD): [NID 00628] [c3-0c0s13n0] [Tue Jul 29 23:29:44 2014] PE RANK 19 exit signal Alarm clock
_pmiu_daemon(SIGCHLD): [NID 04166] [c5-2c2s1n2] [Tue Jul 29 23:29:44 2014] PE RANK 0 exit signal Alarm clock
[NID 04166] 2014-07-29 23:29:44 Apid 6485181: initiated application termination
[NID 04164] 2014-07-29 23:29:44 Apid 6485181: Error detected during page fault processing.  Process terminated via bus error.
[NID 00628] 2014-07-29 23:29:44 Apid 6485181: Error detected during page fault processing.  Process terminated via bus error.
[NID 04166] 2014-07-29 23:29:45 Apid 6485181: Error detected during page fault processing.  Process terminated via bus error.
UPC Runtime error: Client issued more requests than queue slots, should call waitsync : 8192 8192 

NOTICE: Before reporting bugs, run with GASNET_BACKTRACE=1 in the environment to generate a backtrace. 
UPC Runtime error: Client issued more requests than queue slots, should call waitsync : 8192 8192 

NOTICE: Before reporting bugs, run with GASNET_BACKTRACE=1 in the environment to generate a backtrace. 
UPC Runtime error: Client issued more requests than queue slots, should call waitsync : 8192 8192 

UPC Runtime error: Client issued more requests than queue slots, should call waitsync : 8192 8192 

NOTICE: Before reporting bugs, run with GASNET_BACKTRACE=1 in the environment to generate a backtrace. 
NOTICE: Before reporting bugs, run with GASNET_BACKTRACE=1 in the environment to generate a backtrace. 
*** Caught a fatal signal: SIGBUS(7) on node 16/24
*** Caught a fatal signal: SIGBUS(7) on node 17/24
NOTICE: Before reporting bugs, run with GASNET_BACKTRACE=1 in the environment to generate a backtrace. 
NOTICE: Before reporting bugs, run with GASNET_BACKTRACE=1 in the environment to generate a backtrace. 
*** Caught a fatal signal: SIGBUS(7) on node 4/24
*** Caught a fatal signal: SIGBUS(7) on node 5/24
NOTICE: Before reporting bugs, run with GASNET_BACKTRACE=1 in the environment to generate a backtrace. 
NOTICE: Before reporting bugs, run with GASNET_BACKTRACE=1 in the environment to generate a backtrace. 
*** Caught a fatal signal: SIGBUS(7) on node 2/24
NOTICE: Before reporting bugs, run with GASNET_BACKTRACE=1 in the environment to generate a backtrace. 
*** Caught a fatal signal: SIGBUS(7) on node 1/24
NOTICE: Before reporting bugs, run with GASNET_BACKTRACE=1 in the environment to generate a backtrace. 
*** Caught a fatal signal: SIGBUS(7) on node 8/24
*** Caught a fatal signal: SIGBUS(7) on node 7/24
NOTICE: Before reporting bugs, run with GASNET_BACKTRACE=1 in the environment to generate a backtrace. 
NOTICE: Before reporting bugs, run with GASNET_BACKTRACE=1 in the environment to generate a backtrace. 
_pmiu_daemon(SIGCHLD): [NID 04164] [c5-2c2s1n0] [Tue Jul 29 23:30:08 2014] PE RANK 13 exit signal Alarm clock
_pmiu_daemon(SIGCHLD): [NID 00628] [c3-0c0s13n0] [Tue Jul 29 23:30:08 2014] PE RANK 19 exit signal Alarm clock
_pmiu_daemon(SIGCHLD): [NID 04165] [c5-2c2s1n1] [Tue Jul 29 23:30:08 2014] PE RANK 6 exit signal Alarm clock
_pmiu_daemon(SIGCHLD): [NID 04166] [c5-2c2s1n2] [Tue Jul 29 23:30:08 2014] PE RANK 2 exit signal Bus error
[NID 04166] 2014-07-29 23:30:08 Apid 6485189: initiated application termination
[NID 04165] 2014-07-29 23:30:08 Apid 6485189: Error detected during page fault processing.  Process terminated via bus error.
[NID 04164] 2014-07-29 23:30:08 Apid 6485189: Error detected during page fault processing.  Process terminated via bus error.
[NID 04166] 2014-07-29 23:30:08 Apid 6485189: Error detected during page fault processing.  Process terminated via bus error.
UPC Runtime error: Client issued more requests than queue slots, should call waitsync : 8192 8192 

UPC Runtime error: Client issued more requests than queue slots, should call waitsync : 8192 8192 

NOTICE: Before reporting bugs, run with GASNET_BACKTRACE=1 in the environment to generate a backtrace. 
NOTICE: Before reporting bugs, run with GASNET_BACKTRACE=1 in the environment to generate a backtrace. 
UPC Runtime error: Client issued more requests than queue slots, should call waitsync : 8192 8192 

UPC Runtime error: Client issued more requests than queue slots, should call waitsync : 8192 8192 

NOTICE: Before reporting bugs, run with GASNET_BACKTRACE=1 in the environment to generate a backtrace. 
NOTICE: Before reporting bugs, run with GASNET_BACKTRACE=1 in the environment to generate a backtrace. 
*** Caught a fatal signal: SIGBUS(7) on node 15/24
NOTICE: Before reporting bugs, run with GASNET_BACKTRACE=1 in the environment to generate a backtrace. 
*** Caught a fatal signal: SIGBUS(7) on node 13/24
*** Caught a fatal signal: SIGBUS(7) on node 14/24
NOTICE: Before reporting bugs, run with GASNET_BACKTRACE=1 in the environment to generate a backtrace. 
NOTICE: Before reporting bugs, run with GASNET_BACKTRACE=1 in the environment to generate a backtrace. 
*** Caught a fatal signal: SIGBUS(7) on node 17/24
NOTICE: Before reporting bugs, run with GASNET_BACKTRACE=1 in the environment to generate a backtrace. 
*** Caught a fatal signal: SIGBUS(7) on node 16/24
NOTICE: Before reporting bugs, run with GASNET_BACKTRACE=1 in the environment to generate a backtrace. 
*** Caught a fatal signal: SIGBUS(7) on node 11/24
NOTICE: Before reporting bugs, run with GASNET_BACKTRACE=1 in the environment to generate a backtrace. 
*** Caught a fatal signal: SIGBUS(7) on node 10/24
NOTICE: Before reporting bugs, run with GASNET_BACKTRACE=1 in the environment to generate a backtrace. 
*** Caught a fatal signal: SIGBUS(7) on node 8/24
*** Caught a fatal signal: SIGBUS(7) on node 7/24
NOTICE: Before reporting bugs, run with GASNET_BACKTRACE=1 in the environment to generate a backtrace. 
NOTICE: Before reporting bugs, run with GASNET_BACKTRACE=1 in the environment to generate a backtrace. 
*** Caught a fatal signal: SIGBUS(7) on node 1/24
*** Caught a fatal signal: SIGBUS(7) on node 2/24
NOTICE: Before reporting bugs, run with GASNET_BACKTRACE=1 in the environment to generate a backtrace. 
NOTICE: Before reporting bugs, run with GASNET_BACKTRACE=1 in the environment to generate a backtrace. 
_pmiu_daemon(SIGCHLD): [NID 00628] [c3-0c0s13n0] [Tue Jul 29 23:32:19 2014] PE RANK 20 exit signal Alarm clock
_pmiu_daemon(SIGCHLD): [NID 04166] [c5-2c2s1n2] [Tue Jul 29 23:32:19 2014] PE RANK 0 exit signal Alarm clock
_pmiu_daemon(SIGCHLD): [NID 04164] [c5-2c2s1n0] [Tue Jul 29 23:32:19 2014] PE RANK 12 exit signal Alarm clock
[NID 04166] 2014-07-29 23:32:19 Apid 6485245: initiated application termination
_pmiu_daemon(SIGCHLD): [NID 04165] [c5-2c2s1n1] [Tue Jul 29 23:32:19 2014] PE RANK 6 exit signal Alarm clock
[NID 04165] 2014-07-29 23:32:19 Apid 6485245: Error detected during page fault processing.  Process terminated via bus error.
[NID 04164] 2014-07-29 23:32:19 Apid 6485245: Error detected during page fault processing.  Process terminated via bus error.
[NID 04166] 2014-07-29 23:32:20 Apid 6485245: Error detected during page fault processing.  Process terminated via bus error.
UPC Runtime error: Client issued more requests than queue slots, should call waitsync : 8192 8192 

NOTICE: Before reporting bugs, run with GASNET_BACKTRACE=1 in the environment to generate a backtrace. 
UPC Runtime error: Client issued more requests than queue slots, should call waitsync : 8192 8192 

UPC Runtime error: Client issued more requests than queue slots, should call waitsync : 8192 8192 

NOTICE: Before reporting bugs, run with GASNET_BACKTRACE=1 in the environment to generate a backtrace. 
NOTICE: Before reporting bugs, run with GASNET_BACKTRACE=1 in the environment to generate a backtrace. 
UPC Runtime error: Client issued more requests than queue slots, should call waitsync : 8192 8192 

NOTICE: Before reporting bugs, run with GASNET_BACKTRACE=1 in the environment to generate a backtrace. 
*** Caught a fatal signal: SIGBUS(7) on node 15/24
NOTICE: Before reporting bugs, run with GASNET_BACKTRACE=1 in the environment to generate a backtrace. 
*** Caught a fatal signal: SIGBUS(7) on node 10/24
*** Caught a fatal signal: SIGBUS(7) on node 11/24
NOTICE: Before reporting bugs, run with GASNET_BACKTRACE=1 in the environment to generate a backtrace. 
NOTICE: Before reporting bugs, run with GASNET_BACKTRACE=1 in the environment to generate a backtrace. 
*** Caught a fatal signal: SIGBUS(7) on node 13/24
*** Caught a fatal signal: SIGBUS(7) on node 14/24
NOTICE: Before reporting bugs, run with GASNET_BACKTRACE=1 in the environment to generate a backtrace. 
NOTICE: Before reporting bugs, run with GASNET_BACKTRACE=1 in the environment to generate a backtrace. 
*** Caught a fatal signal: SIGBUS(7) on node 16/24
*** Caught a fatal signal: SIGBUS(7) on node 17/24
NOTICE: Before reporting bugs, run with GASNET_BACKTRACE=1 in the environment to generate a backtrace. 
NOTICE: Before reporting bugs, run with GASNET_BACKTRACE=1 in the environment to generate a backtrace. 
*** Caught a fatal signal: SIGBUS(7) on node 22/24
*** Caught a fatal signal: SIGBUS(7) on node 23/24
NOTICE: Before reporting bugs, run with GASNET_BACKTRACE=1 in the environment to generate a backtrace. 
NOTICE: Before reporting bugs, run with GASNET_BACKTRACE=1 in the environment to generate a backtrace. 
_pmiu_daemon(SIGCHLD): [NID 04165] [c5-2c2s1n1] [Tue Jul 29 23:32:43 2014] PE RANK 7 exit signal Alarm clock
_pmiu_daemon(SIGCHLD): [NID 04166] [c5-2c2s1n2] [Tue Jul 29 23:32:43 2014] PE RANK 1 exit signal Alarm clock
_pmiu_daemon(SIGCHLD): [NID 04164] [c5-2c2s1n0] [Tue Jul 29 23:32:43 2014] PE RANK 12 exit signal Alarm clock
[NID 04166] 2014-07-29 23:32:43 Apid 6485258: initiated application termination
[NID 04164] 2014-07-29 23:32:43 Apid 6485258: Error detected during page fault processing.  Process terminated via bus error.
[NID 04165] 2014-07-29 23:32:43 Apid 6485258: Error detected during page fault processing.  Process terminated via bus error.
[NID 00628] 2014-07-29 23:32:43 Apid 6485258: Error detected during page fault processing.  Process terminated via bus error.
UPC Runtime error: Client issued more requests than queue slots, should call waitsync : 8192 8192 

NOTICE: Before reporting bugs, run with GASNET_BACKTRACE=1 in the environment to generate a backtrace. 
UPC Runtime error: Client issued more requests than queue slots, should call waitsync : 8192 8192 

UPC Runtime error: Client issued more requests than queue slots, should call waitsync : 8192 8192 

NOTICE: Before reporting bugs, run with GASNET_BACKTRACE=1 in the environment to generate a backtrace. 
NOTICE: Before reporting bugs, run with GASNET_BACKTRACE=1 in the environment to generate a backtrace. 
*** Caught a fatal signal: SIGBUS(7) on node 17/24
*** Caught a fatal signal: SIGBUS(7) on node 16/24
NOTICE: Before reporting bugs, run with GASNET_BACKTRACE=1 in the environment to generate a backtrace. 
NOTICE: Before reporting bugs, run with GASNET_BACKTRACE=1 in the environment to generate a backtrace. 
*** Caught a fatal signal: SIGBUS(7) on node 3/24
NOTICE: Before reporting bugs, run with GASNET_BACKTRACE=1 in the environment to generate a backtrace. 
*** Caught a fatal signal: SIGBUS(7) on node 9/24
NOTICE: Before reporting bugs, run with GASNET_BACKTRACE=1 in the environment to generate a backtrace. 
*** Caught a fatal signal: SIGBUS(7) on node 7/24
*** Caught a fatal signal: SIGBUS(7) on node 8/24
NOTICE: Before reporting bugs, run with GASNET_BACKTRACE=1 in the environment to generate a backtrace. 
NOTICE: Before reporting bugs, run with GASNET_BACKTRACE=1 in the environment to generate a backtrace. 
*** Caught a fatal signal: SIGBUS(7) on node 10/24
*** Caught a fatal signal: SIGBUS(7) on node 11/24
NOTICE: Before reporting bugs, run with GASNET_BACKTRACE=1 in the environment to generate a backtrace. 
NOTICE: Before reporting bugs, run with GASNET_BACKTRACE=1 in the environment to generate a backtrace. 
*** Caught a fatal signal: SIGBUS(7) on node 1/24
*** Caught a fatal signal: SIGBUS(7) on node 2/24
NOTICE: Before reporting bugs, run with GASNET_BACKTRACE=1 in the environment to generate a backtrace. 
NOTICE: Before reporting bugs, run with GASNET_BACKTRACE=1 in the environment to generate a backtrace. 
*** Caught a fatal signal: SIGBUS(7) on node 5/24
NOTICE: Before reporting bugs, run with GASNET_BACKTRACE=1 in the environment to generate a backtrace. 
*** Caught a fatal signal: SIGBUS(7) on node 4/24
NOTICE: Before reporting bugs, run with GASNET_BACKTRACE=1 in the environment to generate a backtrace. 
*** Caught a fatal signal: SIGBUS(7) on node 22/24
*** Caught a fatal signal: SIGBUS(7) on node 20/24
*** Caught a fatal signal: SIGBUS(7) on node 19/24
NOTICE: Before reporting bugs, run with GASNET_BACKTRACE=1 in the environment to generate a backtrace. 
NOTICE: Before reporting bugs, run with GASNET_BACKTRACE=1 in the environment to generate a backtrace. 
_pmiu_daemon(SIGCHLD): [NID 04166] [c5-2c2s1n2] [Tue Jul 29 23:37:12 2014] PE RANK 3 exit signal Bus error
_pmiu_daemon(SIGCHLD): [NID 04164] [c5-2c2s1n0] [Tue Jul 29 23:37:12 2014] PE RANK 13 exit signal Alarm clock
[NID 04166] 2014-07-29 23:37:12 Apid 6485362: initiated application termination
[NID 04165] 2014-07-29 23:37:12 Apid 6485362: Error detected during page fault processing.  Process terminated via bus error.
[NID 00628] 2014-07-29 23:37:12 Apid 6485362: Error detected during page fault processing.  Process terminated via bus error.
[NID 04164] 2014-07-29 23:37:12 Apid 6485362: Error detected during page fault processing.  Process terminated via bus error.
[NID 04166] 2014-07-29 23:37:12 Apid 6485362: Error detected during page fault processing.  Process terminated via bus error.
UPC Runtime error: Client issued more requests than queue slots, should call waitsync : 8192 8192 

NOTICE: Before reporting bugs, run with GASNET_BACKTRACE=1 in the environment to generate a backtrace. 
*** Caught a fatal signal: SIGBUS(7) on node 4/24
*** Caught a fatal signal: SIGBUS(7) on node 5/24
NOTICE: Before reporting bugs, run with GASNET_BACKTRACE=1 in the environment to generate a backtrace. 
NOTICE: Before reporting bugs, run with GASNET_BACKTRACE=1 in the environment to generate a backtrace. 
*** Caught a fatal signal: SIGBUS(7) on node 23/24
*** Caught a fatal signal: SIGBUS(7) on node 22/24
NOTICE: Before reporting bugs, run with GASNET_BACKTRACE=1 in the environment to generate a backtrace. 
NOTICE: Before reporting bugs, run with GASNET_BACKTRACE=1 in the environment to generate a backtrace. 
_pmiu_daemon(SIGCHLD): [NID 04166] [c5-2c2s1n2] [Tue Jul 29 23:37:35 2014] PE RANK 4 exit signal Bus error
_pmiu_daemon(SIGCHLD): [NID 00628] [c3-0c0s13n0] [Tue Jul 29 23:37:35 2014] PE RANK 19 exit signal Alarm clock
[NID 04166] 2014-07-29 23:37:35 Apid 6485372: initiated application termination
[NID 00628] 2014-07-29 23:37:36 Apid 6485372: Error detected during page fault processing.  Process terminated via bus error.
[NID 04166] 2014-07-29 23:37:36 Apid 6485372: Error detected during page fault processing.  Process terminated via bus error.
UPC Runtime error: Client issued more requests than queue slots, should call waitsync : 8192 8192 

NOTICE: Before reporting bugs, run with GASNET_BACKTRACE=1 in the environment to generate a backtrace. 
*** Caught a fatal signal: SIGBUS(7) on node 15/24
NOTICE: Before reporting bugs, run with GASNET_BACKTRACE=1 in the environment to generate a backtrace. 
*** Caught a fatal signal: SIGBUS(7) on node 14/24
*** Caught a fatal signal: SIGBUS(7) on node 13/24
NOTICE: Before reporting bugs, run with GASNET_BACKTRACE=1 in the environment to generate a backtrace. 
NOTICE: Before reporting bugs, run with GASNET_BACKTRACE=1 in the environment to generate a backtrace. 
*** Caught a fatal signal: SIGBUS(7) on node 16/24
*** Caught a fatal signal: SIGBUS(7) on node 17/24
NOTICE: Before reporting bugs, run with GASNET_BACKTRACE=1 in the environment to generate a backtrace. 
NOTICE: Before reporting bugs, run with GASNET_BACKTRACE=1 in the environment to generate a backtrace. 
*** Caught a fatal signal: SIGBUS(7) on node 21/24
NOTICE: Before reporting bugs, run with GASNET_BACKTRACE=1 in the environment to generate a backtrace. 
*** Caught a fatal signal: SIGBUS(7) on node 20/24
*** Caught a fatal signal: SIGBUS(7) on node 19/24
NOTICE: Before reporting bugs, run with GASNET_BACKTRACE=1 in the environment to generate a backtrace. 
NOTICE: Before reporting bugs, run with GASNET_BACKTRACE=1 in the environment to generate a backtrace. 
*** Caught a fatal signal: SIGBUS(7) on node 23/24
*** Caught a fatal signal: SIGBUS(7) on node 22/24
NOTICE: Before reporting bugs, run with GASNET_BACKTRACE=1 in the environment to generate a backtrace. 
NOTICE: Before reporting bugs, run with GASNET_BACKTRACE=1 in the environment to generate a backtrace. 
_pmiu_daemon(SIGCHLD): [NID 04165] [c5-2c2s1n1] [Tue Jul 29 23:39:53 2014] PE RANK 10 exit signal Alarm clock
_pmiu_daemon(SIGCHLD): [NID 04164] [c5-2c2s1n0] [Tue Jul 29 23:39:53 2014] PE RANK 12 exit signal Alarm clock
_pmiu_daemon(SIGCHLD): [NID 00628] [c3-0c0s13n0] [Tue Jul 29 23:39:53 2014] PE RANK 18 exit signal Alarm clock
[NID 04164] 2014-07-29 23:39:53 Apid 6485432: initiated application termination
[NID 04164] 2014-07-29 23:39:54 Apid 6485432: Error detected during page fault processing.  Process terminated via bus error.
[NID 00628] 2014-07-29 23:39:54 Apid 6485432: Error detected during page fault processing.  Process terminated via bus error.
UPC Runtime error: Client issued more requests than queue slots, should call waitsync : 8192 8192 

NOTICE: Before reporting bugs, run with GASNET_BACKTRACE=1 in the environment to generate a backtrace. 
*** Caught a fatal signal: SIGBUS(7) on node 17/24
*** Caught a fatal signal: SIGBUS(7) on node 16/24
NOTICE: Before reporting bugs, run with GASNET_BACKTRACE=1 in the environment to generate a backtrace. 
NOTICE: Before reporting bugs, run with GASNET_BACKTRACE=1 in the environment to generate a backtrace. 
*** Caught a fatal signal: SIGBUS(7) on node 10/24
*** Caught a fatal signal: SIGBUS(7) on node 11/24
NOTICE: Before reporting bugs, run with GASNET_BACKTRACE=1 in the environment to generate a backtrace. 
NOTICE: Before reporting bugs, run with GASNET_BACKTRACE=1 in the environment to generate a backtrace. 
_pmiu_daemon(SIGCHLD): [NID 04165] [c5-2c2s1n1] [Tue Jul 29 23:40:17 2014] PE RANK 7 exit signal Alarm clock
_pmiu_daemon(SIGCHLD): [NID 04164] [c5-2c2s1n0] [Tue Jul 29 23:40:17 2014] PE RANK 15 exit signal Alarm clock
[NID 04165] 2014-07-29 23:40:17 Apid 6485438: initiated application termination
[NID 04165] 2014-07-29 23:40:17 Apid 6485438: Error detected during page fault processing.  Process terminated via bus error.
[NID 04164] 2014-07-29 23:40:17 Apid 6485438: Error detected during page fault processing.  Process terminated via bus error.
UPC Runtime error: Client issued more requests than queue slots, should call waitsync : 8192 8192 

NOTICE: Before reporting bugs, run with GASNET_BACKTRACE=1 in the environment to generate a backtrace. 
UPC Runtime error: Client issued more requests than queue slots, should call waitsync : 8192 8192 

NOTICE: Before reporting bugs, run with GASNET_BACKTRACE=1 in the environment to generate a backtrace. 
*** Caught a fatal signal: SIGBUS(7) on node 15/24
NOTICE: Before reporting bugs, run with GASNET_BACKTRACE=1 in the environment to generate a backtrace. 
*** Caught a fatal signal: SIGBUS(7) on node 9/24
NOTICE: Before reporting bugs, run with GASNET_BACKTRACE=1 in the environment to generate a backtrace. 
*** Caught a fatal signal: SIGBUS(7) on node 13/24
*** Caught a fatal signal: SIGBUS(7) on node 14/24
NOTICE: Before reporting bugs, run with GASNET_BACKTRACE=1 in the environment to generate a backtrace. 
NOTICE: Before reporting bugs, run with GASNET_BACKTRACE=1 in the environment to generate a backtrace. 
*** Caught a fatal signal: SIGBUS(7) on node 16/24
*** Caught a fatal signal: SIGBUS(7) on node 17/24
NOTICE: Before reporting bugs, run with GASNET_BACKTRACE=1 in the environment to generate a backtrace. 
NOTICE: Before reporting bugs, run with GASNET_BACKTRACE=1 in the environment to generate a backtrace. 
*** Caught a fatal signal: SIGBUS(7) on node 8/24
*** Caught a fatal signal: SIGBUS(7) on node 7/24
NOTICE: Before reporting bugs, run with GASNET_BACKTRACE=1 in the environment to generate a backtrace. 
NOTICE: Before reporting bugs, run with GASNET_BACKTRACE=1 in the environment to generate a backtrace. 
*** Caught a fatal signal: SIGBUS(7) on node 10/24
*** Caught a fatal signal: SIGBUS(7) on node 11/24
NOTICE: Before reporting bugs, run with GASNET_BACKTRACE=1 in the environment to generate a backtrace. 
NOTICE: Before reporting bugs, run with GASNET_BACKTRACE=1 in the environment to generate a backtrace. 
*** Caught a fatal signal: SIGBUS(7) on node 22/24
*** Caught a fatal signal: SIGBUS(7) on node 23/24
NOTICE: Before reporting bugs, run with GASNET_BACKTRACE=1 in the environment to generate a backtrace. 
NOTICE: Before reporting bugs, run with GASNET_BACKTRACE=1 in the environment to generate a backtrace. 
_pmiu_daemon(SIGCHLD): [NID 04165] [c5-2c2s1n1] [Tue Jul 29 23:42:35 2014] PE RANK 6 exit signal Alarm clock
_pmiu_daemon(SIGCHLD): [NID 00628] [c3-0c0s13n0] [Tue Jul 29 23:42:35 2014] PE RANK 19 exit signal Alarm clock
_pmiu_daemon(SIGCHLD): [NID 04166] [c5-2c2s1n2] [Tue Jul 29 23:42:35 2014] PE RANK 4 exit signal Alarm clock
[NID 04165] 2014-07-29 23:42:35 Apid 6485496: initiated application termination
_pmiu_daemon(SIGCHLD): [NID 04164] [c5-2c2s1n0] [Tue Jul 29 23:42:35 2014] PE RANK 12 exit signal Alarm clock
[NID 04165] 2014-07-29 23:42:35 Apid 6485496: Error detected during page fault processing.  Process terminated via bus error.
[NID 04164] 2014-07-29 23:42:35 Apid 6485496: Error detected during page fault processing.  Process terminated via bus error.
[NID 00628] 2014-07-29 23:42:36 Apid 6485496: Error detected during page fault processing.  Process terminated via bus error.
UPC Runtime error: Client issued more requests than queue slots, should call waitsync : 8192 8192 

NOTICE: Before reporting bugs, run with GASNET_BACKTRACE=1 in the environment to generate a backtrace. 
UPC Runtime error: Client issued more requests than queue slots, should call waitsync : 8192 8192 

NOTICE: Before reporting bugs, run with GASNET_BACKTRACE=1 in the environment to generate a backtrace. 
UPC Runtime error: Client issued more requests than queue slots, should call waitsync : 8192 8192 

NOTICE: Before reporting bugs, run with GASNET_BACKTRACE=1 in the environment to generate a backtrace. 
UPC Runtime error: Client issued more requests than queue slots, should call waitsync : 8192 8192 

UPC Runtime error: Client issued more requests than queue slots, should call waitsync : 8192 8192 

NOTICE: Before reporting bugs, run with GASNET_BACKTRACE=1 in the environment to generate a backtrace. 
UPC Runtime error: Client issued more requests than queue slots, should call waitsync : 8192 8192 

NOTICE: Before reporting bugs, run with GASNET_BACKTRACE=1 in the environment to generate a backtrace. 
UPC Runtime error: Client issued more requests than queue slots, should call waitsync : 8192 8192 

NOTICE: Before reporting bugs, run with GASNET_BACKTRACE=1 in the environment to generate a backtrace. 
NOTICE: Before reporting bugs, run with GASNET_BACKTRACE=1 in the environment to generate a backtrace. 
UPC Runtime error: Client issued more requests than queue slots, should call waitsync : 8192 8192 

UPC Runtime error: Client issued more requests than queue slots, should call waitsync : 8192 8192 

NOTICE: Before reporting bugs, run with GASNET_BACKTRACE=1 in the environment to generate a backtrace. 
NOTICE: Before reporting bugs, run with GASNET_BACKTRACE=1 in the environment to generate a backtrace. 
UPC Runtime error: Client issued more requests than queue slots, should call waitsync : 8192 8192 

NOTICE: Before reporting bugs, run with GASNET_BACKTRACE=1 in the environment to generate a backtrace. 
*** Caught a fatal signal: SIGBUS(7) on node 7/32
NOTICE: Before reporting bugs, run with GASNET_BACKTRACE=1 in the environment to generate a backtrace. 
*** Caught a fatal signal: SIGBUS(7) on node 5/32
*** Caught a fatal signal: SIGBUS(7) on node 6/32
NOTICE: Before reporting bugs, run with GASNET_BACKTRACE=1 in the environment to generate a backtrace. 
NOTICE: Before reporting bugs, run with GASNET_BACKTRACE=1 in the environment to generate a backtrace. 
_pmiu_daemon(SIGCHLD): [NID 04164] [c5-2c2s1n0] [Tue Jul 29 23:45:09 2014] PE RANK 19 exit signal Alarm clock
_pmiu_daemon(SIGCHLD): [NID 00628] [c3-0c0s13n0] [Tue Jul 29 23:45:09 2014] PE RANK 25 exit signal Alarm clock
_pmiu_daemon(SIGCHLD): [NID 04165] [c5-2c2s1n1] [Tue Jul 29 23:45:09 2014] PE RANK 9 exit signal Alarm clock
_pmiu_daemon(SIGCHLD): [NID 04166] [c5-2c2s1n2] [Tue Jul 29 23:45:09 2014] PE RANK 3 exit signal Alarm clock
[NID 04164] 2014-07-29 23:45:09 Apid 6485561: initiated application termination
[NID 04166] 2014-07-29 23:45:09 Apid 6485561: Error detected during page fault processing.  Process terminated via bus error.
UPC Runtime error: Client issued more requests than queue slots, should call waitsync : 8192 8192 

NOTICE: Before reporting bugs, run with GASNET_BACKTRACE=1 in the environment to generate a backtrace. 
UPC Runtime error: Client issued more requests than queue slots, should call waitsync : 8192 8192 

UPC Runtime error: Client issued more requests than queue slots, should call waitsync : 8192 8192 

NOTICE: Before reporting bugs, run with GASNET_BACKTRACE=1 in the environment to generate a backtrace. 
NOTICE: Before reporting bugs, run with GASNET_BACKTRACE=1 in the environment to generate a backtrace. 
UPC Runtime error: Client issued more requests than queue slots, should call waitsync : 8192 8192 

UPC Runtime error: Client issued more requests than queue slots, should call waitsync : 8192 8192 

NOTICE: Before reporting bugs, run with GASNET_BACKTRACE=1 in the environment to generate a backtrace. 
NOTICE: Before reporting bugs, run with GASNET_BACKTRACE=1 in the environment to generate a backtrace. 
UPC Runtime error: Client issued more requests than queue slots, should call waitsync : 8192 8192 

NOTICE: Before reporting bugs, run with GASNET_BACKTRACE=1 in the environment to generate a backtrace. 
_pmiu_daemon(SIGCHLD): [NID 04165] [c5-2c2s1n1] [Tue Jul 29 23:45:36 2014] PE RANK 9 exit signal Alarm clock
_pmiu_daemon(SIGCHLD): [NID 04166] [c5-2c2s1n2] [Tue Jul 29 23:45:36 2014] PE RANK 1 exit signal Alarm clock
_pmiu_daemon(SIGCHLD): [NID 00628] [c3-0c0s13n0] [Tue Jul 29 23:45:36 2014] PE RANK 25 exit signal Alarm clock
_pmiu_daemon(SIGCHLD): [NID 04164] [c5-2c2s1n0] [Tue Jul 29 23:45:36 2014] PE RANK 17 exit signal Alarm clock
[NID 04165] 2014-07-29 23:45:36 Apid 6485570: initiated application termination
UPC Runtime error: Client issued more requests than queue slots, should call waitsync : 8192 8192 

UPC Runtime error: Client issued more requests than queue slots, should call waitsync : 8192 8192 

NOTICE: Before reporting bugs, run with GASNET_BACKTRACE=1 in the environment to generate a backtrace. 
NOTICE: Before reporting bugs, run with GASNET_BACKTRACE=1 in the environment to generate a backtrace. 
UPC Runtime error: Client issued more requests than queue slots, should call waitsync : 8192 8192 

NOTICE: Before reporting bugs, run with GASNET_BACKTRACE=1 in the environment to generate a backtrace. 
UPC Runtime error: Client issued more requests than queue slots, should call waitsync : 8192 8192 

UPC Runtime error: Client issued more requests than queue slots, should call waitsync : 8192 8192 

NOTICE: Before reporting bugs, run with GASNET_BACKTRACE=1 in the environment to generate a backtrace. 
NOTICE: Before reporting bugs, run with GASNET_BACKTRACE=1 in the environment to generate a backtrace. 
UPC Runtime error: Client issued more requests than queue slots, should call waitsync : 8192 8192 

NOTICE: Before reporting bugs, run with GASNET_BACKTRACE=1 in the environment to generate a backtrace. 
UPC Runtime error: Client issued more requests than queue slots, should call waitsync : 8192 8192 

NOTICE: Before reporting bugs, run with GASNET_BACKTRACE=1 in the environment to generate a backtrace. 
UPC Runtime error: Client issued more requests than queue slots, should call waitsync : 8192 8192 

UPC Runtime error: Client issued more requests than queue slots, should call waitsync : 8192 8192 

NOTICE: Before reporting bugs, run with GASNET_BACKTRACE=1 in the environment to generate a backtrace. 
NOTICE: Before reporting bugs, run with GASNET_BACKTRACE=1 in the environment to generate a backtrace. 
*** Caught a fatal signal: SIGBUS(7) on node 19/32
*** Caught a fatal signal: SIGBUS(7) on node 18/32
*** Caught a fatal signal: SIGBUS(7) on node 17/32
NOTICE: Before reporting bugs, run with GASNET_BACKTRACE=1 in the environment to generate a backtrace. 
NOTICE: Before reporting bugs, run with GASNET_BACKTRACE=1 in the environment to generate a backtrace. 
NOTICE: Before reporting bugs, run with GASNET_BACKTRACE=1 in the environment to generate a backtrace. 
_pmiu_daemon(SIGCHLD): [NID 04165] [c5-2c2s1n1] [Tue Jul 29 23:48:03 2014] PE RANK 11 exit signal Alarm clock
_pmiu_daemon(SIGCHLD): [NID 04166] [c5-2c2s1n2] [Tue Jul 29 23:48:03 2014] PE RANK 1 exit signal Alarm clock
_pmiu_daemon(SIGCHLD): [NID 00628] [c3-0c0s13n0] [Tue Jul 29 23:48:03 2014] PE RANK 27 exit signal Alarm clock
_pmiu_daemon(SIGCHLD): [NID 04164] [c5-2c2s1n0] [Tue Jul 29 23:48:03 2014] PE RANK 16 exit signal Alarm clock
[NID 04164] 2014-07-29 23:48:03 Apid 6485610: initiated application termination
[NID 04164] 2014-07-29 23:48:04 Apid 6485610: Error detected during page fault processing.  Process terminated via bus error.
UPC Runtime error: Client issued more requests than queue slots, should call waitsync : 8192 8192 

UPC Runtime error: Client issued more requests than queue slots, should call waitsync : 8192 8192 

NOTICE: Before reporting bugs, run with GASNET_BACKTRACE=1 in the environment to generate a backtrace. 
NOTICE: Before reporting bugs, run with GASNET_BACKTRACE=1 in the environment to generate a backtrace. 
_pmiu_daemon(SIGCHLD): [NID 04166] [c5-2c2s1n2] [Tue Jul 29 23:48:30 2014] PE RANK 5 exit signal Alarm clock
[NID 04166] 2014-07-29 23:48:31 Apid 6485622: initiated application termination
UPC Runtime error: Client issued more requests than queue slots, should call waitsync : 8192 8192 

NOTICE: Before reporting bugs, run with GASNET_BACKTRACE=1 in the environment to generate a backtrace. 
UPC Runtime error: Client issued more requests than queue slots, should call waitsync : 8192 8192 

NOTICE: Before reporting bugs, run with GASNET_BACKTRACE=1 in the environment to generate a backtrace. 
UPC Runtime error: Client issued more requests than queue slots, should call waitsync : 8192 8192 

NOTICE: Before reporting bugs, run with GASNET_BACKTRACE=1 in the environment to generate a backtrace. 
UPC Runtime error: Client issued more requests than queue slots, should call waitsync : 8192 8192 

NOTICE: Before reporting bugs, run with GASNET_BACKTRACE=1 in the environment to generate a backtrace. 
UPC Runtime error: Client issued more requests than queue slots, should call waitsync : 8192 8192 

UPC Runtime error: Client issued more requests than queue slots, should call waitsync : 8192 8192 

NOTICE: Before reporting bugs, run with GASNET_BACKTRACE=1 in the environment to generate a backtrace. 
NOTICE: Before reporting bugs, run with GASNET_BACKTRACE=1 in the environment to generate a backtrace. 
UPC Runtime error: Client issued more requests than queue slots, should call waitsync : 8192 8192 

UPC Runtime error: Client issued more requests than queue slots, should call waitsync : 8192 8192 

NOTICE: Before reporting bugs, run with GASNET_BACKTRACE=1 in the environment to generate a backtrace. 
NOTICE: Before reporting bugs, run with GASNET_BACKTRACE=1 in the environment to generate a backtrace. 
*** Caught a fatal signal: SIGBUS(7) on node 5/32
*** Caught a fatal signal: SIGBUS(7) on node 6/32
*** Caught a fatal signal: SIGBUS(7) on node 7/32
NOTICE: Before reporting bugs, run with GASNET_BACKTRACE=1 in the environment to generate a backtrace. 
NOTICE: Before reporting bugs, run with GASNET_BACKTRACE=1 in the environment to generate a backtrace. 
NOTICE: Before reporting bugs, run with GASNET_BACKTRACE=1 in the environment to generate a backtrace. 
*** Caught a fatal signal: SIGBUS(7) on node 9/32
*** Caught a fatal signal: SIGBUS(7) on node 11/32
*** Caught a fatal signal: SIGBUS(7) on node 10/32
NOTICE: Before reporting bugs, run with GASNET_BACKTRACE=1 in the environment to generate a backtrace. 
NOTICE: Before reporting bugs, run with GASNET_BACKTRACE=1 in the environment to generate a backtrace. 
NOTICE: Before reporting bugs, run with GASNET_BACKTRACE=1 in the environment to generate a backtrace. 
*** Caught a fatal signal: SIGBUS(7) on node 30/32
*** Caught a fatal signal: SIGBUS(7) on node 31/32
NOTICE: Before reporting bugs, run with GASNET_BACKTRACE=1 in the environment to generate a backtrace. 
*** Caught a fatal signal: SIGBUS(7) on node 29/32
NOTICE: Before reporting bugs, run with GASNET_BACKTRACE=1 in the environment to generate a backtrace. 
NOTICE: Before reporting bugs, run with GASNET_BACKTRACE=1 in the environment to generate a backtrace. 
_pmiu_daemon(SIGCHLD): [NID 04164] [c5-2c2s1n0] [Tue Jul 29 23:50:58 2014] PE RANK 17 exit signal Alarm clock
_pmiu_daemon(SIGCHLD): [NID 00628] [c3-0c0s13n0] [Tue Jul 29 23:50:58 2014] PE RANK 27 exit signal Alarm clock
_pmiu_daemon(SIGCHLD): [NID 04166] [c5-2c2s1n2] [Tue Jul 29 23:50:58 2014] PE RANK 1 exit signal Alarm clock
_pmiu_daemon(SIGCHLD): [NID 04165] [c5-2c2s1n1] [Tue Jul 29 23:50:58 2014] PE RANK 8 exit signal Alarm clock
[NID 04164] 2014-07-29 23:50:58 Apid 6485668: initiated application termination
[NID 00628] 2014-07-29 23:50:58 Apid 6485668: Error detected during page fault processing.  Process terminated via bus error.
[NID 04165] 2014-07-29 23:50:58 Apid 6485668: Error detected during page fault processing.  Process terminated via bus error.
[NID 04166] 2014-07-29 23:50:58 Apid 6485668: Error detected during page fault processing.  Process terminated via bus error.
UPC Runtime error: Client issued more requests than queue slots, should call waitsync : 8192 8192 

NOTICE: Before reporting bugs, run with GASNET_BACKTRACE=1 in the environment to generate a backtrace. 
UPC Runtime error: Client issued more requests than queue slots, should call waitsync : 8192 8192 

UPC Runtime error: Client issued more requests than queue slots, should call waitsync : 8192 8192 

NOTICE: Before reporting bugs, run with GASNET_BACKTRACE=1 in the environment to generate a backtrace. 
NOTICE: Before reporting bugs, run with GASNET_BACKTRACE=1 in the environment to generate a backtrace. 
UPC Runtime error: Client issued more requests than queue slots, should call waitsync : 8192 8192 

UPC Runtime error: Client issued more requests than queue slots, should call waitsync : 8192 8192 

NOTICE: Before reporting bugs, run with GASNET_BACKTRACE=1 in the environment to generate a backtrace. 
NOTICE: Before reporting bugs, run with GASNET_BACKTRACE=1 in the environment to generate a backtrace. 
UPC Runtime error: Client issued more requests than queue slots, should call waitsync : 8192 8192 

NOTICE: Before reporting bugs, run with GASNET_BACKTRACE=1 in the environment to generate a backtrace. 
UPC Runtime error: Client issued more requests than queue slots, should call waitsync : 8192 8192 

NOTICE: Before reporting bugs, run with GASNET_BACKTRACE=1 in the environment to generate a backtrace. 
_pmiu_daemon(SIGCHLD): [NID 04166] [c5-2c2s1n2] [Tue Jul 29 23:51:25 2014] PE RANK 5 exit signal Alarm clock
_pmiu_daemon(SIGCHLD): [NID 04165] [c5-2c2s1n1] [Tue Jul 29 23:51:25 2014] PE RANK 9 exit signal Alarm clock
[NID 04166] 2014-07-29 23:51:25 Apid 6485678: initiated application termination
*** Caught a fatal signal: SIGBUS(7) on node 31/32
NOTICE: Before reporting bugs, run with GASNET_BACKTRACE=1 in the environment to generate a backtrace. 
*** Caught a fatal signal: SIGBUS(7) on node 23/32
NOTICE: Before reporting bugs, run with GASNET_BACKTRACE=1 in the environment to generate a backtrace. 
[NID 04164] 2014-07-29 23:51:25 Apid 6485678: Error detected during page fault processing.  Process terminated via bus error.
[NID 00628] 2014-07-29 23:51:25 Apid 6485678: Error detected during page fault processing.  Process terminated via bus error.
UPC Runtime error: Client issued more requests than queue slots, should call waitsync : 8192 8192 

UPC Runtime error: Client issued more requests than queue slots, should call waitsync : 8192 8192 

NOTICE: Before reporting bugs, run with GASNET_BACKTRACE=1 in the environment to generate a backtrace. 
NOTICE: Before reporting bugs, run with GASNET_BACKTRACE=1 in the environment to generate a backtrace. 
UPC Runtime error: Client issued more requests than queue slots, should call waitsync : 8192 8192 

NOTICE: Before reporting bugs, run with GASNET_BACKTRACE=1 in the environment to generate a backtrace. 
UPC Runtime error: Client issued more requests than queue slots, should call waitsync : 8192 8192 

NOTICE: Before reporting bugs, run with GASNET_BACKTRACE=1 in the environment to generate a backtrace. 
UPC Runtime error: Client issued more requests than queue slots, should call waitsync : 8192 8192 

UPC Runtime error: Client issued more requests than queue slots, should call waitsync : 8192 8192 

NOTICE: Before reporting bugs, run with GASNET_BACKTRACE=1 in the environment to generate a backtrace. 
NOTICE: Before reporting bugs, run with GASNET_BACKTRACE=1 in the environment to generate a backtrace. 
UPC Runtime error: Client issued more requests than queue slots, should call waitsync : 8192 8192 

UPC Runtime error: Client issued more requests than queue slots, should call waitsync : 8192 8192 

NOTICE: Before reporting bugs, run with GASNET_BACKTRACE=1 in the environment to generate a backtrace. 
NOTICE: Before reporting bugs, run with GASNET_BACKTRACE=1 in the environment to generate a backtrace. 
*** Caught a fatal signal: SIGBUS(7) on node 11/32
NOTICE: Before reporting bugs, run with GASNET_BACKTRACE=1 in the environment to generate a backtrace. 
*** Caught a fatal signal: SIGBUS(7) on node 10/32
*** Caught a fatal signal: SIGBUS(7) on node 9/32
NOTICE: Before reporting bugs, run with GASNET_BACKTRACE=1 in the environment to generate a backtrace. 
NOTICE: Before reporting bugs, run with GASNET_BACKTRACE=1 in the environment to generate a backtrace. 
_pmiu_daemon(SIGCHLD): [NID 00628] [c3-0c0s13n0] [Tue Jul 29 23:53:52 2014] PE RANK 27 exit signal Alarm clock
_pmiu_daemon(SIGCHLD): [NID 04166] [c5-2c2s1n2] [Tue Jul 29 23:53:52 2014] PE RANK 3 exit signal Alarm clock
_pmiu_daemon(SIGCHLD): [NID 04164] [c5-2c2s1n0] [Tue Jul 29 23:53:52 2014] PE RANK 23 exit signal Alarm clock
_pmiu_daemon(SIGCHLD): [NID 04165] [c5-2c2s1n1] [Tue Jul 29 23:53:52 2014] PE RANK 8 exit signal Alarm clock
[NID 00628] 2014-07-29 23:53:52 Apid 6485719: initiated application termination
[NID 04165] 2014-07-29 23:53:52 Apid 6485719: Error detected during page fault processing.  Process terminated via bus error.
UPC Runtime error: Client issued more requests than queue slots, should call waitsync : 8192 8192 

NOTICE: Before reporting bugs, run with GASNET_BACKTRACE=1 in the environment to generate a backtrace. 
UPC Runtime error: Client issued more requests than queue slots, should call waitsync : 8192 8192 

NOTICE: Before reporting bugs, run with GASNET_BACKTRACE=1 in the environment to generate a backtrace. 
UPC Runtime error: Client issued more requests than queue slots, should call waitsync : 8192 8192 

UPC Runtime error: Client issued more requests than queue slots, should call waitsync : 8192 8192 

NOTICE: Before reporting bugs, run with GASNET_BACKTRACE=1 in the environment to generate a backtrace. 
NOTICE: Before reporting bugs, run with GASNET_BACKTRACE=1 in the environment to generate a backtrace. 
UPC Runtime error: Client issued more requests than queue slots, should call waitsync : 8192 8192 

NOTICE: Before reporting bugs, run with GASNET_BACKTRACE=1 in the environment to generate a backtrace. 
UPC Runtime error: Client issued more requests than queue slots, should call waitsync : 8192 8192 

NOTICE: Before reporting bugs, run with GASNET_BACKTRACE=1 in the environment to generate a backtrace. 
_pmiu_daemon(SIGCHLD): [NID 04164] [c5-2c2s1n0] [Tue Jul 29 23:54:19 2014] PE RANK 17 exit signal Alarm clock
_pmiu_daemon(SIGCHLD): [NID 04165] [c5-2c2s1n1] [Tue Jul 29 23:54:19 2014] PE RANK 9 exit signal Alarm clock
_pmiu_daemon(SIGCHLD): [NID 00628] [c3-0c0s13n0] [Tue Jul 29 23:54:19 2014] PE RANK 25 exit signal Alarm clock
_pmiu_daemon(SIGCHLD): [NID 04166] [c5-2c2s1n2] [Tue Jul 29 23:54:19 2014] PE RANK 1 exit signal Alarm clock
[NID 04164] 2014-07-29 23:54:19 Apid 6485726: initiated application termination
UPC Runtime error: Client issued more requests than queue slots, should call waitsync : 8192 8192 

NOTICE: Before reporting bugs, run with GASNET_BACKTRACE=1 in the environment to generate a backtrace. 
UPC Runtime error: Client issued more requests than queue slots, should call waitsync : 8192 8192 

NOTICE: Before reporting bugs, run with GASNET_BACKTRACE=1 in the environment to generate a backtrace. 
UPC Runtime error: Client issued more requests than queue slots, should call waitsync : 8192 8192 

NOTICE: Before reporting bugs, run with GASNET_BACKTRACE=1 in the environment to generate a backtrace. 
*** Caught a fatal signal: SIGBUS(7) on node 18/32
*** Caught a fatal signal: SIGBUS(7) on node 17/32
*** Caught a fatal signal: SIGBUS(7) on node 19/32
NOTICE: Before reporting bugs, run with GASNET_BACKTRACE=1 in the environment to generate a backtrace. 
NOTICE: Before reporting bugs, run with GASNET_BACKTRACE=1 in the environment to generate a backtrace. 
NOTICE: Before reporting bugs, run with GASNET_BACKTRACE=1 in the environment to generate a backtrace. 
*** Caught a fatal signal: SIGBUS(7) on node 9/32
*** Caught a fatal signal: SIGBUS(7) on node 11/32
*** Caught a fatal signal: SIGBUS(7) on node 10/32
NOTICE: Before reporting bugs, run with GASNET_BACKTRACE=1 in the environment to generate a backtrace. 
NOTICE: Before reporting bugs, run with GASNET_BACKTRACE=1 in the environment to generate a backtrace. 
NOTICE: Before reporting bugs, run with GASNET_BACKTRACE=1 in the environment to generate a backtrace. 
*** Caught a fatal signal: SIGBUS(7) on node 13/32
*** Caught a fatal signal: SIGBUS(7) on node 14/32
NOTICE: Before reporting bugs, run with GASNET_BACKTRACE=1 in the environment to generate a backtrace. 
*** Caught a fatal signal: SIGBUS(7) on node 15/32
NOTICE: Before reporting bugs, run with GASNET_BACKTRACE=1 in the environment to generate a backtrace. 
NOTICE: Before reporting bugs, run with GASNET_BACKTRACE=1 in the environment to generate a backtrace. 
*** Caught a fatal signal: SIGBUS(7) on node 3/32
NOTICE: Before reporting bugs, run with GASNET_BACKTRACE=1 in the environment to generate a backtrace. 
*** Caught a fatal signal: SIGBUS(7) on node 1/32
*** Caught a fatal signal: SIGBUS(7) on node 2/32
NOTICE: Before reporting bugs, run with GASNET_BACKTRACE=1 in the environment to generate a backtrace. 
NOTICE: Before reporting bugs, run with GASNET_BACKTRACE=1 in the environment to generate a backtrace. 
*** Caught a fatal signal: SIGBUS(7) on node 29/32
NOTICE: Before reporting bugs, run with GASNET_BACKTRACE=1 in the environment to generate a backtrace. 
*** Caught a fatal signal: SIGBUS(7) on node 31/32
*** Caught a fatal signal: SIGBUS(7) on node 30/32
NOTICE: Before reporting bugs, run with GASNET_BACKTRACE=1 in the environment to generate a backtrace. 
NOTICE: Before reporting bugs, run with GASNET_BACKTRACE=1 in the environment to generate a backtrace. 
_pmiu_daemon(SIGCHLD): [NID 04166] [c5-2c2s1n2] [Tue Jul 29 23:59:19 2014] PE RANK 7 exit signal Alarm clock
_pmiu_daemon(SIGCHLD): [NID 04164] [c5-2c2s1n0] [Tue Jul 29 23:59:19 2014] PE RANK 16 exit signal Alarm clock
_pmiu_daemon(SIGCHLD): [NID 04165] [c5-2c2s1n1] [Tue Jul 29 23:59:19 2014] PE RANK 8 exit signal Alarm clock
[NID 04166] 2014-07-29 23:59:19 Apid 6485819: initiated application termination
[NID 04165] 2014-07-29 23:59:19 Apid 6485819: Error detected during page fault processing.  Process terminated via bus error.
[NID 00628] 2014-07-29 23:59:19 Apid 6485819: Error detected during page fault processing.  Process terminated via bus error.
[NID 04164] 2014-07-29 23:59:19 Apid 6485819: Error detected during page fault processing.  Process terminated via bus error.
[NID 04166] 2014-07-29 23:59:19 Apid 6485819: Error detected during page fault processing.  Process terminated via bus error.
UPC Runtime error: Client issued more requests than queue slots, should call waitsync : 8192 8192 

UPC Runtime error: Client issued more requests than queue slots, should call waitsync : 8192 8192 

NOTICE: Before reporting bugs, run with GASNET_BACKTRACE=1 in the environment to generate a backtrace. 
NOTICE: Before reporting bugs, run with GASNET_BACKTRACE=1 in the environment to generate a backtrace. 
UPC Runtime error: Client issued more requests than queue slots, should call waitsync : 8192 8192 

NOTICE: Before reporting bugs, run with GASNET_BACKTRACE=1 in the environment to generate a backtrace. 
_pmiu_daemon(SIGCHLD): [NID 04165] [c5-2c2s1n1] [Tue Jul 29 23:59:46 2014] PE RANK 13 exit signal Alarm clock
_pmiu_daemon(SIGCHLD): [NID 00628] [c3-0c0s13n0] [Tue Jul 29 23:59:46 2014] PE RANK 25 exit signal Alarm clock
[NID 04165] 2014-07-29 23:59:46 Apid 6485826: initiated application termination
UPC Runtime error: Client issued more requests than queue slots, should call waitsync : 8192 8192 

NOTICE: Before reporting bugs, run with GASNET_BACKTRACE=1 in the environment to generate a backtrace. 
UPC Runtime error: Client issued more requests than queue slots, should call waitsync : 8192 8192 

NOTICE: Before reporting bugs, run with GASNET_BACKTRACE=1 in the environment to generate a backtrace. 
*** Caught a fatal signal: SIGBUS(7) on node 6/32
*** Caught a fatal signal: SIGBUS(7) on node 7/32
*** Caught a fatal signal: SIGBUS(7) on node 5/32
NOTICE: Before reporting bugs, run with GASNET_BACKTRACE=1 in the environment to generate a backtrace. 
NOTICE: Before reporting bugs, run with GASNET_BACKTRACE=1 in the environment to generate a backtrace. 
NOTICE: Before reporting bugs, run with GASNET_BACKTRACE=1 in the environment to generate a backtrace. 
*** Caught a fatal signal: SIGBUS(7) on node 3/32
*** Caught a fatal signal: SIGBUS(7) on node 1/32
*** Caught a fatal signal: SIGBUS(7) on node 2/32
NOTICE: Before reporting bugs, run with GASNET_BACKTRACE=1 in the environment to generate a backtrace. 
NOTICE: Before reporting bugs, run with GASNET_BACKTRACE=1 in the environment to generate a backtrace. 
NOTICE: Before reporting bugs, run with GASNET_BACKTRACE=1 in the environment to generate a backtrace. 
*** Caught a fatal signal: SIGBUS(7) on node 19/32
*** Caught a fatal signal: SIGBUS(7) on node 17/32
*** Caught a fatal signal: SIGBUS(7) on node 18/32
NOTICE: Before reporting bugs, run with GASNET_BACKTRACE=1 in the environment to generate a backtrace. 
NOTICE: Before reporting bugs, run with GASNET_BACKTRACE=1 in the environment to generate a backtrace. 
NOTICE: Before reporting bugs, run with GASNET_BACKTRACE=1 in the environment to generate a backtrace. 
*** Caught a fatal signal: SIGBUS(7) on node 13/32
NOTICE: Before reporting bugs, run with GASNET_BACKTRACE=1 in the environment to generate a backtrace. 
*** Caught a fatal signal: SIGBUS(7) on node 10/32
NOTICE: Before reporting bugs, run with GASNET_BACKTRACE=1 in the environment to generate a backtrace. 
*** Caught a fatal signal: SIGBUS(7) on node 14/32
NOTICE: Before reporting bugs, run with GASNET_BACKTRACE=1 in the environment to generate a backtrace. 
*** Caught a fatal signal: SIGBUS(7) on node 11/32
*** Caught a fatal signal: SIGBUS(7) on node 9/32
NOTICE: Before reporting bugs, run with GASNET_BACKTRACE=1 in the environment to generate a backtrace. 
*** Caught a fatal signal: SIGBUS(7) on node 15/32
NOTICE: Before reporting bugs, run with GASNET_BACKTRACE=1 in the environment to generate a backtrace. 
NOTICE: Before reporting bugs, run with GASNET_BACKTRACE=1 in the environment to generate a backtrace. 
*** Caught a fatal signal: SIGBUS(7) on node 25/32
*** Caught a fatal signal: SIGBUS(7) on node 27/32
*** Caught a fatal signal: SIGBUS(7) on node 26/32
NOTICE: Before reporting bugs, run with GASNET_BACKTRACE=1 in the environment to generate a backtrace. 
NOTICE: Before reporting bugs, run with GASNET_BACKTRACE=1 in the environment to generate a backtrace. 
NOTICE: Before reporting bugs, run with GASNET_BACKTRACE=1 in the environment to generate a backtrace. 
*** Caught a fatal signal: SIGBUS(7) on node 29/32
*** Caught a fatal signal: SIGBUS(7) on node 31/32
*** Caught a fatal signal: SIGBUS(7) on node 30/32
NOTICE: Before reporting bugs, run with GASNET_BACKTRACE=1 in the environment to generate a backtrace. 
NOTICE: Before reporting bugs, run with GASNET_BACKTRACE=1 in the environment to generate a backtrace. 
NOTICE: Before reporting bugs, run with GASNET_BACKTRACE=1 in the environment to generate a backtrace. 
_pmiu_daemon(SIGCHLD): [NID 04164] [c5-2c2s1n0] [Wed Jul 30 00:02:20 2014] PE RANK 16 exit signal Alarm clock
_pmiu_daemon(SIGCHLD): [NID 00628] [c3-0c0s13n0] [Wed Jul 30 00:02:20 2014] PE RANK 24 exit signal Alarm clock
_pmiu_daemon(SIGCHLD): [NID 04166] [c5-2c2s1n2] [Wed Jul 30 00:02:20 2014] PE RANK 0 exit signal Alarm clock
[NID 00628] 2014-07-30 00:02:20 Apid 6485855: initiated application termination
[NID 00628] 2014-07-30 00:02:20 Apid 6485855: Error detected during page fault processing.  Process terminated via bus error.
[NID 04165] 2014-07-30 00:02:20 Apid 6485855: Error detected during page fault processing.  Process terminated via bus error.
[NID 04164] 2014-07-30 00:02:20 Apid 6485855: Error detected during page fault processing.  Process terminated via bus error.
[NID 04166] 2014-07-30 00:02:20 Apid 6485855: Error detected during page fault processing.  Process terminated via bus error.
UPC Runtime error: Client issued more requests than queue slots, should call waitsync : 8192 8192 

NOTICE: Before reporting bugs, run with GASNET_BACKTRACE=1 in the environment to generate a backtrace. 
_pmiu_daemon(SIGCHLD): [NID 00628] [c3-0c0s13n0] [Wed Jul 30 00:02:47 2014] PE RANK 25 exit signal Alarm clock
[NID 00628] 2014-07-30 00:02:47 Apid 6485861: initiated application termination
*** Caught a fatal signal: SIGBUS(7) on node 15/32
NOTICE: Before reporting bugs, run with GASNET_BACKTRACE=1 in the environment to generate a backtrace. 
[NID 04165] 2014-07-30 00:02:47 Apid 6485861: Error detected during page fault processing.  Process terminated via bus error.
UPC Runtime error: Client issued more requests than queue slots, should call waitsync : 8192 8192 

NOTICE: Before reporting bugs, run with GASNET_BACKTRACE=1 in the environment to generate a backtrace. 
UPC Runtime error: Client issued more requests than queue slots, should call waitsync : 8192 8192 

NOTICE: Before reporting bugs, run with GASNET_BACKTRACE=1 in the environment to generate a backtrace. 
*** Caught a fatal signal: SIGBUS(7) on node 6/32
*** Caught a fatal signal: SIGBUS(7) on node 7/32
NOTICE: Before reporting bugs, run with GASNET_BACKTRACE=1 in the environment to generate a backtrace. 
*** Caught a fatal signal: SIGBUS(7) on node 5/32
NOTICE: Before reporting bugs, run with GASNET_BACKTRACE=1 in the environment to generate a backtrace. 
NOTICE: Before reporting bugs, run with GASNET_BACKTRACE=1 in the environment to generate a backtrace. 
*** Caught a fatal signal: SIGBUS(7) on node 23/32
*** Caught a fatal signal: SIGBUS(7) on node 22/32
*** Caught a fatal signal: SIGBUS(7) on node 21/32
NOTICE: Before reporting bugs, run with GASNET_BACKTRACE=1 in the environment to generate a backtrace. 
NOTICE: Before reporting bugs, run with GASNET_BACKTRACE=1 in the environment to generate a backtrace. 
NOTICE: Before reporting bugs, run with GASNET_BACKTRACE=1 in the environment to generate a backtrace. 
*** Caught a fatal signal: SIGBUS(7) on node 18/32
*** Caught a fatal signal: SIGBUS(7) on node 19/32
NOTICE: Before reporting bugs, run with GASNET_BACKTRACE=1 in the environment to generate a backtrace. 
NOTICE: Before reporting bugs, run with GASNET_BACKTRACE=1 in the environment to generate a backtrace. 
*** Caught a fatal signal: SIGBUS(7) on node 17/32
NOTICE: Before reporting bugs, run with GASNET_BACKTRACE=1 in the environment to generate a backtrace. 
*** Caught a fatal signal: SIGBUS(7) on node 3/32
*** Caught a fatal signal: SIGBUS(7) on node 2/32
*** Caught a fatal signal: SIGBUS(7) on node 1/32
NOTICE: Before reporting bugs, run with GASNET_BACKTRACE=1 in the environment to generate a backtrace. 
NOTICE: Before reporting bugs, run with GASNET_BACKTRACE=1 in the environment to generate a backtrace. 
NOTICE: Before reporting bugs, run with GASNET_BACKTRACE=1 in the environment to generate a backtrace. 
*** Caught a fatal signal: SIGBUS(7) on node 13/32
*** Caught a fatal signal: SIGBUS(7) on node 15/32
*** Caught a fatal signal: SIGBUS(7) on node 14/32
NOTICE: Before reporting bugs, run with GASNET_BACKTRACE=1 in the environment to generate a backtrace. 
NOTICE: Before reporting bugs, run with GASNET_BACKTRACE=1 in the environment to generate a backtrace. 
NOTICE: Before reporting bugs, run with GASNET_BACKTRACE=1 in the environment to generate a backtrace. 
*** Caught a fatal signal: SIGBUS(7) on node 27/32
*** Caught a fatal signal: SIGBUS(7) on node 25/32
*** Caught a fatal signal: SIGBUS(7) on node 26/32
NOTICE: Before reporting bugs, run with GASNET_BACKTRACE=1 in the environment to generate a backtrace. 
NOTICE: Before reporting bugs, run with GASNET_BACKTRACE=1 in the environment to generate a backtrace. 
NOTICE: Before reporting bugs, run with GASNET_BACKTRACE=1 in the environment to generate a backtrace. 
_pmiu_daemon(SIGCHLD): [NID 04164] [c5-2c2s1n0] [Wed Jul 30 00:05:20 2014] PE RANK 22 exit signal Bus error
_pmiu_daemon(SIGCHLD): [NID 00628] [c3-0c0s13n0] [Wed Jul 30 00:05:20 2014] PE RANK 27 exit signal Bus error
_pmiu_daemon(SIGCHLD): [NID 04165] [c5-2c2s1n1] [Wed Jul 30 00:05:20 2014] PE RANK 11 exit signal Alarm clock
[NID 04164] 2014-07-30 00:05:20 Apid 6485899: initiated application termination
[NID 04164] 2014-07-30 00:05:20 Apid 6485899: Error detected during page fault processing.  Process terminated via bus error.
[NID 00628] 2014-07-30 00:05:20 Apid 6485899: Error detected during page fault processing.  Process terminated via bus error.
[NID 04165] 2014-07-30 00:05:20 Apid 6485899: Error detected during page fault processing.  Process terminated via bus error.
[NID 04166] 2014-07-30 00:05:21 Apid 6485899: Error detected during page fault processing.  Process terminated via bus error.
UPC Runtime error: Client issued more requests than queue slots, should call waitsync : 8192 8192 

NOTICE: Before reporting bugs, run with GASNET_BACKTRACE=1 in the environment to generate a backtrace. 
UPC Runtime error: Client issued more requests than queue slots, should call waitsync : 8192 8192 

NOTICE: Before reporting bugs, run with GASNET_BACKTRACE=1 in the environment to generate a backtrace. 
UPC Runtime error: Client issued more requests than queue slots, should call waitsync : 8192 8192 

NOTICE: Before reporting bugs, run with GASNET_BACKTRACE=1 in the environment to generate a backtrace. 
*** Caught a fatal signal: SIGBUS(7) on node 5/32
*** Caught a fatal signal: SIGBUS(7) on node 7/32
*** Caught a fatal signal: SIGBUS(7) on node 6/32
NOTICE: Before reporting bugs, run with GASNET_BACKTRACE=1 in the environment to generate a backtrace. 
NOTICE: Before reporting bugs, run with GASNET_BACKTRACE=1 in the environment to generate a backtrace. 
NOTICE: Before reporting bugs, run with GASNET_BACKTRACE=1 in the environment to generate a backtrace. 
*** Caught a fatal signal: SIGBUS(7) on node 19/32
*** Caught a fatal signal: SIGBUS(7) on node 17/32
*** Caught a fatal signal: SIGBUS(7) on node 18/32
NOTICE: Before reporting bugs, run with GASNET_BACKTRACE=1 in the environment to generate a backtrace. 
NOTICE: Before reporting bugs, run with GASNET_BACKTRACE=1 in the environment to generate a backtrace. 
NOTICE: Before reporting bugs, run with GASNET_BACKTRACE=1 in the environment to generate a backtrace. 
*** Caught a fatal signal: SIGBUS(7) on node 15/32
*** Caught a fatal signal: SIGBUS(7) on node 14/32
*** Caught a fatal signal: SIGBUS(7) on node 13/32
NOTICE: Before reporting bugs, run with GASNET_BACKTRACE=1 in the environment to generate a backtrace. 
NOTICE: Before reporting bugs, run with GASNET_BACKTRACE=1 in the environment to generate a backtrace. 
NOTICE: Before reporting bugs, run with GASNET_BACKTRACE=1 in the environment to generate a backtrace. 
*** Caught a fatal signal: SIGBUS(7) on node 1/32
*** Caught a fatal signal: SIGBUS(7) on node 3/32
*** Caught a fatal signal: SIGBUS(7) on node 2/32
NOTICE: Before reporting bugs, run with GASNET_BACKTRACE=1 in the environment to generate a backtrace. 
NOTICE: Before reporting bugs, run with GASNET_BACKTRACE=1 in the environment to generate a backtrace. 
NOTICE: Before reporting bugs, run with GASNET_BACKTRACE=1 in the environment to generate a backtrace. 
*** Caught a fatal signal: SIGBUS(7) on node 25/32
*** Caught a fatal signal: SIGBUS(7) on node 27/32
*** Caught a fatal signal: SIGBUS(7) on node 26/32
NOTICE: Before reporting bugs, run with GASNET_BACKTRACE=1 in the environment to generate a backtrace. 
NOTICE: Before reporting bugs, run with GASNET_BACKTRACE=1 in the environment to generate a backtrace. 
NOTICE: Before reporting bugs, run with GASNET_BACKTRACE=1 in the environment to generate a backtrace. 
_pmiu_daemon(SIGCHLD): [NID 04165] [c5-2c2s1n1] [Wed Jul 30 00:05:47 2014] PE RANK 9 exit signal Alarm clock
_pmiu_daemon(SIGCHLD): [NID 04164] [c5-2c2s1n0] [Wed Jul 30 00:05:47 2014] PE RANK 17 exit signal Bus error
_pmiu_daemon(SIGCHLD): [NID 04166] [c5-2c2s1n2] [Wed Jul 30 00:05:47 2014] PE RANK 4 exit signal Alarm clock
_pmiu_daemon(SIGCHLD): [NID 00628] [c3-0c0s13n0] [Wed Jul 30 00:05:47 2014] PE RANK 24 exit signal Alarm clock
[NID 04166] 2014-07-30 00:05:47 Apid 6485902: initiated application termination
[NID 00628] 2014-07-30 00:05:48 Apid 6485902: Error detected during page fault processing.  Process terminated via bus error.
[NID 04164] 2014-07-30 00:05:48 Apid 6485902: Error detected during page fault processing.  Process terminated via bus error.
[NID 04165] 2014-07-30 00:05:48 Apid 6485902: Error detected during page fault processing.  Process terminated via bus error.
[NID 04166] 2014-07-30 00:05:48 Apid 6485902: Error detected during page fault processing.  Process terminated via bus error.
